<?xml version="1.0"?>
<VTKFile type="PolyData" version="0.1" byte_order="LittleEndian">
  <PolyData>
    <Piece NumberOfPoints="     19" NumberOfVerts="  0" NumberOfLines="     18"
           NumberOfStrips="  0" NumberOfPolys="      0">
      <Points>
        <DataArray type="Float32" NumberOfComponents="3" format="ascii">
                      -4.91934                       0.31460                      88.57465
                      -5.10098                       0.61959                      87.25451
                      -5.48449                       1.32163                      84.63731
                      -5.87537                       2.06724                      82.03031
                      -6.36367                       3.02516                      78.77675
                      -6.88931                       4.03530                      74.83225
                      -7.38305                       4.91832                      70.85425
                      -7.87458                       5.79763                      66.87447
                      -8.37162                       6.67051                      62.89289
                      -8.88870                       7.53720                      58.91133
                      -9.44422                       8.39882                      54.93290
                     -10.05746                       9.25059                      50.96044
                     -10.75164                      10.08800                      46.99866
                     -11.55220                      10.90522                      43.05390
                     -12.48413                      11.69544                      39.13395
                     -13.38448                      12.32633                      35.89412
                     -14.19248                      12.80230                      33.32211
                     -15.07819                      13.20381                      30.75989
                     -15.56722                      13.43401                      29.49991
        </DataArray>
      </Points>
      <PointData>
        <DataArray type="Float32" Name="TranslationalVelocity" NumberOfComponents="3" format="ascii">
                       0.10057                       4.78360                       1.07837
                       0.19225                       9.15066                       2.07455
                       0.39892                      17.81085                       4.36737
                       0.60959                      26.43275                       6.80168
                       0.86216                      37.18093                       9.92765
                       1.09028                      50.17238                      13.22227
                       1.23941                      63.24039                      16.10193
                       1.34368                      76.28963                      18.96976
                       1.40295                      89.32298                      21.81778
                       1.42041                     102.34007                      24.64787
                       1.40179                     115.33803                      27.46488
                       1.35316                     128.31566                      30.25454
                       1.28246                     141.26711                      33.00349
                       1.19871                     154.18190                      35.69409
                       1.11184                     167.04479                      38.30525
                       1.04464                     177.70728                      40.39871
                       0.99653                     186.19579                      41.98510
                       0.94396                     194.67323                      43.33512
                       0.93348                     198.85627                      44.10711
        </DataArray>
        <DataArray type="Float32" Name="RotationalVelocity" NumberOfComponents="3" format="ascii">
                       3.26722                      -0.00052                      -0.30200
                       3.26648                       0.00017                      -0.30170
                       3.26441                       0.00258                      -0.30078
                       3.26172                       0.00623                      -0.29939
                       3.25776                       0.01215                      -0.29704
                       3.25253                       0.02074                      -0.29337
                       3.24717                       0.03026                      -0.28894
                       3.24198                       0.04003                      -0.28399
                       3.23718                       0.04945                      -0.27881
                       3.23290                       0.05795                      -0.27369
                       3.22920                       0.06505                      -0.26898
                       3.22611                       0.07037                      -0.26498
                       3.22363                       0.07359                      -0.26199
                       3.22172                       0.07453                      -0.26029
                       3.22037                       0.07312                      -0.26008
                       3.21966                       0.07024                      -0.26112
                       3.21939                       0.06684                      -0.26282
                       3.21938                       0.06257                      -0.26528
                       3.21949                       0.06015                      -0.26678
        </DataArray>
        <DataArray type="Float32" Name="TranslationalAcceleration" NumberOfComponents="3" format="ascii">
                       1.38662                      -3.52553                      15.70143
                       1.72420                      -4.31714                      18.94886
                       4.94696                     -13.34084                      53.96275
                       7.93758                     -22.17857                      85.97676
                      11.46062                     -32.87850                     123.16315
                      15.52634                     -43.65530                     165.59881
                      19.51172                     -52.80600                     207.06609
                      23.45531                     -61.88973                     248.26150
                      27.39315                     -71.00468                     289.72791
                      31.34502                     -80.19757                     331.63884
                      35.32863                     -89.46194                     373.89813
                      39.37305                     -98.68837                     416.25426
                      43.53115                    -107.75218                     458.37992
                      47.89265                    -116.51834                     499.97257
                      52.59739                    -124.86662                     540.85503
                      56.93565                    -131.42487                     574.38978
                      60.77649                    -136.32026                     601.00896
                      65.07790                    -140.42544                     627.76077
                      67.41328                    -142.80517                     641.11059
        </DataArray>
        <DataArray type="Float32" Name="OrientationX" NumberOfComponents="3" format="ascii">
                       0.96896                       0.23391                      -0.08008
                       0.96899                       0.23387                      -0.07982
                       0.96903                       0.23397                      -0.07896
                       0.96907                       0.23426                      -0.07764
                       0.96907                       0.23496                      -0.07548
                       0.97519                       0.20635                      -0.08018
                       0.97872                       0.18772                      -0.08282
                       0.98095                       0.17436                      -0.08568
                       0.98238                       0.16342                      -0.09065
                       0.98277                       0.15638                      -0.09852
                       0.98167                       0.15582                      -0.10973
                       0.97892                       0.16132                      -0.12524
                       0.97387                       0.17468                      -0.14515
                       0.96552                       0.19799                      -0.16904
                       0.95384                       0.22607                      -0.19771
                       0.94136                       0.25162                      -0.22477
                       0.92943                       0.27320                      -0.24803
                       0.91519                       0.29799                      -0.27134
                       0.90707                       0.31199                      -0.28263
        </DataArray>
        <DataArray type="Float32" Name="OrientationY" NumberOfComponents="3" format="ascii">
                       0.20833                      -0.94688                      -0.24498
                       0.20837                      -0.94690                      -0.24487
                       0.20869                      -0.94689                      -0.24462
                       0.20931                      -0.94683                      -0.24432
                       0.21054                      -0.94667                      -0.24390
                       0.18192                      -0.95334                      -0.24094
                       0.16339                      -0.95723                      -0.23878
                       0.14990                      -0.95985                      -0.23711
                       0.13826                      -0.96194                      -0.23571
                       0.12977                      -0.96337                      -0.23468
                       0.12681                      -0.96387                      -0.23426
                       0.12879                      -0.96357                      -0.23442
                       0.13747                      -0.96210                      -0.23553
                       0.15489                      -0.95877                      -0.23828
                       0.17590                      -0.95410                      -0.24237
                       0.19481                      -0.94928                      -0.24681
                       0.21064                      -0.94471                      -0.25129
                       0.22929                      -0.93868                      -0.25750
                       0.24006                      -0.93487                      -0.26152
        </DataArray>
        <DataArray type="Float32" Name="OrientationZ" NumberOfComponents="3" format="ascii">
                      -0.13313                       0.22069                      -0.96622
                      -0.13285                       0.22064                      -0.96627
                      -0.13200                       0.22056                      -0.96640
                      -0.13075                       0.22051                      -0.96658
                      -0.12876                       0.22047                      -0.96686
                      -0.12615                       0.22038                      -0.96722
                      -0.12410                       0.22017                      -0.96754
                      -0.12359                       0.21975                      -0.96770
                      -0.12572                       0.21902                      -0.96759
                      -0.13161                       0.21785                      -0.96707
                      -0.14227                       0.21605                      -0.96596
                      -0.15849                       0.21335                      -0.96403
                      -0.18079                       0.20942                      -0.96097
                      -0.20925                       0.20389                      -0.95637
                      -0.24343                       0.19641                      -0.94982
                      -0.27548                       0.18855                      -0.94264
                      -0.30297                       0.18131                      -0.93559
                      -0.33143                       0.17344                      -0.92740
                      -0.34581                       0.16937                      -0.92289
        </DataArray>
        <DataArray type="Float32" Name="Force" NumberOfComponents="3" format="ascii">
                      -0.41714                     -20.03857                      -4.51948
                     352.37508                    -168.25751                     -86.87743
                     498.39535                    -477.54247                    -177.13957
                     489.65881                    -704.76141                    -227.17299
                    3783.76498                    1262.43080                    -215.65386
                    4270.85132                    1083.27950                    -309.74478
                    4751.86209                     965.48669                    -389.10224
                    6479.27222                    1137.11366                    -567.91112
                    7189.98958                    1072.69346                    -689.30102
                    7838.20868                    1042.69837                    -828.58404
                   10080.36945                    1226.36884                   -1204.49538
                    9794.62227                    1134.05756                   -1351.41710
                    6455.15022                     691.24810                   -1057.09820
                    1492.06622                     -51.21315                    -338.85223
                   -2173.29319                    -604.67690                     419.07188
                   -9411.19125                   -1793.42405                    2346.70279
                  -15357.82531                   -2865.01372                    4334.78019
                  -16690.12237                   -3242.98528                    5249.03197
                  -37439.10972                   -4742.34055                   13024.96989
        </DataArray>
        <DataArray type="Float32" Name="Moment" NumberOfComponents="3" format="ascii">
                       0.00000                       0.00000                       0.00000
                       0.00000                       0.00000                       0.00000
                       0.00000                       0.00000                       0.00000
                       0.00000                       0.00000                       0.00000
                     258.14977                    -442.58361                    1938.50868
                     462.27154                    -809.03819                    3544.46178
                     614.70723                   -1093.79909                    4792.97046
                     962.27278                   -1719.57478                    7535.46670
                    1400.31489                   -2460.04201                   10778.13363
                    1662.17590                   -2789.27766                   12213.73544
                    1993.02996                   -3093.10358                   13530.30718
                    2343.79313                   -3262.54999                   14249.22692
                    2010.57170                   -2449.63697                   10675.67370
                    2211.33750                   -2321.27309                   10088.00112
                    2426.82142                   -2179.68900                    9440.35402
                    2539.14928                   -2004.08535                    8651.39153
                    2440.57977                   -1741.41179                    7495.84239
                    1291.44705                    -836.47174                    3589.56545
                     179.84184                    -111.20214                     476.45101
        </DataArray>
      </PointData>
      <Lines>
        <DataArray type="Int32" Name="connectivity" format="ascii">
      0      1
      1      2
      2      3
      3      4
      4      5
      5      6
      6      7
      7      8
      8      9
      9     10
     10     11
     11     12
     12     13
     13     14
     14     15
     15     16
     16     17
     17     18
        </DataArray>
        <DataArray type="Int32" Name="offsets" format="ascii">
      2
      4
      6
      8
     10
     12
     14
     16
     18
     20
     22
     24
     26
     28
     30
     32
     34
     36
        </DataArray>
      </Lines>
    </Piece>
  </PolyData>
</VTKFile>
