<?xml version="1.0"?>
<VTKFile type="PolyData" version="0.1" byte_order="LittleEndian">
  <PolyData>
    <Piece NumberOfPoints="     22" NumberOfVerts="  0" NumberOfLines="     21"
           NumberOfStrips="  0" NumberOfPolys="      0">
      <Points>
        <DataArray type="Float32" NumberOfComponents="3" format="ascii">
                       0.00016                       0.00001                       2.19000
                       0.00157                       0.00008                       6.57000
                       0.00470                       0.00021                      10.95000
                       0.00968                       0.00039                      15.33000
                       0.01655                       0.00061                      19.70999
                       0.02526                       0.00088                      24.08998
                       0.03574                       0.00119                      28.46997
                       0.04793                       0.00154                      32.84995
                       0.06180                       0.00193                      37.22993
                       0.07734                       0.00236                      41.60990
                       0.09460                       0.00283                      45.98987
                       0.11365                       0.00333                      50.36983
                       0.13459                       0.00386                      54.74978
                       0.15749                       0.00442                      59.12972
                       0.18240                       0.00500                      63.50964
                       0.20926                       0.00561                      67.88956
                       0.23785                       0.00622                      72.26947
                       0.26777                       0.00685                      76.64937
                       0.29832                       0.00748                      81.02926
                       0.32840                       0.00812                      85.40916
                       0.34282                       0.00845                      87.59911
                       0.00000                       0.00000                       0.00000
        </DataArray>
      </Points>
      <PointData>
        <DataArray type="Float32" Name="TranslationalVelocity" NumberOfComponents="3" format="ascii">
                       0.00002                      -0.00003                      -0.00000
                       0.00015                      -0.00023                      -0.00000
                       0.00040                      -0.00061                      -0.00000
                       0.00071                      -0.00112                      -0.00000
                       0.00106                      -0.00174                      -0.00000
                       0.00140                      -0.00246                      -0.00000
                       0.00165                      -0.00326                      -0.00000
                       0.00175                      -0.00410                      -0.00000
                       0.00162                      -0.00498                      -0.00000
                       0.00118                      -0.00587                      -0.00000
                       0.00035                      -0.00674                       0.00000
                      -0.00096                      -0.00757                       0.00001
                      -0.00281                      -0.00833                       0.00002
                      -0.00526                      -0.00899                       0.00003
                      -0.00836                      -0.00953                       0.00005
                      -0.01211                      -0.00993                       0.00007
                      -0.01651                      -0.01018                       0.00010
                      -0.02147                      -0.01028                       0.00013
                      -0.02688                      -0.01023                       0.00017
                      -0.03257                      -0.01006                       0.00021
                      -0.03544                      -0.00996                       0.00023
                       0.00000                      -0.00000                       0.00000
        </DataArray>
        <DataArray type="Float32" Name="RotationalVelocity" NumberOfComponents="3" format="ascii">
                       0.00002                       0.00002                       0.00000
                       0.00007                       0.00004                       0.00000
                       0.00010                       0.00007                       0.00000
                       0.00013                       0.00008                       0.00000
                       0.00015                       0.00008                       0.00000
                       0.00017                       0.00007                       0.00000
                       0.00019                       0.00004                       0.00000
                       0.00020                      -0.00000                       0.00000
                       0.00020                      -0.00006                       0.00000
                       0.00020                      -0.00014                       0.00000
                       0.00020                      -0.00024                       0.00000
                       0.00018                      -0.00036                       0.00000
                       0.00016                      -0.00049                       0.00000
                       0.00014                      -0.00063                       0.00000
                       0.00011                      -0.00078                       0.00000
                       0.00007                      -0.00093                       0.00000
                       0.00004                      -0.00107                       0.00000
                       0.00000                      -0.00119                       0.00000
                      -0.00003                      -0.00128                       0.00000
                      -0.00005                      -0.00131                       0.00000
                      -0.00005                      -0.00131                       0.00000
                       0.00000                      -0.00000                       0.00000
        </DataArray>
        <DataArray type="Float32" Name="TranslationalAcceleration" NumberOfComponents="3" format="ascii">
                       0.00114                      -0.00027                      -0.00000
                       0.01057                      -0.00229                      -0.00000
                       0.02971                      -0.00596                      -0.00002
                       0.05800                      -0.01100                      -0.00005
                       0.09419                      -0.01715                      -0.00011
                       0.13646                      -0.02421                      -0.00019
                       0.18259                      -0.03198                      -0.00030
                       0.23013                      -0.04026                      -0.00043
                       0.27648                      -0.04883                      -0.00058
                       0.31902                      -0.05746                      -0.00073
                       0.35528                      -0.06590                      -0.00087
                       0.38297                      -0.07389                      -0.00099
                       0.40010                      -0.08114                      -0.00107
                       0.40507                      -0.08740                      -0.00109
                       0.39675                      -0.09243                      -0.00104
                       0.37451                      -0.09602                      -0.00091
                       0.33829                      -0.09806                      -0.00068
                       0.28866                      -0.09853                      -0.00034
                       0.22683                      -0.09754                       0.00008
                       0.15468                      -0.09541                       0.00056
                       0.11551                      -0.09407                       0.00082
                       0.00000                      -0.00000                       0.00000
        </DataArray>
        <DataArray type="Float32" Name="RotationalAcceleration" NumberOfComponents="3" format="ascii">
                       0.00024                       0.00105                       0.00000
                       0.00066                       0.00327                       0.00000
                       0.00100                       0.00545                       0.00000
                       0.00129                       0.00742                       0.00000
                       0.00152                       0.00903                       0.00000
                       0.00170                       0.01018                       0.00000
                       0.00184                       0.01079                       0.00000
                       0.00193                       0.01082                       0.00000
                       0.00197                       0.01025                       0.00000
                       0.00196                       0.00909                       0.00000
                       0.00189                       0.00738                       0.00000
                       0.00175                       0.00518                       0.00000
                       0.00155                       0.00258                       0.00000
                       0.00130                      -0.00035                       0.00000
                       0.00099                      -0.00348                       0.00000
                       0.00065                      -0.00668                       0.00000
                       0.00028                      -0.00983                       0.00000
                      -0.00007                      -0.01278                       0.00000
                      -0.00037                      -0.01538                       0.00000
                      -0.00058                      -0.01747                       0.00000
                      -0.00064                      -0.01828                       0.00000
                       0.00000                      -0.00000                       0.00000
        </DataArray>
        <DataArray type="Float32" Name="OrientationX" NumberOfComponents="3" format="ascii">
                       1.00000                      -0.00000                      -0.00015
                       1.00000                      -0.00000                      -0.00051
                       1.00000                      -0.00000                      -0.00092
                       1.00000                      -0.00000                      -0.00135
                       1.00000                      -0.00000                      -0.00178
                       1.00000                      -0.00000                      -0.00219
                       1.00000                      -0.00000                      -0.00259
                       1.00000                      -0.00000                      -0.00298
                       0.99999                      -0.00000                      -0.00336
                       0.99999                      -0.00000                      -0.00374
                       0.99999                      -0.00000                      -0.00414
                       0.99999                      -0.00000                      -0.00456
                       0.99999                      -0.00000                      -0.00500
                       0.99999                      -0.00000                      -0.00546
                       0.99998                      -0.00000                      -0.00591
                       0.99998                      -0.00000                      -0.00634
                       0.99998                      -0.00000                      -0.00670
                       0.99998                      -0.00000                      -0.00694
                       0.99998                      -0.00000                      -0.00697
                       0.99998                      -0.00000                      -0.00671
                       0.99998                      -0.00000                      -0.00643
                       1.00000                      -0.00000                       0.00000
        </DataArray>
        <DataArray type="Float32" Name="OrientationY" NumberOfComponents="3" format="ascii">
                      -0.00000                       1.00000                      -0.00001
                      -0.00000                       1.00000                      -0.00002
                      -0.00000                       1.00000                      -0.00004
                      -0.00000                       1.00000                      -0.00005
                      -0.00000                       1.00000                      -0.00006
                      -0.00000                       1.00000                      -0.00007
                      -0.00000                       1.00000                      -0.00008
                      -0.00000                       1.00000                      -0.00008
                      -0.00000                       1.00000                      -0.00009
                      -0.00000                       1.00000                      -0.00010
                      -0.00000                       1.00000                      -0.00011
                      -0.00000                       1.00000                      -0.00012
                      -0.00000                       1.00000                      -0.00012
                      -0.00000                       1.00000                      -0.00013
                      -0.00000                       1.00000                      -0.00014
                      -0.00000                       1.00000                      -0.00014
                      -0.00000                       1.00000                      -0.00014
                      -0.00000                       1.00000                      -0.00014
                      -0.00000                       1.00000                      -0.00015
                      -0.00000                       1.00000                      -0.00015
                      -0.00000                       1.00000                      -0.00015
                      -0.00000                       1.00000                      -0.00000
        </DataArray>
        <DataArray type="Float32" Name="OrientationZ" NumberOfComponents="3" format="ascii">
                       0.00015                       0.00001                       1.00000
                       0.00051                       0.00002                       1.00000
                       0.00092                       0.00004                       1.00000
                       0.00135                       0.00005                       1.00000
                       0.00178                       0.00006                       1.00000
                       0.00219                       0.00007                       1.00000
                       0.00259                       0.00008                       1.00000
                       0.00298                       0.00008                       1.00000
                       0.00336                       0.00009                       0.99999
                       0.00374                       0.00010                       0.99999
                       0.00414                       0.00011                       0.99999
                       0.00456                       0.00012                       0.99999
                       0.00500                       0.00012                       0.99999
                       0.00546                       0.00013                       0.99999
                       0.00591                       0.00014                       0.99998
                       0.00634                       0.00014                       0.99998
                       0.00670                       0.00014                       0.99998
                       0.00694                       0.00014                       0.99998
                       0.00697                       0.00015                       0.99998
                       0.00671                       0.00015                       0.99998
                       0.00643                       0.00015                       0.99998
                       0.00000                      -0.00000                       1.00000
        </DataArray>
      </PointData>
      <Lines>
        <DataArray type="Int32" Name="connectivity" format="ascii">
      0      1
      1      2
      2      3
      3      4
      4      5
      5      6
      6      7
      7      8
      8      9
      9     10
     10     11
     11     12
     12     13
     13     14
     14     15
     15     16
     16     17
     17     18
     18     19
     19     20
     21      0
        </DataArray>
        <DataArray type="Int32" Name="offsets" format="ascii">
      2
      4
      6
      8
     10
     12
     14
     16
     18
     20
     22
     24
     26
     28
     30
     32
     34
     36
     38
     40
     42
        </DataArray>
      </Lines>
    </Piece>
  </PolyData>
</VTKFile>
