<?xml version="1.0"?>
<VTKFile type="PolyData" version="0.1" byte_order="LittleEndian">
  <PolyData>
    <Piece NumberOfPoints="     19" NumberOfVerts="  0" NumberOfLines="     18"
           NumberOfStrips="  0" NumberOfPolys="      0">
      <Points>
        <DataArray type="Float32" NumberOfComponents="3" format="ascii">
                      -4.66397                      -0.66330                      91.36835
                      -4.61037                      -1.26951                      92.59238
                      -4.52876                      -2.56738                      95.00035
                      -4.45608                      -3.90659                      97.38910
                      -4.36410                      -5.60645                     100.36270
                      -4.18003                      -7.52170                     103.98898
                      -3.95104                      -9.32369                     107.66916
                      -3.71504                     -11.12555                     111.34980
                      -3.48053                     -12.92442                     115.03333
                      -3.26360                     -14.71988                     118.72108
                      -3.08478                     -16.51205                     122.41361
                      -2.96555                     -18.29528                     126.11332
                      -2.93178                     -20.06372                     129.82134
                      -3.01187                     -21.80987                     133.53783
                      -3.23394                     -23.52489                     137.26148
                      -3.55348                     -24.92141                     140.36820
                      -3.90443                     -26.00619                     142.85730
                      -4.33763                     -27.01634                     145.36849
                      -4.60674                     -27.54520                     146.60512
        </DataArray>
      </Points>
      <PointData>
        <DataArray type="Float32" Name="TranslationalVelocity" NumberOfComponents="3" format="ascii">
                      -0.19513                      -4.43779                      -2.16480
                      -0.37895                      -8.45842                      -4.14789
                      -0.77130                     -16.36504                      -8.39620
                      -1.17594                     -24.21217                     -12.78366
                      -1.69012                     -33.99088                     -18.35892
                      -2.26903                     -45.95321                     -24.64978
                      -2.80862                     -58.12452                     -30.57835
                      -3.33523                     -70.31855                     -36.51651
                      -3.83838                     -82.54058                     -42.45521
                      -4.30729                     -94.78991                     -48.39317
                      -4.73118                    -107.06240                     -54.33012
                      -5.09842                    -119.36007                     -60.24596
                      -5.39910                    -131.68058                     -66.11891
                      -5.62549                    -144.01873                     -71.92033
                      -5.77310                    -156.36601                     -77.61597
                      -5.83392                    -166.65367                     -82.24712
                      -5.84374                    -174.88692                     -85.83695
                      -5.81053                    -183.18839                     -89.16999
                      -5.79216                    -187.27006                     -90.91038
        </DataArray>
        <DataArray type="Float32" Name="RotationalVelocity" NumberOfComponents="3" format="ascii">
                       3.27071                      -0.00013                      -0.30192
                       3.27150                      -0.00013                      -0.30194
                       3.27362                      -0.00015                      -0.30202
                       3.27630                      -0.00016                      -0.30211
                       3.28015                      -0.00002                      -0.30209
                       3.28518                       0.00067                      -0.30154
                       3.29036                       0.00230                      -0.29999
                       3.29552                       0.00523                      -0.29700
                       3.30062                       0.00978                      -0.29217
                       3.30567                       0.01616                      -0.28522
                       3.31072                       0.02448                      -0.27606
                       3.31581                       0.03464                      -0.26481
                       3.32095                       0.04636                      -0.25192
                       3.32607                       0.05909                      -0.23817
                       3.33098                       0.07199                      -0.22475
                       3.33469                       0.08209                      -0.21493
                       3.33720                       0.08910                      -0.20891
                       3.33910                       0.09459                      -0.20534
                       3.33974                       0.09657                      -0.20475
        </DataArray>
        <DataArray type="Float32" Name="TranslationalAcceleration" NumberOfComponents="3" format="ascii">
                      -1.17792                       7.07679                     -14.32445
                      -1.54075                       8.66441                     -17.41806
                      -4.37930                      25.74851                     -49.42885
                      -7.00100                      42.02273                     -78.66133
                     -10.11308                      61.48203                    -112.67334
                     -13.81802                      82.46417                    -152.06946
                     -17.58576                     101.77543                    -191.16637
                     -21.40847                     121.09192                    -230.27312
                     -25.27748                     140.61098                    -269.89383
                     -29.14309                     160.39200                    -310.18642
                     -32.93018                     180.37994                    -351.06058
                     -36.55523                     200.38314                    -392.30321
                     -39.93889                     220.18154                    -433.63700
                     -43.02141                     239.55694                    -474.81905
                     -45.77791                     258.34482                    -515.73348
                     -47.83802                     273.48177                    -549.68791
                     -49.36915                     285.20065                    -576.93086
                     -50.82672                     296.16909                    -604.69941
                     -51.55761                     301.99481                    -618.55513
        </DataArray>
        <DataArray type="Float32" Name="OrientationX" NumberOfComponents="3" format="ascii">
                       0.96226                      -0.22527                      -0.15266
                       0.96224                      -0.22512                      -0.15300
                       0.96211                      -0.22484                      -0.15422
                       0.96188                      -0.22455                      -0.15609
                       0.96144                      -0.22428                      -0.15916
                       0.96887                      -0.19677                      -0.15023
                       0.97318                      -0.17850                      -0.14509
                       0.97614                      -0.16548                      -0.14057
                       0.97868                      -0.15548                      -0.13422
                       0.98065                      -0.15025                      -0.12548
                       0.98166                      -0.15251                      -0.11441
                       0.98169                      -0.16216                      -0.09993
                       0.98002                      -0.18108                      -0.08226
                       0.97546                      -0.21121                      -0.06217
                       0.96809                      -0.24773                      -0.03775
                       0.95948                      -0.28140                      -0.01428
                       0.95070                      -0.31006                       0.00611
                       0.93934                      -0.34199                       0.02611
                       0.93248                      -0.35947                       0.03549
        </DataArray>
        <DataArray type="Float32" Name="OrientationY" NumberOfComponents="3" format="ascii">
                       0.26932                       0.86872                       0.41568
                       0.26934                       0.86872                       0.41567
                       0.26962                       0.86864                       0.41565
                       0.27019                       0.86851                       0.41557
                       0.27130                       0.86826                       0.41536
                       0.24271                       0.87452                       0.41988
                       0.22408                       0.87813                       0.42269
                       0.21043                       0.88052                       0.42473
                       0.19867                       0.88241                       0.42648
                       0.19012                       0.88367                       0.42777
                       0.18725                       0.88403                       0.42828
                       0.18954                       0.88361                       0.42815
                       0.19883                       0.88197                       0.42732
                       0.21731                       0.87826                       0.42595
                       0.23993                       0.87286                       0.42492
                       0.26061                       0.86703                       0.42466
                       0.27818                       0.86134                       0.42511
                       0.29895                       0.85369                       0.42643
                       0.31095                       0.84882                       0.42756
        </DataArray>
        <DataArray type="Float32" Name="OrientationZ" NumberOfComponents="3" format="ascii">
                       0.03897                      -0.44110                       0.89661
                       0.03934                      -0.44119                       0.89655
                       0.04051                      -0.44148                       0.89635
                       0.04225                      -0.44190                       0.89607
                       0.04504                      -0.44252                       0.89563
                       0.04876                      -0.44327                       0.89506
                       0.05196                      -0.44387                       0.89458
                       0.05349                      -0.44418                       0.89434
                       0.05212                      -0.44406                       0.89448
                       0.04661                      -0.44335                       0.89514
                       0.03582                      -0.44185                       0.89637
                       0.01887                      -0.43925                       0.89817
                      -0.00483                      -0.43513                       0.90035
                      -0.03537                      -0.42901                       0.90261
                      -0.07232                      -0.42041                       0.90445
                      -0.10712                      -0.41118                       0.90524
                      -0.13707                      -0.40245                       0.90512
                      -0.16812                      -0.39275                       0.90415
                      -0.18382                      -0.38766                       0.90329
        </DataArray>
        <DataArray type="Float32" Name="Force" NumberOfComponents="3" format="ascii">
                       1.45853                      32.24289                      15.79902
                     500.27693                     215.37511                      84.00807
                     689.16967                     555.42022                     242.13949
                     665.31251                     775.14526                     350.09100
                    5098.46583                   -1662.09071                   -1074.75574
                    5850.03134                   -1481.68638                   -1048.59932
                    6588.74437                   -1367.75734                   -1056.76268
                    8716.37697                   -1562.46039                   -1291.59414
                    9398.48226                   -1433.35539                   -1254.19716
                   10172.14517                   -1405.02311                   -1221.75647
                   12557.44737                   -1612.26542                   -1294.82687
                   12222.64313                   -1548.23823                   -1015.87290
                    8611.04549                   -1109.62946                    -494.81836
                    2787.75042                    -192.21257                      17.40445
                   -1530.44396                     550.02441                     142.79546
                  -10044.37765                    2241.12915                    -128.59053
                  -17220.52025                    3882.17381                    -797.05198
                  -18750.32485                    4523.54764                   -1406.17493
                  -40725.37558                    7773.79967                   -4796.32507
        </DataArray>
        <DataArray type="Float32" Name="Moment" NumberOfComponents="3" format="ascii">
                       0.00000                       0.00000                       0.00000
                       0.00000                       0.00000                       0.00000
                       0.00000                       0.00000                       0.00000
                       0.00000                       0.00000                       0.00000
                    -102.50991                    1002.87278                   -2037.21527
                    -204.33663                    1845.86748                   -3748.21186
                    -289.79676                    2456.16286                   -4985.82291
                    -457.90254                    3769.03164                   -7649.62728
                    -624.97028                    5279.67940                  -10717.15798
                    -629.46502                    5948.42231                  -12081.52422
                    -531.79201                    6543.65205                  -13305.29552
                    -294.19915                    6902.24702                  -14059.05592
                      59.90095                    5196.04752                  -10609.70653
                     404.42740                    4947.89317                  -10135.07509
                     775.22450                    4627.35206                   -9515.14086
                    1060.30737                    4248.96783                   -8769.24651
                    1185.30949                    3689.44070                   -7638.89456
                     701.65651                    1767.16978                   -3671.24365
                     -11.50605                     -26.39152                      54.92245
        </DataArray>
      </PointData>
      <Lines>
        <DataArray type="Int32" Name="connectivity" format="ascii">
      0      1
      1      2
      2      3
      3      4
      4      5
      5      6
      6      7
      7      8
      8      9
      9     10
     10     11
     11     12
     12     13
     13     14
     14     15
     15     16
     16     17
     17     18
        </DataArray>
        <DataArray type="Int32" Name="offsets" format="ascii">
      2
      4
      6
      8
     10
     12
     14
     16
     18
     20
     22
     24
     26
     28
     30
     32
     34
     36
        </DataArray>
      </Lines>
    </Piece>
  </PolyData>
</VTKFile>
