<?xml version="1.0"?>
<VTKFile type="PolyData" version="0.1" byte_order="LittleEndian">
  <PolyData>
    <Piece NumberOfPoints="     22" NumberOfVerts="  0" NumberOfLines="     21"
           NumberOfStrips="  0" NumberOfPolys="      0">
      <Points>
        <DataArray type="Float32" NumberOfComponents="3" format="ascii">
                       0.00013                      -0.00001                       2.19000
                       0.00128                      -0.00012                       6.57000
                       0.00382                      -0.00032                      10.95000
                       0.00786                      -0.00061                      15.33000
                       0.01342                      -0.00098                      19.70999
                       0.02044                      -0.00143                      24.08999
                       0.02887                      -0.00196                      28.46998
                       0.03864                      -0.00258                      32.84997
                       0.04971                      -0.00329                      37.22995
                       0.06207                      -0.00411                      41.60994
                       0.07575                      -0.00503                      45.98992
                       0.09078                      -0.00605                      50.36989
                       0.10722                      -0.00719                      54.74986
                       0.12514                      -0.00844                      59.12982
                       0.14456                      -0.00980                      63.50978
                       0.16542                      -0.01127                      67.88973
                       0.18757                      -0.01284                      72.26967
                       0.21069                      -0.01449                      76.64961
                       0.23423                      -0.01621                      81.02955
                       0.25736                      -0.01799                      85.40949
                       0.26841                      -0.01890                      87.59946
                       0.00000                       0.00000                       0.00000
        </DataArray>
      </Points>
      <PointData>
        <DataArray type="Float32" Name="TranslationalVelocity" NumberOfComponents="3" format="ascii">
                      -0.00006                       0.00003                       0.00000
                      -0.00056                       0.00022                       0.00000
                      -0.00156                       0.00057                       0.00000
                      -0.00304                       0.00106                       0.00000
                      -0.00494                       0.00167                       0.00000
                      -0.00716                       0.00237                       0.00001
                      -0.00958                       0.00316                       0.00001
                      -0.01207                       0.00402                       0.00002
                      -0.01449                       0.00494                       0.00003
                      -0.01672                       0.00590                       0.00003
                      -0.01861                       0.00689                       0.00004
                      -0.02005                       0.00788                       0.00004
                      -0.02093                       0.00886                       0.00005
                      -0.02116                       0.00981                       0.00005
                      -0.02070                       0.01070                       0.00005
                      -0.01950                       0.01153                       0.00004
                      -0.01756                       0.01228                       0.00003
                      -0.01492                       0.01293                       0.00002
                      -0.01163                       0.01351                      -0.00000
                      -0.00779                       0.01402                      -0.00002
                      -0.00572                       0.01426                      -0.00003
                       0.00000                      -0.00000                       0.00000
        </DataArray>
        <DataArray type="Float32" Name="RotationalVelocity" NumberOfComponents="3" format="ascii">
                      -0.00002                      -0.00006                       0.00000
                      -0.00006                      -0.00017                       0.00000
                      -0.00010                      -0.00029                       0.00000
                      -0.00013                      -0.00039                       0.00000
                      -0.00015                      -0.00047                       0.00000
                      -0.00017                      -0.00053                       0.00000
                      -0.00019                      -0.00057                       0.00000
                      -0.00020                      -0.00057                       0.00000
                      -0.00022                      -0.00054                       0.00000
                      -0.00022                      -0.00047                       0.00000
                      -0.00023                      -0.00038                       0.00000
                      -0.00023                      -0.00027                       0.00000
                      -0.00022                      -0.00013                       0.00000
                      -0.00021                       0.00002                       0.00000
                      -0.00020                       0.00019                       0.00000
                      -0.00018                       0.00036                       0.00000
                      -0.00016                       0.00053                       0.00000
                      -0.00014                       0.00068                       0.00000
                      -0.00012                       0.00082                       0.00000
                      -0.00011                       0.00093                       0.00000
                      -0.00011                       0.00097                       0.00000
                       0.00000                      -0.00000                       0.00000
        </DataArray>
        <DataArray type="Float32" Name="TranslationalAcceleration" NumberOfComponents="3" format="ascii">
                      -0.00039                       0.00011                       0.00000
                      -0.00360                       0.00093                       0.00000
                      -0.01011                       0.00243                       0.00000
                      -0.01974                       0.00450                       0.00001
                      -0.03206                       0.00702                       0.00003
                      -0.04644                       0.00994                       0.00005
                      -0.06215                       0.01316                       0.00008
                      -0.07834                       0.01662                       0.00011
                      -0.09412                       0.02024                       0.00015
                      -0.10862                       0.02392                       0.00019
                      -0.12098                       0.02759                       0.00023
                      -0.13043                       0.03112                       0.00026
                      -0.13629                       0.03444                       0.00029
                      -0.13803                       0.03742                       0.00029
                      -0.13525                       0.03998                       0.00028
                      -0.12774                       0.04204                       0.00024
                      -0.11548                       0.04356                       0.00018
                      -0.09867                       0.04451                       0.00009
                      -0.07771                       0.04494                      -0.00002
                      -0.05323                       0.04496                      -0.00015
                      -0.03994                       0.04488                      -0.00022
                       0.00000                      -0.00000                       0.00000
        </DataArray>
        <DataArray type="Float32" Name="RotationalAcceleration" NumberOfComponents="3" format="ascii">
                      -0.00010                      -0.00036                       0.00000
                      -0.00027                      -0.00111                       0.00000
                      -0.00041                      -0.00185                       0.00000
                      -0.00053                      -0.00253                       0.00000
                      -0.00062                      -0.00307                       0.00000
                      -0.00070                      -0.00347                       0.00000
                      -0.00077                      -0.00367                       0.00000
                      -0.00081                      -0.00368                       0.00000
                      -0.00084                      -0.00349                       0.00000
                      -0.00084                      -0.00310                       0.00000
                      -0.00083                      -0.00252                       0.00000
                      -0.00079                      -0.00177                       0.00000
                      -0.00072                      -0.00089                       0.00000
                      -0.00064                       0.00011                       0.00000
                      -0.00053                       0.00117                       0.00000
                      -0.00041                       0.00226                       0.00000
                      -0.00028                       0.00333                       0.00000
                      -0.00016                       0.00433                       0.00000
                      -0.00005                       0.00522                       0.00000
                       0.00003                       0.00593                       0.00000
                       0.00005                       0.00620                       0.00000
                       0.00000                      -0.00000                       0.00000
        </DataArray>
        <DataArray type="Float32" Name="OrientationX" NumberOfComponents="3" format="ascii">
                       1.00000                       0.00000                      -0.00012
                       1.00000                       0.00000                      -0.00042
                       1.00000                       0.00000                      -0.00075
                       1.00000                       0.00000                      -0.00110
                       1.00000                       0.00000                      -0.00144
                       1.00000                       0.00000                      -0.00177
                       1.00000                       0.00000                      -0.00208
                       1.00000                       0.00000                      -0.00238
                       1.00000                       0.00000                      -0.00268
                       1.00000                       0.00000                      -0.00297
                       0.99999                       0.00000                      -0.00327
                       0.99999                       0.00000                      -0.00359
                       0.99999                       0.00000                      -0.00392
                       0.99999                       0.00000                      -0.00426
                       0.99999                       0.00000                      -0.00460
                       0.99999                       0.00000                      -0.00492
                       0.99999                       0.00000                      -0.00518
                       0.99999                       0.00000                      -0.00535
                       0.99999                       0.00000                      -0.00537
                       0.99999                       0.00000                      -0.00515
                       0.99999                       0.00000                      -0.00493
                       1.00000                      -0.00000                       0.00000
        </DataArray>
        <DataArray type="Float32" Name="OrientationY" NumberOfComponents="3" format="ascii">
                       0.00000                       1.00000                       0.00001
                       0.00000                       1.00000                       0.00004
                       0.00000                       1.00000                       0.00006
                       0.00000                       1.00000                       0.00007
                       0.00000                       1.00000                       0.00009
                       0.00000                       1.00000                       0.00011
                       0.00000                       1.00000                       0.00013
                       0.00000                       1.00000                       0.00015
                       0.00000                       1.00000                       0.00017
                       0.00000                       1.00000                       0.00020
                       0.00000                       1.00000                       0.00022
                       0.00000                       1.00000                       0.00025
                       0.00000                       1.00000                       0.00027
                       0.00000                       1.00000                       0.00030
                       0.00000                       1.00000                       0.00032
                       0.00000                       1.00000                       0.00035
                       0.00000                       1.00000                       0.00037
                       0.00000                       1.00000                       0.00039
                       0.00000                       1.00000                       0.00040
                       0.00000                       1.00000                       0.00041
                       0.00000                       1.00000                       0.00042
                      -0.00000                       1.00000                      -0.00000
        </DataArray>
        <DataArray type="Float32" Name="OrientationZ" NumberOfComponents="3" format="ascii">
                       0.00012                      -0.00001                       1.00000
                       0.00042                      -0.00004                       1.00000
                       0.00075                      -0.00006                       1.00000
                       0.00110                      -0.00007                       1.00000
                       0.00144                      -0.00009                       1.00000
                       0.00177                      -0.00011                       1.00000
                       0.00208                      -0.00013                       1.00000
                       0.00238                      -0.00015                       1.00000
                       0.00268                      -0.00017                       1.00000
                       0.00297                      -0.00020                       1.00000
                       0.00327                      -0.00022                       0.99999
                       0.00359                      -0.00025                       0.99999
                       0.00392                      -0.00027                       0.99999
                       0.00426                      -0.00030                       0.99999
                       0.00460                      -0.00032                       0.99999
                       0.00492                      -0.00035                       0.99999
                       0.00518                      -0.00037                       0.99999
                       0.00535                      -0.00039                       0.99999
                       0.00537                      -0.00040                       0.99999
                       0.00515                      -0.00041                       0.99999
                       0.00493                      -0.00042                       0.99999
                       0.00000                      -0.00000                       1.00000
        </DataArray>
      </PointData>
      <Lines>
        <DataArray type="Int32" Name="connectivity" format="ascii">
      0      1
      1      2
      2      3
      3      4
      4      5
      5      6
      6      7
      7      8
      8      9
      9     10
     10     11
     11     12
     12     13
     13     14
     14     15
     15     16
     16     17
     17     18
     18     19
     19     20
     21      0
        </DataArray>
        <DataArray type="Int32" Name="offsets" format="ascii">
      2
      4
      6
      8
     10
     12
     14
     16
     18
     20
     22
     24
     26
     28
     30
     32
     34
     36
     38
     40
     42
        </DataArray>
      </Lines>
    </Piece>
  </PolyData>
</VTKFile>
