<?xml version="1.0"?>
<VTKFile type="PolyData" version="0.1" byte_order="LittleEndian">
  <PolyData>
    <Piece NumberOfPoints="     22" NumberOfVerts="  0" NumberOfLines="     21"
           NumberOfStrips="  0" NumberOfPolys="      0">
      <Points>
        <DataArray type="Float32" NumberOfComponents="3" format="ascii">
                       0.00012                      -0.00002                       2.19000
                       0.00120                      -0.00013                       6.57000
                       0.00359                      -0.00034                      10.95000
                       0.00738                      -0.00064                      15.33000
                       0.01259                      -0.00103                      19.70999
                       0.01918                      -0.00150                      24.08999
                       0.02709                      -0.00206                      28.46998
                       0.03627                      -0.00272                      32.84997
                       0.04668                      -0.00347                      37.22996
                       0.05830                      -0.00434                      41.60994
                       0.07116                      -0.00531                      45.98993
                       0.08531                      -0.00641                      50.36990
                       0.10079                      -0.00762                      54.74987
                       0.11767                      -0.00896                      59.12984
                       0.13597                      -0.01042                      63.50980
                       0.15564                      -0.01199                      67.88976
                       0.17653                      -0.01368                      72.26971
                       0.19833                      -0.01545                      76.64965
                       0.22054                      -0.01731                      81.02960
                       0.24238                      -0.01924                      85.40954
                       0.25281                      -0.02022                      87.59952
                       0.00000                       0.00000                       0.00000
        </DataArray>
      </Points>
      <PointData>
        <DataArray type="Float32" Name="TranslationalVelocity" NumberOfComponents="3" format="ascii">
                       0.00006                      -0.00001                      -0.00000
                       0.00058                      -0.00005                      -0.00000
                       0.00161                      -0.00012                      -0.00000
                       0.00311                      -0.00019                      -0.00000
                       0.00502                      -0.00024                      -0.00000
                       0.00721                      -0.00022                      -0.00001
                       0.00956                      -0.00010                      -0.00001
                       0.01192                       0.00015                      -0.00002
                       0.01413                       0.00060                      -0.00002
                       0.01602                       0.00128                      -0.00003
                       0.01745                       0.00226                      -0.00003
                       0.01828                       0.00358                      -0.00003
                       0.01837                       0.00529                      -0.00003
                       0.01762                       0.00744                      -0.00003
                       0.01597                       0.01005                      -0.00002
                       0.01337                       0.01316                      -0.00001
                       0.00984                       0.01675                       0.00001
                       0.00542                       0.02080                       0.00003
                       0.00022                       0.02526                       0.00006
                      -0.00558                       0.03005                       0.00009
                      -0.00865                       0.03252                       0.00011
                       0.00000                      -0.00000                       0.00000
        </DataArray>
        <DataArray type="Float32" Name="RotationalVelocity" NumberOfComponents="3" format="ascii">
                       0.00001                       0.00006                       0.00000
                       0.00001                       0.00018                       0.00000
                       0.00002                       0.00029                       0.00000
                       0.00001                       0.00039                       0.00000
                       0.00000                       0.00047                       0.00000
                      -0.00001                       0.00052                       0.00000
                      -0.00004                       0.00054                       0.00000
                      -0.00008                       0.00053                       0.00000
                      -0.00013                       0.00047                       0.00000
                      -0.00019                       0.00039                       0.00000
                      -0.00026                       0.00026                       0.00000
                      -0.00034                       0.00011                       0.00000
                      -0.00044                      -0.00007                       0.00000
                      -0.00054                      -0.00027                       0.00000
                      -0.00065                      -0.00048                       0.00000
                      -0.00076                      -0.00070                       0.00000
                      -0.00087                      -0.00091                       0.00000
                      -0.00097                      -0.00110                       0.00000
                      -0.00106                      -0.00126                       0.00000
                      -0.00112                      -0.00138                       0.00000
                      -0.00114                      -0.00142                       0.00000
                       0.00000                      -0.00000                       0.00000
        </DataArray>
        <DataArray type="Float32" Name="TranslationalAcceleration" NumberOfComponents="3" format="ascii">
                       0.00073                      -0.00027                      -0.00000
                       0.00674                      -0.00222                      -0.00000
                       0.01891                      -0.00575                      -0.00001
                       0.03685                      -0.01051                      -0.00003
                       0.05972                      -0.01619                      -0.00006
                       0.08636                      -0.02251                      -0.00010
                       0.11529                      -0.02916                      -0.00015
                       0.14493                      -0.03583                      -0.00022
                       0.17355                      -0.04219                      -0.00029
                       0.19945                      -0.04786                      -0.00036
                       0.22098                      -0.05246                      -0.00042
                       0.23664                      -0.05559                      -0.00047
                       0.24510                      -0.05686                      -0.00050
                       0.24531                      -0.05588                      -0.00050
                       0.23650                      -0.05234                      -0.00046
                       0.21829                      -0.04602                      -0.00038
                       0.19064                      -0.03678                      -0.00025
                       0.15401                      -0.02470                      -0.00008
                       0.10926                      -0.01005                       0.00015
                       0.05779                       0.00663                       0.00039
                       0.03011                       0.01547                       0.00052
                       0.00000                      -0.00000                       0.00000
        </DataArray>
        <DataArray type="Float32" Name="RotationalAcceleration" NumberOfComponents="3" format="ascii">
                       0.00024                       0.00067                       0.00000
                       0.00064                       0.00208                       0.00000
                       0.00096                       0.00346                       0.00000
                       0.00120                       0.00470                       0.00000
                       0.00138                       0.00570                       0.00000
                       0.00149                       0.00640                       0.00000
                       0.00153                       0.00675                       0.00000
                       0.00150                       0.00672                       0.00000
                       0.00139                       0.00629                       0.00000
                       0.00119                       0.00548                       0.00000
                       0.00090                       0.00430                       0.00000
                       0.00052                       0.00280                       0.00000
                       0.00005                       0.00102                       0.00000
                      -0.00050                      -0.00096                       0.00000
                      -0.00112                      -0.00308                       0.00000
                      -0.00178                      -0.00524                       0.00000
                      -0.00244                      -0.00736                       0.00000
                      -0.00307                      -0.00933                       0.00000
                      -0.00360                      -0.01105                       0.00000
                      -0.00398                      -0.01239                       0.00000
                      -0.00408                      -0.01288                       0.00000
                       0.00000                      -0.00000                       0.00000
        </DataArray>
        <DataArray type="Float32" Name="OrientationX" NumberOfComponents="3" format="ascii">
                       1.00000                       0.00000                      -0.00011
                       1.00000                       0.00000                      -0.00039
                       1.00000                       0.00000                      -0.00070
                       1.00000                       0.00000                      -0.00103
                       1.00000                       0.00000                      -0.00135
                       1.00000                       0.00000                      -0.00166
                       1.00000                       0.00000                      -0.00195
                       1.00000                       0.00000                      -0.00224
                       1.00000                       0.00000                      -0.00251
                       1.00000                       0.00000                      -0.00279
                       1.00000                       0.00000                      -0.00308
                       0.99999                       0.00000                      -0.00338
                       0.99999                       0.00000                      -0.00369
                       0.99999                       0.00000                      -0.00402
                       0.99999                       0.00000                      -0.00434
                       0.99999                       0.00000                      -0.00464
                       0.99999                       0.00000                      -0.00489
                       0.99999                       0.00000                      -0.00505
                       0.99999                       0.00000                      -0.00506
                       0.99999                       0.00000                      -0.00486
                       0.99999                       0.00000                      -0.00466
                       1.00000                      -0.00000                       0.00000
        </DataArray>
        <DataArray type="Float32" Name="OrientationY" NumberOfComponents="3" format="ascii">
                       0.00000                       1.00000                       0.00001
                       0.00000                       1.00000                       0.00004
                       0.00000                       1.00000                       0.00006
                       0.00000                       1.00000                       0.00008
                       0.00000                       1.00000                       0.00010
                       0.00000                       1.00000                       0.00012
                       0.00000                       1.00000                       0.00014
                       0.00000                       1.00000                       0.00016
                       0.00000                       1.00000                       0.00018
                       0.00000                       1.00000                       0.00021
                       0.00000                       1.00000                       0.00024
                       0.00000                       1.00000                       0.00026
                       0.00000                       1.00000                       0.00029
                       0.00000                       1.00000                       0.00032
                       0.00000                       1.00000                       0.00035
                       0.00000                       1.00000                       0.00037
                       0.00000                       1.00000                       0.00040
                       0.00000                       1.00000                       0.00042
                       0.00000                       1.00000                       0.00043
                       0.00000                       1.00000                       0.00044
                       0.00000                       1.00000                       0.00045
                      -0.00000                       1.00000                      -0.00000
        </DataArray>
        <DataArray type="Float32" Name="OrientationZ" NumberOfComponents="3" format="ascii">
                       0.00011                      -0.00001                       1.00000
                       0.00039                      -0.00004                       1.00000
                       0.00070                      -0.00006                       1.00000
                       0.00103                      -0.00008                       1.00000
                       0.00135                      -0.00010                       1.00000
                       0.00166                      -0.00012                       1.00000
                       0.00195                      -0.00014                       1.00000
                       0.00224                      -0.00016                       1.00000
                       0.00251                      -0.00018                       1.00000
                       0.00279                      -0.00021                       1.00000
                       0.00308                      -0.00024                       1.00000
                       0.00338                      -0.00026                       0.99999
                       0.00369                      -0.00029                       0.99999
                       0.00402                      -0.00032                       0.99999
                       0.00434                      -0.00035                       0.99999
                       0.00464                      -0.00037                       0.99999
                       0.00489                      -0.00040                       0.99999
                       0.00505                      -0.00042                       0.99999
                       0.00506                      -0.00043                       0.99999
                       0.00486                      -0.00044                       0.99999
                       0.00466                      -0.00045                       0.99999
                       0.00000                      -0.00000                       1.00000
        </DataArray>
      </PointData>
      <Lines>
        <DataArray type="Int32" Name="connectivity" format="ascii">
      0      1
      1      2
      2      3
      3      4
      4      5
      5      6
      6      7
      7      8
      8      9
      9     10
     10     11
     11     12
     12     13
     13     14
     14     15
     15     16
     16     17
     17     18
     18     19
     19     20
     21      0
        </DataArray>
        <DataArray type="Int32" Name="offsets" format="ascii">
      2
      4
      6
      8
     10
     12
     14
     16
     18
     20
     22
     24
     26
     28
     30
     32
     34
     36
     38
     40
     42
        </DataArray>
      </Lines>
    </Piece>
  </PolyData>
</VTKFile>
