<?xml version="1.0"?>
<VTKFile type="PolyData" version="0.1" byte_order="LittleEndian">
  <PolyData>
    <Piece NumberOfPoints="     19" NumberOfVerts="  0" NumberOfLines="     18"
           NumberOfStrips="  0" NumberOfPolys="      0">
      <Points>
        <DataArray type="Float32" NumberOfComponents="3" format="ascii">
                      -3.79906                       1.25498                      90.88388
                      -3.78021                       2.41620                      91.60510
                      -3.74548                       4.68890                      93.12791
                      -3.69973                       6.93902                      94.68784
                      -3.61372                       9.73935                      96.65890
                      -3.41207                      13.17681                      98.89427
                      -3.11888                      16.68104                     101.01160
                      -2.73067                      20.18185                     103.11950
                      -2.22930                      23.67638                     105.21353
                      -1.60003                      27.15913                     107.29200
                      -0.82976                      30.62304                     109.35405
                       0.09427                      34.06295                     111.39344
                       1.18129                      37.47246                     113.40475
                       2.43761                      40.84462                     115.38197
                       3.86854                      44.17136                     117.31792
                       5.19756                      46.90202                     118.89337
                       6.34302                      49.06136                     120.12031
                       7.55596                      51.22103                     121.27437
                       8.19175                      52.26684                     121.87569
        </DataArray>
      </Points>
      <PointData>
        <DataArray type="Float32" Name="TranslationalVelocity" NumberOfComponents="3" format="ascii">
                       0.55254                      -1.97939                       3.24672
                       0.87605                      -3.81141                       6.18800
                       1.51098                      -7.67913                      11.94578
                       2.14315                     -11.64553                      17.64828
                       2.93737                     -16.66793                      24.74851
                       3.92479                     -22.39761                      33.46932
                       4.94765                     -27.85920                      42.36564
                       5.98819                     -33.33014                      51.25912
                       7.04509                     -38.80504                      60.14159
                       8.11489                     -44.28419                      68.99790
                       9.19236                     -49.76922                      77.80892
                      10.27159                     -55.24745                      86.56049
                      11.34521                     -60.70659                      95.23558
                      12.40475                     -66.13137                     103.81636
                      13.44055                     -71.50240                     112.28277
                      14.27742                     -75.91940                     119.23424
                      14.92724                     -79.38853                     124.73353
                      15.56326                     -82.68696                     130.23683
                      15.86530                     -84.40438                     132.90331
        </DataArray>
        <DataArray type="Float32" Name="RotationalVelocity" NumberOfComponents="3" format="ascii">
                       2.53269                       0.00384                      -0.27578
                       2.53293                       0.00395                      -0.27602
                       2.53368                       0.00439                      -0.27689
                       2.53470                       0.00505                      -0.27829
                       2.53622                       0.00602                      -0.28073
                       2.53820                       0.00721                      -0.28454
                       2.54015                       0.00827                      -0.28902
                       2.54193                       0.00911                      -0.29383
                       2.54346                       0.00966                      -0.29858
                       2.54469                       0.00991                      -0.30284
                       2.54563                       0.00987                      -0.30623
                       2.54633                       0.00954                      -0.30837
                       2.54686                       0.00892                      -0.30899
                       2.54732                       0.00797                      -0.30787
                       2.54784                       0.00663                      -0.30494
                       2.54841                       0.00512                      -0.30119
                       2.54902                       0.00356                      -0.29738
                       2.54981                       0.00160                      -0.29297
                       2.55029                       0.00044                      -0.29060
        </DataArray>
        <DataArray type="Float32" Name="TranslationalAcceleration" NumberOfComponents="3" format="ascii">
                      -0.29821                      -8.52138                      -4.65768
                      -0.52802                     -10.24431                      -5.76497
                      -1.59152                     -29.02097                     -17.01519
                      -2.64653                     -46.13767                     -27.67911
                      -3.97678                     -66.02724                     -40.38429
                      -5.52966                     -89.06302                     -54.16473
                      -7.08510                    -111.89868                     -66.94256
                      -8.74023                    -134.65190                     -79.74419
                     -10.48764                    -157.59075                     -92.70482
                     -12.30366                    -180.77443                    -105.85879
                     -14.15085                    -204.11674                    -119.15985
                     -15.97546                    -227.46641                    -132.47343
                     -17.71638                    -250.64587                    -145.64820
                     -19.30772                    -273.51418                    -158.53968
                     -20.68219                    -296.02225                    -171.03814
                     -21.61025                    -314.57088                    -181.11568
                     -22.17589                    -329.41522                    -188.93604
                     -22.45539                    -344.59773                    -196.33548
                     -22.61878                    -352.14933                    -200.22919
        </DataArray>
        <DataArray type="Float32" Name="OrientationX" NumberOfComponents="3" format="ascii">
                       0.99013                      -0.08453                       0.11178
                       0.99012                      -0.08569                       0.11102
                       0.99006                      -0.08953                       0.10846
                       0.98995                      -0.09521                       0.10456
                       0.98968                      -0.10450                       0.09806
                       0.99289                      -0.10227                       0.06092
                       0.99375                      -0.10778                       0.02902
                       0.99302                      -0.11796                      -0.00244
                       0.99072                      -0.13086                      -0.03672
                       0.98644                      -0.14689                      -0.07314
                       0.97982                      -0.16699                      -0.10982
                       0.97061                      -0.19040                      -0.14720
                       0.95871                      -0.21750                      -0.18323
                       0.94441                      -0.24868                      -0.21503
                       0.92803                      -0.28029                      -0.24535
                       0.91340                      -0.30550                      -0.26902
                       0.90175                      -0.32426                      -0.28584
                       0.89111                      -0.34263                      -0.29753
                       0.88647                      -0.35181                      -0.30066
        </DataArray>
        <DataArray type="Float32" Name="OrientationY" NumberOfComponents="3" format="ascii">
                       0.13951                       0.51890                      -0.84338
                       0.13947                       0.51848                      -0.84364
                       0.13928                       0.51737                      -0.84435
                       0.13890                       0.51595                      -0.84528
                       0.13815                       0.51391                      -0.84665
                       0.10522                       0.51467                      -0.85091
                       0.08076                       0.51479                      -0.85350
                       0.05908                       0.51502                      -0.85514
                       0.03642                       0.51587                      -0.85589
                       0.01361                       0.51739                      -0.85564
                      -0.00726                       0.51935                      -0.85453
                      -0.02691                       0.52193                      -0.85256
                      -0.04344                       0.52473                      -0.85016
                      -0.05436                       0.52694                      -0.84816
                      -0.06383                       0.52927                      -0.84605
                      -0.07095                       0.53128                      -0.84422
                      -0.07565                       0.53268                      -0.84293
                      -0.07662                       0.53264                      -0.84287
                      -0.07508                       0.53174                      -0.84357
        </DataArray>
        <DataArray type="Float32" Name="OrientationZ" NumberOfComponents="3" format="ascii">
                       0.01328                       0.85065                       0.52557
                       0.01473                       0.85078                       0.52531
                       0.01948                       0.85107                       0.52469
                       0.02653                       0.85131                       0.52399
                       0.03808                       0.85146                       0.52304
                       0.05567                       0.85127                       0.52177
                       0.07705                       0.85051                       0.52028
                       0.10213                       0.84902                       0.51839
                       0.13095                       0.84661                       0.51585
                       0.16353                       0.84305                       0.51237
                       0.19973                       0.83809                       0.50766
                       0.23915                       0.83147                       0.50146
                       0.28105                       0.82301                       0.49362
                       0.32423                       0.81270                       0.48413
                       0.36700                       0.80082                       0.47328
                       0.40084                       0.79019                       0.46359
                       0.42559                       0.78174                       0.45581
                       0.44727                       0.77388                       0.44839
                       0.45665                       0.77038                       0.44496
        </DataArray>
        <DataArray type="Float32" Name="Force" NumberOfComponents="3" format="ascii">
                      -0.39598                       2.25350                      -3.63734
                     427.20204                      79.65466                    -140.94853
                     514.36012                     197.49107                    -339.17677
                     447.48635                     265.02292                    -452.80102
                    4867.16190                    -896.14546                    1103.49090
                    6364.19547                   -1120.04177                    1149.88931
                    7343.85493                   -1183.44719                     852.81293
                    9446.74850                   -1495.93584                     601.50532
                   10184.23438                   -1640.62796                     125.03355
                   11705.94397                   -2040.07923                    -354.93765
                   14265.53356                   -2731.44044                   -1071.35762
                   15944.01407                   -3446.69992                   -1852.42653
                   17793.76273                   -4478.69363                   -2619.15752
                   18560.48076                   -5330.20737                   -3436.26684
                   18905.78336                   -6147.00437                   -4214.07775
                   18789.83013                   -6704.12796                   -4777.83472
                   17834.70956                   -6792.68081                   -4966.64663
                   12713.86271                   -5145.12162                   -3777.65017
                    5976.13825                   -2277.71926                   -2192.36439
        </DataArray>
        <DataArray type="Float32" Name="Moment" NumberOfComponents="3" format="ascii">
                       0.00000                       0.00000                       0.00000
                       0.00000                       0.00000                       0.00000
                       0.00000                       0.00000                       0.00000
                       0.00000                       0.00000                       0.00000
                     -56.58438                   -1264.14698                    -777.03788
                    -144.98534                   -2219.07491                   -1359.03650
                    -275.85170                   -3053.32854                   -1861.64883
                    -541.92957                   -4526.03702                   -2745.09399
                    -942.81635                   -6134.37254                   -3697.89058
                   -1331.00796                   -6916.93609                   -4140.46506
                   -1761.82011                   -7463.12917                   -4431.95720
                   -2242.83110                   -7881.83577                   -4639.00068
                   -2280.62063                   -6757.66389                   -3938.40996
                   -2615.23675                   -6638.62180                   -3828.23022
                   -2856.63489                   -6316.34615                   -3602.28592
                   -2953.03407                   -5900.42319                   -3334.10789
                   -2775.98990                   -5168.30946                   -2899.80309
                   -1463.96214                   -2566.90068                   -1430.94177
                   -1329.21229                   -2271.95244                   -1262.87701
        </DataArray>
      </PointData>
      <Lines>
        <DataArray type="Int32" Name="connectivity" format="ascii">
      0      1
      1      2
      2      3
      3      4
      4      5
      5      6
      6      7
      7      8
      8      9
      9     10
     10     11
     11     12
     12     13
     13     14
     14     15
     15     16
     16     17
     17     18
        </DataArray>
        <DataArray type="Int32" Name="offsets" format="ascii">
      2
      4
      6
      8
     10
     12
     14
     16
     18
     20
     22
     24
     26
     28
     30
     32
     34
     36
        </DataArray>
      </Lines>
    </Piece>
  </PolyData>
</VTKFile>
