<?xml version="1.0"?>
<VTKFile type="PolyData" version="0.1" byte_order="LittleEndian">
  <PolyData>
    <Piece NumberOfPoints="     22" NumberOfVerts="  0" NumberOfLines="     21"
           NumberOfStrips="  0" NumberOfPolys="      0">
      <Points>
        <DataArray type="Float32" NumberOfComponents="3" format="ascii">
                       0.00012                      -0.00001                       2.19000
                       0.00123                      -0.00009                       6.57000
                       0.00368                      -0.00023                      10.95000
                       0.00758                      -0.00043                      15.33000
                       0.01294                      -0.00070                      19.70999
                       0.01975                      -0.00102                      24.08999
                       0.02792                      -0.00141                      28.46998
                       0.03743                      -0.00186                      32.84997
                       0.04823                      -0.00239                      37.22996
                       0.06031                      -0.00299                      41.60994
                       0.07372                      -0.00368                      45.98992
                       0.08850                      -0.00446                      50.36989
                       0.10473                      -0.00533                      54.74986
                       0.12245                      -0.00629                      59.12983
                       0.14171                      -0.00734                      63.50979
                       0.16245                      -0.00849                      67.88974
                       0.18451                      -0.00971                      72.26968
                       0.20758                      -0.01102                      76.64962
                       0.23111                      -0.01239                      81.02956
                       0.25428                      -0.01380                      85.40950
                       0.26537                      -0.01453                      87.59947
                       0.00000                       0.00000                       0.00000
        </DataArray>
      </Points>
      <PointData>
        <DataArray type="Float32" Name="TranslationalVelocity" NumberOfComponents="3" format="ascii">
                      -0.00000                      -0.00003                      -0.00000
                      -0.00002                      -0.00025                       0.00000
                      -0.00006                      -0.00065                       0.00000
                      -0.00013                      -0.00121                       0.00000
                      -0.00025                      -0.00192                       0.00000
                      -0.00041                      -0.00277                       0.00000
                      -0.00062                      -0.00376                       0.00000
                      -0.00090                      -0.00488                       0.00000
                      -0.00125                      -0.00613                       0.00000
                      -0.00167                      -0.00752                       0.00000
                      -0.00220                      -0.00903                       0.00000
                      -0.00283                      -0.01066                       0.00001
                      -0.00358                      -0.01242                       0.00001
                      -0.00446                      -0.01428                       0.00001
                      -0.00548                      -0.01623                       0.00002
                      -0.00663                      -0.01827                       0.00002
                      -0.00792                      -0.02037                       0.00003
                      -0.00931                      -0.02253                       0.00003
                      -0.01078                      -0.02472                       0.00004
                      -0.01227                      -0.02695                       0.00005
                      -0.01301                      -0.02807                       0.00005
                       0.00000                      -0.00000                       0.00000
        </DataArray>
        <DataArray type="Float32" Name="RotationalVelocity" NumberOfComponents="3" format="ascii">
                       0.00003                      -0.00000                       0.00000
                       0.00007                      -0.00001                       0.00000
                       0.00011                      -0.00001                       0.00000
                       0.00015                      -0.00002                       0.00000
                       0.00018                      -0.00003                       0.00000
                       0.00021                      -0.00004                       0.00000
                       0.00024                      -0.00006                       0.00000
                       0.00027                      -0.00007                       0.00000
                       0.00030                      -0.00009                       0.00000
                       0.00033                      -0.00011                       0.00000
                       0.00036                      -0.00013                       0.00000
                       0.00039                      -0.00016                       0.00000
                       0.00041                      -0.00019                       0.00000
                       0.00044                      -0.00022                       0.00000
                       0.00046                      -0.00025                       0.00000
                       0.00047                      -0.00028                       0.00000
                       0.00049                      -0.00031                       0.00000
                       0.00050                      -0.00033                       0.00000
                       0.00051                      -0.00034                       0.00000
                       0.00051                      -0.00034                       0.00000
                       0.00051                      -0.00033                       0.00000
                       0.00000                      -0.00000                       0.00000
        </DataArray>
        <DataArray type="Float32" Name="TranslationalAcceleration" NumberOfComponents="3" format="ascii">
                       0.00124                      -0.00031                      -0.00000
                       0.01143                      -0.00258                      -0.00000
                       0.03200                      -0.00666                      -0.00002
                       0.06227                      -0.01217                      -0.00004
                       0.10077                      -0.01874                      -0.00009
                       0.14545                      -0.02602                      -0.00016
                       0.19381                      -0.03368                      -0.00025
                       0.24306                      -0.04134                      -0.00036
                       0.29024                      -0.04861                      -0.00048
                       0.33237                      -0.05504                      -0.00059
                       0.36659                      -0.06019                      -0.00070
                       0.39025                      -0.06358                      -0.00078
                       0.40105                      -0.06475                      -0.00082
                       0.39713                      -0.06326                      -0.00080
                       0.37716                      -0.05873                      -0.00071
                       0.34045                      -0.05090                      -0.00054
                       0.28703                      -0.03964                      -0.00026
                       0.21772                      -0.02500                       0.00010
                       0.13419                      -0.00733                       0.00055
                       0.03905                       0.01273                       0.00106
                      -0.01179                       0.02336                       0.00132
                       0.00000                      -0.00000                       0.00000
        </DataArray>
        <DataArray type="Float32" Name="RotationalAcceleration" NumberOfComponents="3" format="ascii">
                       0.00028                       0.00114                       0.00000
                       0.00074                       0.00352                       0.00000
                       0.00111                       0.00585                       0.00000
                       0.00139                       0.00792                       0.00000
                       0.00159                       0.00958                       0.00000
                       0.00172                       0.01072                       0.00000
                       0.00176                       0.01125                       0.00000
                       0.00172                       0.01112                       0.00000
                       0.00158                       0.01031                       0.00000
                       0.00134                       0.00882                       0.00000
                       0.00099                       0.00670                       0.00000
                       0.00054                       0.00401                       0.00000
                      -0.00002                       0.00085                       0.00000
                      -0.00067                      -0.00269                       0.00000
                      -0.00140                      -0.00646                       0.00000
                      -0.00218                      -0.01030                       0.00000
                      -0.00296                      -0.01406                       0.00000
                      -0.00371                      -0.01753                       0.00000
                      -0.00434                      -0.02051                       0.00000
                      -0.00478                      -0.02279                       0.00000
                      -0.00490                      -0.02360                       0.00000
                       0.00000                      -0.00000                       0.00000
        </DataArray>
        <DataArray type="Float32" Name="OrientationX" NumberOfComponents="3" format="ascii">
                       1.00000                       0.00000                      -0.00012
                       1.00000                       0.00000                      -0.00040
                       1.00000                       0.00000                      -0.00072
                       1.00000                       0.00000                      -0.00106
                       1.00000                       0.00000                      -0.00139
                       1.00000                       0.00000                      -0.00171
                       1.00000                       0.00000                      -0.00202
                       1.00000                       0.00000                      -0.00232
                       1.00000                       0.00000                      -0.00261
                       1.00000                       0.00000                      -0.00291
                       0.99999                       0.00000                      -0.00322
                       0.99999                       0.00000                      -0.00354
                       0.99999                       0.00000                      -0.00387
                       0.99999                       0.00000                      -0.00422
                       0.99999                       0.00000                      -0.00457
                       0.99999                       0.00000                      -0.00490
                       0.99999                       0.00000                      -0.00517
                       0.99999                       0.00000                      -0.00535
                       0.99999                       0.00000                      -0.00537
                       0.99999                       0.00000                      -0.00516
                       0.99999                       0.00000                      -0.00495
                       1.00000                      -0.00000                       0.00000
        </DataArray>
        <DataArray type="Float32" Name="OrientationY" NumberOfComponents="3" format="ascii">
                       0.00000                       1.00000                       0.00001
                       0.00000                       1.00000                       0.00003
                       0.00000                       1.00000                       0.00004
                       0.00000                       1.00000                       0.00005
                       0.00000                       1.00000                       0.00007
                       0.00000                       1.00000                       0.00008
                       0.00000                       1.00000                       0.00010
                       0.00000                       1.00000                       0.00011
                       0.00000                       1.00000                       0.00013
                       0.00000                       1.00000                       0.00015
                       0.00000                       1.00000                       0.00017
                       0.00000                       1.00000                       0.00019
                       0.00000                       1.00000                       0.00021
                       0.00000                       1.00000                       0.00023
                       0.00000                       1.00000                       0.00025
                       0.00000                       1.00000                       0.00027
                       0.00000                       1.00000                       0.00029
                       0.00000                       1.00000                       0.00031
                       0.00000                       1.00000                       0.00032
                       0.00000                       1.00000                       0.00033
                       0.00000                       1.00000                       0.00033
                      -0.00000                       1.00000                      -0.00000
        </DataArray>
        <DataArray type="Float32" Name="OrientationZ" NumberOfComponents="3" format="ascii">
                       0.00012                      -0.00001                       1.00000
                       0.00040                      -0.00003                       1.00000
                       0.00072                      -0.00004                       1.00000
                       0.00106                      -0.00005                       1.00000
                       0.00139                      -0.00007                       1.00000
                       0.00171                      -0.00008                       1.00000
                       0.00202                      -0.00010                       1.00000
                       0.00232                      -0.00011                       1.00000
                       0.00261                      -0.00013                       1.00000
                       0.00291                      -0.00015                       1.00000
                       0.00322                      -0.00017                       0.99999
                       0.00354                      -0.00019                       0.99999
                       0.00387                      -0.00021                       0.99999
                       0.00422                      -0.00023                       0.99999
                       0.00457                      -0.00025                       0.99999
                       0.00490                      -0.00027                       0.99999
                       0.00517                      -0.00029                       0.99999
                       0.00535                      -0.00031                       0.99999
                       0.00537                      -0.00032                       0.99999
                       0.00516                      -0.00033                       0.99999
                       0.00495                      -0.00033                       0.99999
                       0.00000                      -0.00000                       1.00000
        </DataArray>
      </PointData>
      <Lines>
        <DataArray type="Int32" Name="connectivity" format="ascii">
      0      1
      1      2
      2      3
      3      4
      4      5
      5      6
      6      7
      7      8
      8      9
      9     10
     10     11
     11     12
     12     13
     13     14
     14     15
     15     16
     16     17
     17     18
     18     19
     19     20
     21      0
        </DataArray>
        <DataArray type="Int32" Name="offsets" format="ascii">
      2
      4
      6
      8
     10
     12
     14
     16
     18
     20
     22
     24
     26
     28
     30
     32
     34
     36
     38
     40
     42
        </DataArray>
      </Lines>
    </Piece>
  </PolyData>
</VTKFile>
