<?xml version="1.0"?>
<VTKFile type="PolyData" version="0.1" byte_order="LittleEndian">
  <PolyData>
    <Piece NumberOfPoints="     19" NumberOfVerts="  0" NumberOfLines="     18"
           NumberOfStrips="  0" NumberOfPolys="      0">
      <Points>
        <DataArray type="Float32" NumberOfComponents="3" format="ascii">
                      -4.59546                      -0.88917                      91.23475
                      -4.55315                      -1.70589                      92.32988
                      -4.49111                      -3.41551                      94.46422
                      -4.43454                      -5.16239                      96.57104
                      -4.35789                      -7.37044                      99.18630
                      -4.17980                      -9.91186                     102.40097
                      -3.93421                     -12.35643                     105.68403
                      -3.64358                     -14.80654                     108.95933
                      -3.29440                     -17.26086                     112.22563
                      -2.87628                     -19.72045                     115.47959
                      -2.37980                     -22.18726                     118.71682
                      -1.79419                     -24.65849                     121.93579
                      -1.11163                     -27.13196                     125.13432
                      -0.32649                     -29.60491                     128.31036
                       0.56663                     -32.07381                     131.46153
                       1.39584                     -34.12493                     134.06670
                       2.11097                     -35.75368                     136.14211
                       2.87238                     -37.33223                     138.23891
                       3.26668                     -38.15117                     139.25688
        </DataArray>
      </Points>
      <PointData>
        <DataArray type="Float32" Name="TranslationalVelocity" NumberOfComponents="3" format="ascii">
                       0.32894                      -1.26344                      -0.89770
                       0.25705                      -2.40927                      -1.74938
                       0.10703                      -4.64126                      -3.53282
                      -0.04404                      -6.84540                      -5.35640
                      -0.22995                      -9.58460                      -7.66376
                      -0.43172                     -12.96378                     -10.32423
                      -0.60945                     -16.42574                     -12.88884
                      -0.77036                     -19.88862                     -15.46505
                      -0.91140                     -23.35177                     -18.05226
                      -1.02986                     -26.81170                     -20.65244
                      -1.12344                     -30.26342                     -23.26849
                      -1.18970                     -33.70486                     -25.89848
                      -1.22670                     -37.13278                     -28.54120
                      -1.23299                     -40.54379                     -31.19491
                      -1.20765                     -43.93396                     -33.85735
                      -1.16155                     -46.74006                     -36.08072
                      -1.10864                     -48.97669                     -37.85429
                      -1.03757                     -51.23624                     -39.58234
                      -1.00044                     -52.33350                     -40.48068
        </DataArray>
        <DataArray type="Float32" Name="RotationalVelocity" NumberOfComponents="3" format="ascii">
                       1.04228                       0.00712                      -0.09779
                       1.04248                       0.00730                      -0.09767
                       1.04303                       0.00794                      -0.09724
                       1.04379                       0.00891                      -0.09657
                       1.04493                       0.01055                      -0.09545
                       1.04648                       0.01308                      -0.09370
                       1.04813                       0.01620                      -0.09153
                       1.04979                       0.01988                      -0.08892
                       1.05140                       0.02411                      -0.08587
                       1.05291                       0.02889                      -0.08236
                       1.05432                       0.03419                      -0.07839
                       1.05558                       0.03996                      -0.07400
                       1.05672                       0.04611                      -0.06923
                       1.05771                       0.05248                      -0.06421
                       1.05856                       0.05886                      -0.05910
                       1.05915                       0.06398                      -0.05494
                       1.05955                       0.06779                      -0.05180
                       1.05988                       0.07119                      -0.04897
                       1.06001                       0.07269                      -0.04770
        </DataArray>
        <DataArray type="Float32" Name="TranslationalAcceleration" NumberOfComponents="3" format="ascii">
                       0.25280                       0.74303                      -1.40075
                      -0.04913                       0.95206                      -1.73335
                      -0.18500                       2.81779                      -4.91703
                      -0.36626                       4.60666                      -7.82504
                      -0.63823                       6.75574                     -11.20899
                      -1.01173                       9.10231                     -15.12313
                      -1.41068                      11.29021                     -19.00006
                      -1.81146                      13.49617                     -22.86571
                      -2.19869                      15.74303                     -26.77138
                      -2.55961                      18.03827                     -30.73269
                      -2.88311                      20.37788                     -34.74031
                      -3.15872                      22.74599                     -38.77350
                      -3.37525                      25.12722                     -42.80614
                      -3.51952                      27.51110                     -46.81703
                      -3.57511                      29.89796                     -50.79880
                      -3.53655                      31.90166                     -54.10513
                      -3.44305                      33.51767                     -56.76449
                      -3.28623                      35.11560                     -59.48853
                      -3.17665                      35.97523                     -60.84853
        </DataArray>
        <DataArray type="Float32" Name="OrientationX" NumberOfComponents="3" format="ascii">
                       0.95834                      -0.21014                      -0.19348
                       0.95831                      -0.20975                      -0.19401
                       0.95825                      -0.20848                      -0.19571
                       0.95814                      -0.20658                      -0.19822
                       0.95793                      -0.20343                      -0.20243
                       0.96611                      -0.17369                      -0.19094
                       0.97109                      -0.14946                      -0.18613
                       0.97468                      -0.12596                      -0.18474
                       0.97774                      -0.09980                      -0.18456
                       0.97998                      -0.07122                      -0.18594
                       0.98093                      -0.04154                      -0.18988
                       0.98063                      -0.01003                      -0.19559
                       0.97879                       0.02164                      -0.20370
                       0.97526                       0.05088                      -0.21512
                       0.97073                       0.08016                      -0.22641
                       0.96649                       0.10392                      -0.23475
                       0.96305                       0.12126                      -0.24048
                       0.95976                       0.13380                      -0.24690
                       0.95826                       0.13743                      -0.25069
        </DataArray>
        <DataArray type="Float32" Name="OrientationY" NumberOfComponents="3" format="ascii">
                       0.28390                       0.77545                       0.56398
                       0.28391                       0.77545                       0.56398
                       0.28389                       0.77545                       0.56398
                       0.28387                       0.77546                       0.56398
                       0.28386                       0.77548                       0.56396
                       0.25320                       0.78149                       0.57023
                       0.23098                       0.78513                       0.57465
                       0.21145                       0.78780                       0.57850
                       0.19062                       0.79011                       0.58258
                       0.16889                       0.79188                       0.58685
                       0.14799                       0.79293                       0.59107
                       0.12688                       0.79328                       0.59549
                       0.10730                       0.79289                       0.59984
                       0.09181                       0.79202                       0.60355
                       0.07637                       0.79071                       0.60741
                       0.06347                       0.78930                       0.61072
                       0.05388                       0.78811                       0.61317
                       0.04831                       0.78743                       0.61451
                       0.04783                       0.78745                       0.61451
        </DataArray>
        <DataArray type="Float32" Name="OrientationZ" NumberOfComponents="3" format="ascii">
                       0.03152                      -0.59541                       0.80280
                       0.03215                      -0.59555                       0.80267
                       0.03418                      -0.59599                       0.80226
                       0.03721                      -0.59664                       0.80164
                       0.04225                      -0.59770                       0.80061
                       0.05017                      -0.59925                       0.79898
                       0.06025                      -0.60103                       0.79695
                       0.07267                      -0.60291                       0.79449
                       0.08768                      -0.60479                       0.79155
                       0.10545                      -0.60650                       0.78806
                       0.12601                      -0.60789                       0.78396
                       0.14919                      -0.60878                       0.77919
                       0.17449                      -0.60898                       0.77376
                       0.20109                      -0.60837                       0.76776
                       0.22771                      -0.60692                       0.76144
                       0.24875                      -0.60515                       0.75625
                       0.26388                      -0.60347                       0.75246
                       0.27664                      -0.60171                       0.74928
                       0.28186                      -0.60086                       0.74801
        </DataArray>
        <DataArray type="Float32" Name="Force" NumberOfComponents="3" format="ascii">
                       0.42268                       6.09576                       4.50445
                     431.37842                      60.29247                      27.44321
                     494.96525                     125.65492                      72.12447
                     400.34816                     146.55765                      90.17101
                    2858.79998                    -841.15144                    -775.71250
                    2902.27379                    -728.02668                    -723.65103
                    3370.55422                    -755.53993                    -817.32485
                    3171.67562                    -643.18196                    -769.45677
                    3283.12081                    -649.62765                    -848.15908
                    4003.46668                    -787.96940                   -1123.51355
                    4605.67610                    -910.72803                   -1419.52499
                    5239.87962                    -893.20054                   -1667.76470
                    6393.61897                    -795.71092                   -2028.86977
                    6809.96204                    -628.12506                   -2239.51352
                    7179.96112                    -439.33205                   -2454.20706
                    7361.09439                    -260.95165                   -2587.80922
                    7211.72413                    -116.04144                   -2582.96382
                    5374.11177                     -15.49114                   -1968.50769
                    1891.98924                     267.69710                    -498.34900
        </DataArray>
        <DataArray type="Float32" Name="Moment" NumberOfComponents="3" format="ascii">
                       0.00000                       0.00000                       0.00000
                       0.00000                       0.00000                       0.00000
                       0.00000                       0.00000                       0.00000
                       0.00000                       0.00000                       0.00000
                     -61.46247                     863.76645                   -1163.14654
                     -86.23530                    1019.34840                   -1371.36719
                    -108.66412                    1068.65839                   -1435.99257
                    -141.71242                    1154.71502                   -1549.34978
                    -173.74543                    1172.81420                   -1570.83712
                    -202.63091                    1136.71131                   -1519.26947
                    -200.28503                     939.46838                   -1252.56559
                    -218.74897                     865.59589                   -1150.86319
                    -265.14788                     895.28987                   -1186.69344
                    -302.08389                     882.66989                   -1166.14921
                    -334.64326                     860.47515                   -1133.05839
                    -344.09154                     807.27912                   -1060.18292
                    -323.19963                     712.89209                    -934.41168
                    -178.44882                     374.54712                    -490.12053
                    -165.50135                     340.58583                    -445.37650
        </DataArray>
      </PointData>
      <Lines>
        <DataArray type="Int32" Name="connectivity" format="ascii">
      0      1
      1      2
      2      3
      3      4
      4      5
      5      6
      6      7
      7      8
      8      9
      9     10
     10     11
     11     12
     12     13
     13     14
     14     15
     15     16
     16     17
     17     18
        </DataArray>
        <DataArray type="Int32" Name="offsets" format="ascii">
      2
      4
      6
      8
     10
     12
     14
     16
     18
     20
     22
     24
     26
     28
     30
     32
     34
     36
        </DataArray>
      </Lines>
    </Piece>
  </PolyData>
</VTKFile>
