<?xml version="1.0"?>
<VTKFile type="PolyData" version="0.1" byte_order="LittleEndian">
  <PolyData>
    <Piece NumberOfPoints="     19" NumberOfVerts="  0" NumberOfLines="     18"
           NumberOfStrips="  0" NumberOfPolys="      0">
      <Points>
        <DataArray type="Float32" NumberOfComponents="3" format="ascii">
                      -4.15472                       0.09574                      91.55642
                      -4.07745                       0.19682                      92.91734
                      -3.93767                       0.30438                      95.64702
                      -3.79751                       0.36662                      98.38021
                      -3.60893                       0.41602                     101.79857
                      -3.29510                       0.61431                     105.88430
                      -2.90773                       0.93660                     109.95476
                      -2.45763                       1.25415                     114.01912
                      -1.92818                       1.56750                     118.07397
                      -1.30562                       1.87380                     122.11570
                      -0.57722                       2.16884                     126.14019
                       0.27048                       2.45403                     130.14196
                       1.24772                       2.72984                     134.11524
                       2.36213                       2.99729                     138.05369
                       3.62048                       3.25803                     141.94968
                       4.78276                       3.47194                     145.15736
                       5.78160                       3.65016                     147.69551
                       6.83863                       3.88383                     150.20374
                       7.38976                       3.95965                     151.44880
        </DataArray>
      </Points>
      <PointData>
        <DataArray type="Float32" Name="TranslationalVelocity" NumberOfComponents="3" format="ascii">
                       0.07667                      -1.90816                       0.14839
                       0.09100                      -3.63941                       0.27625
                       0.10936                      -7.11200                       0.41212
                       0.12526                     -10.59243                       0.49036
                       0.14833                     -14.95296                       0.55165
                       0.20702                     -20.18614                       0.80037
                       0.30041                     -25.42163                       1.20522
                       0.41658                     -30.67079                       1.60169
                       0.55962                     -35.93191                       1.98872
                       0.73285                     -41.20229                       2.36047
                       0.93883                     -46.47805                       2.70897
                       1.18016                     -51.75341                       3.03300
                       1.45851                     -57.02147                       3.32990
                       1.77463                     -62.27408                       3.59746
                       2.12820                     -67.50123                       3.83391
                       2.45111                     -71.82905                       4.00608
                       2.72721                     -75.26818                       4.13860
                       3.02578                     -78.67948                       4.32865
                       3.17330                     -80.37751                       4.36492
        </DataArray>
        <DataArray type="Float32" Name="RotationalVelocity" NumberOfComponents="3" format="ascii">
                       1.26457                       0.00087                      -0.12783
                       1.26492                       0.00112                      -0.12790
                       1.26588                       0.00204                      -0.12813
                       1.26718                       0.00351                      -0.12851
                       1.26914                       0.00604                      -0.12928
                       1.27184                       0.01004                      -0.13074
                       1.27471                       0.01505                      -0.13285
                       1.27758                       0.02102                      -0.13561
                       1.28029                       0.02794                      -0.13898
                       1.28271                       0.03578                      -0.14284
                       1.28476                       0.04447                      -0.14702
                       1.28639                       0.05392                      -0.15131
                       1.28760                       0.06394                      -0.15542
                       1.28845                       0.07428                      -0.15902
                       1.28906                       0.08459                      -0.16171
                       1.28950                       0.09282                      -0.16299
                       1.28990                       0.09893                      -0.16315
                       1.29044                       0.10437                      -0.16236
                       1.29080                       0.10676                      -0.16156
        </DataArray>
        <DataArray type="Float32" Name="TranslationalAcceleration" NumberOfComponents="3" format="ascii">
                      -0.80062                      -0.45024                      -2.40532
                      -0.46751                      -0.58411                      -2.88468
                      -1.27295                      -1.53777                      -8.28093
                      -1.94004                      -2.33379                     -13.27487
                      -2.64894                      -3.21367                     -19.13757
                      -3.38972                      -4.42796                     -25.77371
                      -4.09117                      -5.82282                     -32.21293
                      -4.81012                      -7.21896                     -38.66314
                      -5.56987                      -8.63066                     -45.20652
                      -6.37194                     -10.05339                     -51.86731
                      -7.20105                     -11.47001                     -58.62818
                      -8.03051                     -12.86468                     -65.44517
                      -8.82771                     -14.21527                     -72.26743
                      -9.55939                     -15.49872                     -79.05370
                     -10.19692                     -16.69305                     -85.78833
                     -10.64003                     -17.60555                     -91.37919
                     -10.93685                     -18.29501                     -95.86389
                     -11.19101                     -19.02938                    -100.38486
                     -11.29629                     -19.30912                    -102.69776
        </DataArray>
        <DataArray type="Float32" Name="OrientationX" NumberOfComponents="3" format="ascii">
                       0.97333                      -0.22622                      -0.03815
                       0.97328                      -0.22628                      -0.03901
                       0.97313                      -0.22642                      -0.04182
                       0.97290                      -0.22659                      -0.04603
                       0.97249                      -0.22684                      -0.05306
                       0.97830                      -0.19606                      -0.06694
                       0.98128                      -0.17381                      -0.08297
                       0.98277                      -0.15426                      -0.10186
                       0.98325                      -0.13340                      -0.12423
                       0.98232                      -0.11169                      -0.15021
                       0.97952                      -0.09089                      -0.17965
                       0.97468                      -0.07000                      -0.21235
                       0.96755                      -0.05079                      -0.24754
                       0.95815                      -0.03590                      -0.28399
                       0.94703                      -0.02121                      -0.32044
                       0.93694                      -0.00902                      -0.34939
                       0.92885                      -0.00007                      -0.37046
                       0.92143                       0.00467                      -0.38852
                       0.91821                       0.00463                      -0.39608
        </DataArray>
        <DataArray type="Float32" Name="OrientationY" NumberOfComponents="3" format="ascii">
                       0.22227                       0.97107                      -0.08728
                       0.22225                       0.97106                      -0.08747
                       0.22215                       0.97104                      -0.08798
                       0.22196                       0.97102                      -0.08862
                       0.22161                       0.97101                      -0.08956
                       0.18988                       0.97778                      -0.08879
                       0.16651                       0.98210                      -0.08804
                       0.14568                       0.98550                      -0.08698
                       0.12337                       0.98870                      -0.08519
                       0.10011                       0.99155                      -0.08254
                       0.07770                       0.99383                      -0.07917
                       0.05521                       0.99567                      -0.07481
                       0.03448                       0.99696                      -0.06980
                       0.01811                       0.99772                      -0.06503
                       0.00216                       0.99821                      -0.05969
                      -0.01085                       0.99843                      -0.05487
                      -0.02033                       0.99848                      -0.05117
                      -0.02578                       0.99846                      -0.04914
                      -0.02625                       0.99844                      -0.04919
        </DataArray>
        <DataArray type="Float32" Name="OrientationZ" NumberOfComponents="3" format="ascii">
                       0.05679                       0.07647                       0.99545
                       0.05767                       0.07647                       0.99540
                       0.06053                       0.07633                       0.99524
                       0.06478                       0.07600                       0.99500
                       0.07183                       0.07534                       0.99457
                       0.08287                       0.07416                       0.99380
                       0.09679                       0.07257                       0.99266
                       0.11380                       0.07064                       0.99099
                       0.13419                       0.06844                       0.98859
                       0.15816                       0.06605                       0.98520
                       0.18573                       0.06359                       0.98054
                       0.21666                       0.06119                       0.97433
                       0.25033                       0.05900                       0.96636
                       0.28568                       0.05717                       0.95662
                       0.32113                       0.05584                       0.94539
                       0.34933                       0.05520                       0.93537
                       0.36990                       0.05506                       0.92744
                       0.38769                       0.05530                       0.92013
                       0.39523                       0.05556                       0.91690
        </DataArray>
        <DataArray type="Float32" Name="Force" NumberOfComponents="3" format="ascii">
                      -0.02599                       3.34613                      -0.25557
                     440.45948                      78.31114                     -31.53451
                     504.49861                     176.30890                     -44.23028
                     409.67602                     213.04035                     -43.04830
                    3257.90758                   -1080.73406                    -152.13831
                    3390.61073                    -970.45291                    -207.94123
                    4021.88115                   -1090.74917                    -307.97726
                    4199.95973                   -1212.06429                    -388.63248
                    4901.65674                   -1516.05679                    -547.99350
                    5782.99578                   -1681.53817                    -797.99471
                    6453.63081                   -1849.28029                   -1078.82656
                    7169.73562                   -1884.66151                   -1447.81561
                    8829.05633                   -2009.75499                   -2130.85278
                    9462.68331                   -2018.13687                   -2668.93815
                    9931.00886                   -1983.56913                   -3219.23135
                   10068.24670                   -1891.55374                   -3613.28688
                    9735.36029                   -1739.46941                   -3747.80347
                    7027.09289                   -1228.96874                   -2865.34519
                    3023.97251                     -43.07771                   -1301.11424
        </DataArray>
        <DataArray type="Float32" Name="Moment" NumberOfComponents="3" format="ascii">
                       0.00000                       0.00000                       0.00000
                       0.00000                       0.00000                       0.00000
                       0.00000                       0.00000                       0.00000
                       0.00000                       0.00000                       0.00000
                    -111.53557                    -118.82184                   -1544.36953
                    -155.63269                    -143.78082                   -1866.66858
                    -191.03866                    -151.14429                   -1959.47682
                    -249.44234                    -167.84856                   -2172.24396
                    -282.79528                    -161.31067                   -2083.25330
                    -317.30323                    -153.40336                   -1976.21567
                    -305.30756                    -125.44233                   -1611.34725
                    -357.88313                    -125.64949                   -1608.71359
                    -531.80840                    -160.84320                   -2051.81274
                    -606.55858                    -159.73916                   -2029.75715
                    -678.43390                    -157.69868                   -1995.73318
                    -706.60820                    -149.87758                   -1890.46827
                    -656.54502                    -130.72365                   -1644.78010
                    -347.90057                     -65.71515                    -825.02024
                    -341.13572                     -63.04589                    -790.76005
        </DataArray>
      </PointData>
      <Lines>
        <DataArray type="Int32" Name="connectivity" format="ascii">
      0      1
      1      2
      2      3
      3      4
      4      5
      5      6
      6      7
      7      8
      8      9
      9     10
     10     11
     11     12
     12     13
     13     14
     14     15
     15     16
     16     17
     17     18
        </DataArray>
        <DataArray type="Int32" Name="offsets" format="ascii">
      2
      4
      6
      8
     10
     12
     14
     16
     18
     20
     22
     24
     26
     28
     30
     32
     34
     36
        </DataArray>
      </Lines>
    </Piece>
  </PolyData>
</VTKFile>
