<?xml version="1.0"?>
<VTKFile type="PolyData" version="0.1" byte_order="LittleEndian">
  <PolyData>
    <Piece NumberOfPoints="     19" NumberOfVerts="  0" NumberOfLines="     18"
           NumberOfStrips="  0" NumberOfPolys="      0">
      <Points>
        <DataArray type="Float32" NumberOfComponents="3" format="ascii">
                      -4.64770                       0.12451                      91.51548
                      -4.58136                       0.25489                      92.87461
                      -4.46989                       0.42152                      95.60394
                      -4.36561                       0.54369                      98.33877
                      -4.23365                       0.66996                     101.76046
                      -4.01035                       0.96434                     105.84923
                      -3.75097                       1.38881                     109.92343
                      -3.48786                       1.81742                     113.99767
                      -3.23040                       2.25336                     118.07264
                      -2.99534                       2.69669                     122.14943
                      -2.80380                       3.14642                     126.22876
                      -2.67804                       3.60732                     130.30973
                      -2.64447                       4.08350                     134.39022
                      -2.73194                       4.57992                     138.46625
                      -2.96877                       5.10200                     142.53172
                      -3.30641                       5.56212                     145.90496
                      -3.67564                       5.95633                     148.58893
                      -4.13241                       6.42271                     151.25112
                      -4.41266                       6.62380                     152.57849
        </DataArray>
      </Points>
      <PointData>
        <DataArray type="Float32" Name="TranslationalVelocity" NumberOfComponents="3" format="ascii">
                       0.03706                      -4.90407                       0.47812
                       0.07656                      -9.36649                       0.90418
                       0.12970                     -18.32620                       1.44901
                       0.17406                     -27.30943                       1.84840
                       0.23078                     -38.56217                       2.26052
                       0.35938                     -52.04896                       3.22221
                       0.55068                     -65.52215                       4.61093
                       0.77089                     -79.02030                       6.01412
                       1.02407                     -92.54178                       7.44253
                       1.31244                    -106.08335                       8.89703
                       1.63679                    -119.63860                      10.37535
                       1.99832                    -133.19501                      11.89474
                       2.39658                    -146.73455                      13.47088
                       2.82973                    -160.23214                      15.12299
                       3.29427                    -173.65611                      16.87246
                       3.70218                    -184.75493                      18.42619
                       4.04088                    -193.55658                      19.76577
                       4.40286                    -202.26026                      21.35491
                       4.57286                    -206.58402                      22.04833
        </DataArray>
        <DataArray type="Float32" Name="RotationalVelocity" NumberOfComponents="3" format="ascii">
                       3.26773                      -0.00018                      -0.30236
                       3.26855                       0.00018                      -0.30240
                       3.27080                       0.00144                      -0.30265
                       3.27371                       0.00338                      -0.30303
                       3.27797                       0.00667                      -0.30351
                       3.28356                       0.01176                      -0.30395
                       3.28927                       0.01792                      -0.30417
                       3.29479                       0.02495                      -0.30420
                       3.29992                       0.03264                      -0.30415
                       3.30455                       0.04076                      -0.30419
                       3.30863                       0.04904                      -0.30454
                       3.31219                       0.05716                      -0.30543
                       3.31525                       0.06474                      -0.30704
                       3.31788                       0.07133                      -0.30954
                       3.32011                       0.07641                      -0.31301
                       3.32169                       0.07911                      -0.31663
                       3.32276                       0.07992                      -0.31998
                       3.32362                       0.07930                      -0.32365
                       3.32398                       0.07837                      -0.32557
        </DataArray>
        <DataArray type="Float32" Name="TranslationalAcceleration" NumberOfComponents="3" format="ascii">
                      -1.57387                      -1.53621                     -16.11220
                      -1.85154                      -1.86863                     -19.38592
                      -5.30887                      -4.33384                     -55.59185
                      -8.49111                      -6.03378                     -88.97580
                     -12.20865                      -7.59473                    -128.06443
                     -16.42315                     -10.75654                    -172.50021
                     -20.52513                     -15.21092                    -215.80612
                     -24.63259                     -19.70585                    -259.14008
                     -28.80625                     -24.34633                    -303.03310
                     -33.07090                     -29.17410                    -347.63998
                     -37.42279                     -34.19942                    -392.83743
                     -41.83785                     -39.48519                    -438.32116
                     -46.27978                     -45.08744                    -483.71489
                     -50.70789                     -51.08153                    -528.67219
                     -55.08513                     -57.56503                    -572.98489
                     -58.67223                     -63.45510                    -609.41975
                     -61.50196                     -68.62380                    -638.36021
                     -64.32904                     -74.77368                    -667.28770
                     -65.70649                     -77.59240                    -681.88319
        </DataArray>
        <DataArray type="Float32" Name="OrientationX" NumberOfComponents="3" format="ascii">
                       0.97406                      -0.22488                      -0.02506
                       0.97404                      -0.22493                      -0.02537
                       0.97393                      -0.22532                      -0.02634
                       0.97372                      -0.22605                      -0.02778
                       0.97333                      -0.22744                      -0.03004
                       0.97932                      -0.19905                      -0.03631
                       0.98269                      -0.18072                      -0.04078
                       0.98497                      -0.16734                      -0.04287
                       0.98693                      -0.15568                      -0.04165
                       0.98850                      -0.14697                      -0.03572
                       0.98936                      -0.14354                      -0.02369
                       0.98946                      -0.14471                      -0.00470
                       0.98811                      -0.15218                       0.02202
                       0.98415                      -0.16797                       0.05681
                       0.97742                      -0.18687                       0.09859
                       0.96932                      -0.20366                       0.13764
                       0.96095                      -0.21760                       0.17097
                       0.95016                      -0.23443                       0.20551
                       0.94369                      -0.24442                       0.22296
        </DataArray>
        <DataArray type="Float32" Name="OrientationY" NumberOfComponents="3" format="ascii">
                       0.22109                       0.96946                      -0.10616
                       0.22110                       0.96944                      -0.10627
                       0.22138                       0.96935                      -0.10657
                       0.22194                       0.96918                      -0.10695
                       0.22308                       0.96885                      -0.10755
                       0.19421                       0.97507                      -0.10732
                       0.17552                       0.97861                      -0.10730
                       0.16198                       0.98094                      -0.10733
                       0.15050                       0.98277                      -0.10732
                       0.14242                       0.98397                      -0.10735
                       0.14022                       0.98426                      -0.10755
                       0.14337                       0.98378                      -0.10785
                       0.15367                       0.98220                      -0.10805
                       0.17329                       0.97898                      -0.10753
                       0.19701                       0.97468                      -0.10573
                       0.21850                       0.97039                      -0.10293
                       0.23657                       0.96650                      -0.09954
                       0.25766                       0.96162                      -0.09433
                       0.26974                       0.95865                      -0.09076
        </DataArray>
        <DataArray type="Float32" Name="OrientationZ" NumberOfComponents="3" format="ascii">
                       0.04817                       0.09786                       0.99403
                       0.04850                       0.09791                       0.99401
                       0.04955                       0.09796                       0.99396
                       0.05110                       0.09797                       0.99388
                       0.05357                       0.09798                       0.99375
                       0.05677                       0.09805                       0.99356
                       0.05930                       0.09828                       0.99339
                       0.06001                       0.09878                       0.99330
                       0.05764                       0.09965                       0.99335
                       0.05093                       0.10103                       0.99358
                       0.03876                       0.10309                       0.99392
                       0.02023                       0.10604                       0.99416
                      -0.00518                       0.11015                       0.99390
                      -0.03755                       0.11567                       0.99258
                      -0.07634                       0.12277                       0.98950
                      -0.11260                       0.12985                       0.98512
                      -0.14359                       0.13610                       0.98023
                      -0.17551                       0.14258                       0.97410
                      -0.19156                       0.14579                       0.97059
        </DataArray>
        <DataArray type="Float32" Name="Force" NumberOfComponents="3" format="ascii">
                      -0.22150                      24.31078                      -2.38264
                     480.02066                     222.47094                     -45.32350
                     643.87187                     584.43343                     -89.63881
                     609.29473                     822.90456                    -112.36255
                    5134.89836                   -1758.34890                    -103.57663
                    5898.40701                   -1545.14049                    -184.74764
                    6612.03515                   -1407.43825                    -255.95676
                    8671.68476                   -1574.70572                    -368.62779
                    9254.36713                   -1395.06686                    -399.39523
                    9894.95590                   -1296.45031                    -379.43893
                   12081.53698                   -1371.00434                    -336.30301
                   11525.38698                   -1163.43680                    -120.69580
                    7707.12286                    -668.31341                     104.94271
                    1786.57307                     102.74980                      57.17164
                   -2974.17421                     626.65668                    -289.11261
                  -11696.45777                    1523.77585                   -1475.89479
                  -18876.03690                    2217.77356                   -2958.64666
                  -19860.39614                    2321.20243                   -3771.31660
                  -40331.39515                    2370.73589                   -8114.83482
        </DataArray>
        <DataArray type="Float32" Name="Moment" NumberOfComponents="3" format="ascii">
                       0.00000                       0.00000                       0.00000
                       0.00000                       0.00000                       0.00000
                       0.00000                       0.00000                       0.00000
                       0.00000                       0.00000                       0.00000
                    -120.08083                    -219.43904                   -2227.84278
                    -232.57486                    -401.09148                   -4070.84226
                    -322.84427                    -533.04679                   -5408.83230
                    -500.45227                    -816.52363                   -8284.72504
                    -673.41939                   -1143.84259                  -11608.38435
                    -671.11204                   -1289.53468                  -13095.14131
                    -562.77115                   -1419.44033                  -14430.68146
                    -310.82371                   -1497.26497                  -15248.17276
                      58.70328                   -1122.77404                  -11461.47591
                     410.24184                   -1065.08848                  -10905.57210
                     785.65490                    -996.68906                  -10242.57083
                    1075.08747                    -918.13692                   -9467.98524
                    1195.39012                    -794.96799                   -8222.43742
                     702.73141                    -379.16567                   -3934.07557
                     -69.22520                      34.06455                     354.00683
        </DataArray>
      </PointData>
      <Lines>
        <DataArray type="Int32" Name="connectivity" format="ascii">
      0      1
      1      2
      2      3
      3      4
      4      5
      5      6
      6      7
      7      8
      8      9
      9     10
     10     11
     11     12
     12     13
     13     14
     14     15
     15     16
     16     17
     17     18
        </DataArray>
        <DataArray type="Int32" Name="offsets" format="ascii">
      2
      4
      6
      8
     10
     12
     14
     16
     18
     20
     22
     24
     26
     28
     30
     32
     34
     36
        </DataArray>
      </Lines>
    </Piece>
  </PolyData>
</VTKFile>
