<?xml version="1.0"?>
<VTKFile type="PolyData" version="0.1" byte_order="LittleEndian">
  <PolyData>
    <Piece NumberOfPoints="     22" NumberOfVerts="  0" NumberOfLines="     21"
           NumberOfStrips="  0" NumberOfPolys="      0">
      <Points>
        <DataArray type="Float32" NumberOfComponents="3" format="ascii">
                       0.00013                      -0.00001                       2.19000
                       0.00125                      -0.00009                       6.57000
                       0.00374                      -0.00023                      10.95000
                       0.00770                      -0.00043                      15.33000
                       0.01315                      -0.00069                      19.70999
                       0.02004                      -0.00101                      24.08999
                       0.02833                      -0.00140                      28.46998
                       0.03796                      -0.00184                      32.84997
                       0.04889                      -0.00236                      37.22996
                       0.06111                      -0.00295                      41.60994
                       0.07465                      -0.00363                      45.98992
                       0.08956                      -0.00439                      50.36989
                       0.10591                      -0.00523                      54.74986
                       0.12376                      -0.00617                      59.12983
                       0.14313                      -0.00719                      63.50978
                       0.16398                      -0.00830                      67.88973
                       0.18615                      -0.00949                      72.26968
                       0.20931                      -0.01074                      76.64961
                       0.23292                      -0.01206                      81.02955
                       0.25614                      -0.01343                      85.40949
                       0.26726                      -0.01412                      87.59946
                       0.00000                       0.00000                       0.00000
        </DataArray>
      </Points>
      <PointData>
        <DataArray type="Float32" Name="TranslationalVelocity" NumberOfComponents="3" format="ascii">
                       0.00006                      -0.00004                      -0.00000
                       0.00053                      -0.00030                      -0.00000
                       0.00149                      -0.00077                      -0.00000
                       0.00288                      -0.00143                      -0.00000
                       0.00465                      -0.00224                      -0.00000
                       0.00670                      -0.00317                      -0.00001
                       0.00889                      -0.00421                      -0.00001
                       0.01111                      -0.00533                      -0.00002
                       0.01320                      -0.00650                      -0.00002
                       0.01502                      -0.00771                      -0.00003
                       0.01643                      -0.00893                      -0.00003
                       0.01730                      -0.01012                      -0.00003
                       0.01752                      -0.01126                      -0.00004
                       0.01699                      -0.01231                      -0.00003
                       0.01566                      -0.01324                      -0.00003
                       0.01348                      -0.01404                      -0.00002
                       0.01047                      -0.01468                      -0.00000
                       0.00667                      -0.01517                       0.00002
                       0.00217                      -0.01550                       0.00004
                      -0.00290                      -0.01572                       0.00007
                      -0.00558                      -0.01580                       0.00008
                       0.00000                      -0.00000                       0.00000
        </DataArray>
        <DataArray type="Float32" Name="RotationalVelocity" NumberOfComponents="3" format="ascii">
                       0.00003                       0.00005                       0.00000
                       0.00009                       0.00016                       0.00000
                       0.00013                       0.00027                       0.00000
                       0.00017                       0.00036                       0.00000
                       0.00020                       0.00044                       0.00000
                       0.00023                       0.00049                       0.00000
                       0.00025                       0.00051                       0.00000
                       0.00026                       0.00050                       0.00000
                       0.00027                       0.00045                       0.00000
                       0.00028                       0.00037                       0.00000
                       0.00028                       0.00027                       0.00000
                       0.00027                       0.00013                       0.00000
                       0.00025                      -0.00003                       0.00000
                       0.00023                      -0.00021                       0.00000
                       0.00020                      -0.00040                       0.00000
                       0.00016                      -0.00059                       0.00000
                       0.00013                      -0.00078                       0.00000
                       0.00009                      -0.00095                       0.00000
                       0.00006                      -0.00110                       0.00000
                       0.00004                      -0.00121                       0.00000
                       0.00003                      -0.00124                       0.00000
                       0.00000                      -0.00000                       0.00000
        </DataArray>
        <DataArray type="Float32" Name="TranslationalAcceleration" NumberOfComponents="3" format="ascii">
                       0.00096                      -0.00023                      -0.00000
                       0.00883                      -0.00191                      -0.00000
                       0.02477                      -0.00494                      -0.00001
                       0.04825                      -0.00902                      -0.00004
                       0.07820                      -0.01391                      -0.00007
                       0.11306                      -0.01935                      -0.00013
                       0.15091                      -0.02509                      -0.00020
                       0.18965                      -0.03087                      -0.00029
                       0.22704                      -0.03641                      -0.00039
                       0.26083                      -0.04139                      -0.00048
                       0.28886                      -0.04549                      -0.00057
                       0.30915                      -0.04837                      -0.00064
                       0.31995                      -0.04969                      -0.00068
                       0.31989                      -0.04915                      -0.00067
                       0.30796                      -0.04647                      -0.00062
                       0.28363                      -0.04146                      -0.00050
                       0.24690                      -0.03401                      -0.00032
                       0.19834                      -0.02417                      -0.00006
                       0.13911                      -0.01218                       0.00025
                       0.07106                       0.00151                       0.00061
                       0.03449                       0.00878                       0.00080
                       0.00000                      -0.00000                       0.00000
        </DataArray>
        <DataArray type="Float32" Name="RotationalAcceleration" NumberOfComponents="3" format="ascii">
                       0.00020                       0.00088                       0.00000
                       0.00055                       0.00272                       0.00000
                       0.00082                       0.00453                       0.00000
                       0.00103                       0.00615                       0.00000
                       0.00119                       0.00746                       0.00000
                       0.00129                       0.00838                       0.00000
                       0.00133                       0.00883                       0.00000
                       0.00130                       0.00878                       0.00000
                       0.00121                       0.00821                       0.00000
                       0.00105                       0.00714                       0.00000
                       0.00081                       0.00559                       0.00000
                       0.00049                       0.00361                       0.00000
                       0.00010                       0.00127                       0.00000
                      -0.00036                      -0.00134                       0.00000
                      -0.00087                      -0.00413                       0.00000
                      -0.00142                      -0.00698                       0.00000
                      -0.00198                      -0.00977                       0.00000
                      -0.00250                      -0.01236                       0.00000
                      -0.00295                      -0.01461                       0.00000
                      -0.00327                      -0.01637                       0.00000
                      -0.00335                      -0.01701                       0.00000
                       0.00000                      -0.00000                       0.00000
        </DataArray>
        <DataArray type="Float32" Name="OrientationX" NumberOfComponents="3" format="ascii">
                       1.00000                       0.00000                      -0.00012
                       1.00000                       0.00000                      -0.00041
                       1.00000                       0.00000                      -0.00073
                       1.00000                       0.00000                      -0.00107
                       1.00000                       0.00000                      -0.00141
                       1.00000                       0.00000                      -0.00174
                       1.00000                       0.00000                      -0.00205
                       1.00000                       0.00000                      -0.00235
                       1.00000                       0.00000                      -0.00264
                       1.00000                       0.00000                      -0.00294
                       0.99999                       0.00000                      -0.00325
                       0.99999                       0.00000                      -0.00357
                       0.99999                       0.00000                      -0.00390
                       0.99999                       0.00000                      -0.00425
                       0.99999                       0.00000                      -0.00459
                       0.99999                       0.00000                      -0.00492
                       0.99999                       0.00000                      -0.00519
                       0.99999                       0.00000                      -0.00536
                       0.99999                       0.00000                      -0.00538
                       0.99999                       0.00000                      -0.00518
                       0.99999                       0.00000                      -0.00496
                       1.00000                      -0.00000                       0.00000
        </DataArray>
        <DataArray type="Float32" Name="OrientationY" NumberOfComponents="3" format="ascii">
                       0.00000                       1.00000                       0.00001
                       0.00000                       1.00000                       0.00003
                       0.00000                       1.00000                       0.00004
                       0.00000                       1.00000                       0.00005
                       0.00000                       1.00000                       0.00007
                       0.00000                       1.00000                       0.00008
                       0.00000                       1.00000                       0.00009
                       0.00000                       1.00000                       0.00011
                       0.00000                       1.00000                       0.00013
                       0.00000                       1.00000                       0.00014
                       0.00000                       1.00000                       0.00016
                       0.00000                       1.00000                       0.00018
                       0.00000                       1.00000                       0.00020
                       0.00000                       1.00000                       0.00022
                       0.00000                       1.00000                       0.00024
                       0.00000                       1.00000                       0.00026
                       0.00000                       1.00000                       0.00028
                       0.00000                       1.00000                       0.00029
                       0.00000                       1.00000                       0.00031
                       0.00000                       1.00000                       0.00032
                       0.00000                       1.00000                       0.00032
                      -0.00000                       1.00000                      -0.00000
        </DataArray>
        <DataArray type="Float32" Name="OrientationZ" NumberOfComponents="3" format="ascii">
                       0.00012                      -0.00001                       1.00000
                       0.00041                      -0.00003                       1.00000
                       0.00073                      -0.00004                       1.00000
                       0.00107                      -0.00005                       1.00000
                       0.00141                      -0.00007                       1.00000
                       0.00174                      -0.00008                       1.00000
                       0.00205                      -0.00009                       1.00000
                       0.00235                      -0.00011                       1.00000
                       0.00264                      -0.00013                       1.00000
                       0.00294                      -0.00014                       1.00000
                       0.00325                      -0.00016                       0.99999
                       0.00357                      -0.00018                       0.99999
                       0.00390                      -0.00020                       0.99999
                       0.00425                      -0.00022                       0.99999
                       0.00459                      -0.00024                       0.99999
                       0.00492                      -0.00026                       0.99999
                       0.00519                      -0.00028                       0.99999
                       0.00536                      -0.00029                       0.99999
                       0.00538                      -0.00031                       0.99999
                       0.00518                      -0.00032                       0.99999
                       0.00496                      -0.00032                       0.99999
                       0.00000                      -0.00000                       1.00000
        </DataArray>
      </PointData>
      <Lines>
        <DataArray type="Int32" Name="connectivity" format="ascii">
      0      1
      1      2
      2      3
      3      4
      4      5
      5      6
      6      7
      7      8
      8      9
      9     10
     10     11
     11     12
     12     13
     13     14
     14     15
     15     16
     16     17
     17     18
     18     19
     19     20
     21      0
        </DataArray>
        <DataArray type="Int32" Name="offsets" format="ascii">
      2
      4
      6
      8
     10
     12
     14
     16
     18
     20
     22
     24
     26
     28
     30
     32
     34
     36
     38
     40
     42
        </DataArray>
      </Lines>
    </Piece>
  </PolyData>
</VTKFile>
