<?xml version="1.0"?>
<VTKFile type="PolyData" version="0.1" byte_order="LittleEndian">
  <PolyData>
    <Piece NumberOfPoints="     19" NumberOfVerts="  0" NumberOfLines="     18"
           NumberOfStrips="  0" NumberOfPolys="      0">
      <Points>
        <DataArray type="Float32" NumberOfComponents="3" format="ascii">
                      -4.86988                       1.18368                      89.12258
                      -5.00531                       2.26952                      88.30321
                      -5.29189                       4.49792                      86.74059
                      -5.58424                       6.75296                      85.21261
                      -5.94936                       9.58708                      83.32126
                      -6.33726                      12.90071                      80.92787
                      -6.70382                      16.13319                      78.42418
                      -7.07317                      19.36099                      75.91384
                      -7.45420                      22.58246                      73.39554
                      -7.86240                      25.79748                      70.87155
                      -8.31701                      29.00600                      68.34589
                      -8.83821                      32.20355                      65.81870
                      -9.44985                      35.38481                      63.29189
                     -10.17775                      38.54232                      60.76785
                     -11.04691                      41.66677                      58.24944
                     -11.90242                      44.23551                      56.15766
                     -12.67922                      46.25800                      54.48412
                     -13.53986                      48.21833                      52.77362
                     -14.01560                      49.20926                      51.95469
        </DataArray>
      </Points>
      <PointData>
        <DataArray type="Float32" Name="TranslationalVelocity" NumberOfComponents="3" format="ascii">
                       0.35214                       2.99814                       3.88582
                       0.68117                       5.71600                       7.43346
                       1.35555                      10.90619                      14.71129
                       2.03861                      15.98269                      22.07195
                       2.90013                      22.26364                      31.31586
                       3.91339                      30.18280                      42.11332
                       4.90743                      38.44665                      52.63487
                       5.90082                      46.72400                      63.12953
                       6.88619                      55.02138                      73.59221
                       7.85456                      63.33534                      84.02314
                       8.79549                      71.65717                      94.42309
                       9.69630                      79.99005                     104.77898
                      10.54366                      88.33116                     115.07524
                      11.32372                      96.67495                     125.28981
                      12.02273                     105.01234                     135.39503
                      12.53180                     111.94604                     143.70309
                      12.88729                     117.49708                     150.24580
                      13.18772                     123.16807                     156.58961
                      13.32235                     125.88746                     159.79752
        </DataArray>
        <DataArray type="Float32" Name="RotationalVelocity" NumberOfComponents="3" format="ascii">
                       3.26764                      -0.00006                      -0.30233
                       3.26712                      -0.00016                      -0.30234
                       3.26572                      -0.00054                      -0.30248
                       3.26396                      -0.00116                      -0.30273
                       3.26144                      -0.00225                      -0.30310
                       3.25815                      -0.00396                      -0.30329
                       3.25482                      -0.00598                      -0.30265
                       3.25161                      -0.00809                      -0.30057
                       3.24863                      -0.01008                      -0.29638
                       3.24594                      -0.01168                      -0.28952
                       3.24354                      -0.01264                      -0.27952
                       3.24143                      -0.01271                      -0.26614
                       3.23956                      -0.01164                      -0.24944
                       3.23791                      -0.00925                      -0.22980
                       3.23645                      -0.00538                      -0.20807
                       3.23534                      -0.00101                      -0.18927
                       3.23455                       0.00329                      -0.17452
                       3.23384                       0.00828                      -0.16078
                       3.23352                       0.01102                      -0.15455
        </DataArray>
        <DataArray type="Float32" Name="TranslationalAcceleration" NumberOfComponents="3" format="ascii">
                       0.86836                     -12.81755                       9.65903
                       1.10287                     -15.50288                      11.76655
                       3.10353                     -44.93874                      32.89479
                       4.93235                     -72.28713                      51.91883
                       7.08661                    -104.36846                      73.86209
                       9.72056                    -139.84292                      99.98123
                      12.48424                    -173.39978                     126.53621
                      15.34387                    -206.68893                     153.04659
                      18.34255                    -240.13388                     179.83279
                      21.49837                    -273.88414                     206.95904
                      24.80907                    -307.88010                     234.31062
                      28.26293                    -341.88918                     261.71409
                      31.83672                    -375.62683                     288.94340
                      35.50129                    -408.82699                     315.79498
                      39.22563                    -441.32837                     342.15222
                      42.35391                    -467.87140                     363.74767
                      44.87180                    -488.79824                     380.93362
                      47.46764                    -509.30997                     398.57489
                      48.70533                    -519.85948                     407.09797
        </DataArray>
        <DataArray type="Float32" Name="OrientationX" NumberOfComponents="3" format="ascii">
                       0.98253                       0.17374                       0.06663
                       0.98255                       0.17362                       0.06676
                       0.98256                       0.17335                       0.06733
                       0.98254                       0.17304                       0.06830
                       0.98248                       0.17270                       0.07006
                       0.98691                       0.15406                       0.04759
                       0.98930                       0.14214                       0.03304
                       0.99065                       0.13469                       0.02161
                       0.99137                       0.13068                       0.01003
                       0.99128                       0.13178                      -0.00136
                       0.99005                       0.14028                      -0.01129
                       0.98748                       0.15640                      -0.02075
                       0.98296                       0.18159                      -0.02863
                       0.97558                       0.21711                      -0.03326
                       0.96503                       0.25931                      -0.03844
                       0.95356                       0.29801                      -0.04372
                       0.94251                       0.33068                      -0.04832
                       0.92937                       0.36565                      -0.05077
                       0.92192                       0.38405                      -0.05062
        </DataArray>
        <DataArray type="Float32" Name="OrientationY" NumberOfComponents="3" format="ascii">
                       0.15728                      -0.58407                      -0.79632
                       0.15734                      -0.58427                      -0.79616
                       0.15769                      -0.58474                      -0.79575
                       0.15835                      -0.58528                      -0.79522
                       0.15965                      -0.58600                      -0.79443
                       0.13077                      -0.59202                      -0.79524
                       0.11218                      -0.59599                      -0.79512
                       0.09876                      -0.59892                      -0.79470
                       0.08730                      -0.60131                      -0.79423
                       0.07908                      -0.60307                      -0.79376
                       0.07652                      -0.60392                      -0.79336
                       0.07899                      -0.60395                      -0.79310
                       0.08824                      -0.60271                      -0.79307
                       0.10632                      -0.59930                      -0.79343
                       0.12800                      -0.59409                      -0.79415
                       0.14743                      -0.58836                      -0.79505
                       0.16361                      -0.58265                      -0.79609
                       0.18258                      -0.57482                      -0.79765
                       0.19350                      -0.56977                      -0.79870
        </DataArray>
        <DataArray type="Float32" Name="OrientationZ" NumberOfComponents="3" format="ascii">
                      -0.09944                       0.79289                      -0.60120
                      -0.09922                       0.79277                      -0.60139
                      -0.09857                       0.79249                      -0.60187
                      -0.09762                       0.79216                      -0.60246
                      -0.09614                       0.79169                      -0.60331
                      -0.09434                       0.79106                      -0.60442
                      -0.09333                       0.79031                      -0.60556
                      -0.09409                       0.78940                      -0.60662
                      -0.09776                       0.78825                      -0.60754
                      -0.10543                       0.78673                      -0.60823
                      -0.11810                       0.78460                      -0.60864
                      -0.13657                       0.78153                      -0.60874
                      -0.16127                       0.77703                      -0.60846
                      -0.19219                       0.77052                      -0.60775
                      -0.22877                       0.76146                      -0.60650
                      -0.26265                       0.75168                      -0.60497
                      -0.29140                       0.74241                      -0.60325
                      -0.32085                       0.73204                      -0.60098
                      -0.33558                       0.72654                      -0.59960
        </DataArray>
        <DataArray type="Float32" Name="Force" NumberOfComponents="3" format="ascii">
                      -0.91388                      -7.60527                      -9.87908
                     392.23680                     -82.59748                    -173.65165
                     540.59542                    -271.48516                    -446.57350
                     512.17205                    -423.16994                    -640.99030
                    4622.88178                    1119.55215                     738.17294
                    5282.93794                     987.59197                     475.33048
                    5789.48803                     901.01853                     292.68488
                    7494.08808                    1028.53483                     189.11865
                    7927.56339                     966.02285                      -7.51243
                    8329.10278                     964.80101                    -178.87476
                   10252.31056                    1187.90828                    -435.22086
                    9625.05538                    1189.17297                    -608.22990
                    6132.34626                     819.52930                    -562.03935
                    1031.31051                       7.36517                    -324.11723
                   -3168.34479                    -854.66104                      84.53418
                  -10527.25835                   -2722.40617                    1080.95628
                  -16434.70316                   -4567.55323                    2134.05719
                  -17407.09146                   -5311.49817                    2595.62065
                  -37692.79429                  -10457.78428                    8142.42552
        </DataArray>
        <DataArray type="Float32" Name="Moment" NumberOfComponents="3" format="ascii">
                       0.00000                       0.00000                       0.00000
                       0.00000                       0.00000                       0.00000
                       0.00000                       0.00000                       0.00000
                       0.00000                       0.00000                       0.00000
                     229.89435                   -1899.35369                    1440.92399
                     379.73383                   -3200.13404                    2428.45032
                     487.05495                   -4153.64064                    3152.56605
                     741.48106                   -6278.70992                    4764.98466
                    1075.07414                   -8770.74631                    6652.58430
                    1303.04586                   -9863.68524                    7472.87911
                    1609.07246                  -10874.56423                    8222.78068
                    1961.65330                  -11458.47562                    8639.68070
                    1731.92273                   -8553.53234                    6424.60260
                    1966.05166                   -8122.62297                    6071.21471
                    2207.15157                   -7622.03285                    5663.53923
                    2352.45047                   -7033.23382                    5196.81955
                    2284.03097                   -6116.85305                    4497.68596
                    1218.00789                   -2940.53539                    2151.05638
                     103.77511                    -238.53355                     174.03185
        </DataArray>
      </PointData>
      <Lines>
        <DataArray type="Int32" Name="connectivity" format="ascii">
      0      1
      1      2
      2      3
      3      4
      4      5
      5      6
      6      7
      7      8
      8      9
      9     10
     10     11
     11     12
     12     13
     13     14
     14     15
     15     16
     16     17
     17     18
        </DataArray>
        <DataArray type="Int32" Name="offsets" format="ascii">
      2
      4
      6
      8
     10
     12
     14
     16
     18
     20
     22
     24
     26
     28
     30
     32
     34
     36
        </DataArray>
      </Lines>
    </Piece>
  </PolyData>
</VTKFile>
