<?xml version="1.0"?>
<VTKFile type="PolyData" version="0.1" byte_order="LittleEndian">
  <PolyData>
    <Piece NumberOfPoints="     19" NumberOfVerts="  0" NumberOfLines="     18"
           NumberOfStrips="  0" NumberOfPolys="      0">
      <Points>
        <DataArray type="Float32" NumberOfComponents="3" format="ascii">
                      -5.07245                       1.20947                      89.12784
                      -5.20363                       2.31189                      88.33069
                      -5.47954                       4.57150                      86.81399
                      -5.75995                       6.85679                      85.33296
                      -6.10996                       9.72844                      83.50139
                      -6.47881                      13.09015                      81.17929
                      -6.82065                      16.37408                      78.74656
                      -7.14903                      19.65528                      76.30837
                      -7.45806                      22.93310                      73.86320
                      -7.74465                      26.20905                      71.41293
                      -8.00615                      29.48563                      68.96090
                      -8.23852                      32.76226                      66.50610
                      -8.43945                      36.03907                      64.04882
                      -8.60734                      39.31605                      61.58930
                      -8.73903                      42.59299                      59.12754
                      -8.82005                      45.32332                      57.07422
                      -8.86807                      47.50221                      55.42407
                      -8.90570                      49.64744                      53.72871
                      -8.91655                      50.74434                      52.91396
        </DataArray>
      </Points>
      <PointData>
        <DataArray type="Float32" Name="TranslationalVelocity" NumberOfComponents="3" format="ascii">
                       0.25086                       0.61530                       0.84285
                       0.31417                       1.16615                       1.59425
                       0.44367                       2.21528                       3.13372
                       0.57357                       3.23957                       4.68952
                       0.73446                       4.50504                       6.64247
                       0.91739                       6.10245                       8.92523
                       1.08902                       7.77004                      11.15131
                       1.25311                       9.43695                      13.37158
                       1.40877                      11.10383                      15.58555
                       1.55553                      12.76937                      17.79434
                       1.69335                      14.43142                      19.99982
                       1.82242                      16.09077                      22.20181
                       1.94350                      17.74751                      24.40070
                       2.05791                      19.40187                      26.59680
                       2.16765                      21.05415                      28.79020
                       2.25747                      22.42984                      30.61584
                       2.32930                      23.53412                      32.07169
                       2.39963                      24.66785                      33.50425
                       2.43817                      25.21226                      34.23632
        </DataArray>
        <DataArray type="Float32" Name="RotationalVelocity" NumberOfComponents="3" format="ascii">
                       0.68123                       0.00393                      -0.06036
                       0.68108                       0.00399                      -0.06027
                       0.68066                       0.00420                      -0.05998
                       0.68010                       0.00454                      -0.05956
                       0.67924                       0.00514                      -0.05889
                       0.67806                       0.00616                      -0.05792
                       0.67679                       0.00751                      -0.05683
                       0.67548                       0.00920                      -0.05572
                       0.67420                       0.01124                      -0.05466
                       0.67298                       0.01360                      -0.05372
                       0.67185                       0.01624                      -0.05299
                       0.67083                       0.01905                      -0.05252
                       0.66993                       0.02191                      -0.05237
                       0.66918                       0.02462                      -0.05259
                       0.66857                       0.02689                      -0.05320
                       0.66817                       0.02825                      -0.05402
                       0.66794                       0.02878                      -0.05489
                       0.66779                       0.02868                      -0.05594
                       0.66774                       0.02833                      -0.05653
        </DataArray>
        <DataArray type="Float32" Name="TranslationalAcceleration" NumberOfComponents="3" format="ascii">
                       0.65666                      -0.54317                       0.57657
                       0.22622                      -0.62926                       0.61421
                       0.57245                      -1.82013                       1.71885
                       0.80845                      -2.92387                       2.70880
                       1.00596                      -4.20991                       3.84732
                       1.16917                      -5.60550                       5.17857
                       1.32287                      -6.89865                       6.51537
                       1.51869                      -8.17057                       7.84892
                       1.78976                      -9.44329                       9.19453
                       2.15474                     -10.72792                      10.55224
                       2.62167                     -12.02727                      11.91191
                       3.19243                     -13.33715                      13.26012
                       3.86663                     -14.65173                      14.58228
                       4.64590                     -15.96637                      15.86763
                       5.53796                     -17.28108                      17.11402
                       6.38265                     -18.38212                      18.12932
                       7.13313                     -19.26954                      18.93936
                       7.96728                     -20.15610                      19.77586
                       8.41797                     -20.62184                      20.18885
        </DataArray>
        <DataArray type="Float32" Name="OrientationX" NumberOfComponents="3" format="ascii">
                       0.98259                       0.17046                       0.07395
                       0.98261                       0.17029                       0.07407
                       0.98267                       0.16973                       0.07447
                       0.98277                       0.16892                       0.07504
                       0.98293                       0.16758                       0.07598
                       0.98776                       0.14719                       0.05172
                       0.99074                       0.13119                       0.03504
                       0.99301                       0.11615                       0.02118
                       0.99500                       0.09967                       0.00692
                       0.99661                       0.08201                      -0.00725
                       0.99774                       0.06421                      -0.01986
                       0.99845                       0.04574                      -0.03176
                       0.99875                       0.02777                      -0.04163
                       0.99879                       0.01207                      -0.04758
                       0.99857                      -0.00353                      -0.05329
                       0.99817                      -0.01624                      -0.05829
                       0.99774                      -0.02553                      -0.06212
                       0.99749                      -0.03175                      -0.06326
                       0.99751                      -0.03314                      -0.06224
        </DataArray>
        <DataArray type="Float32" Name="OrientationY" NumberOfComponents="3" format="ascii">
                       0.15930                      -0.56793                      -0.80751
                       0.15932                      -0.56811                      -0.80739
                       0.15936                      -0.56857                      -0.80705
                       0.15942                      -0.56916                      -0.80662
                       0.15948                      -0.57001                      -0.80601
                       0.12811                      -0.57610                      -0.80727
                       0.10540                      -0.58035                      -0.80752
                       0.08550                      -0.58380                      -0.80738
                       0.06441                      -0.58695                      -0.80705
                       0.04266                      -0.58967                      -0.80651
                       0.02204                      -0.59178                      -0.80580
                       0.00158                      -0.59336                      -0.80493
                      -0.01699                      -0.59437                      -0.80401
                      -0.03107                      -0.59487                      -0.80322
                      -0.04492                      -0.59508                      -0.80241
                      -0.05650                      -0.59507                      -0.80169
                      -0.06510                      -0.59497                      -0.80111
                      -0.06972                      -0.59494                      -0.80074
                      -0.06973                      -0.59501                      -0.80069
        </DataArray>
        <DataArray type="Float32" Name="OrientationZ" NumberOfComponents="3" format="ascii">
                      -0.09565                       0.80523                      -0.58520
                      -0.09541                       0.80514                      -0.58535
                      -0.09464                       0.80493                      -0.58577
                      -0.09354                       0.80469                      -0.58628
                      -0.09176                       0.80437                      -0.58700
                      -0.08903                       0.80402                      -0.58791
                      -0.08560                       0.80373                      -0.58880
                      -0.08141                       0.80355                      -0.58965
                      -0.07638                       0.80346                      -0.59044
                      -0.07041                       0.80347                      -0.59117
                      -0.06349                       0.80354                      -0.59186
                      -0.05567                       0.80363                      -0.59252
                      -0.04707                       0.80371                      -0.59315
                      -0.03800                       0.80373                      -0.59378
                      -0.02888                       0.80366                      -0.59439
                      -0.02167                       0.80351                      -0.59489
                      -0.01651                       0.80335                      -0.59528
                      -0.01221                       0.80314                      -0.59566
                      -0.01049                       0.80304                      -0.59584
        </DataArray>
        <DataArray type="Float32" Name="Force" NumberOfComponents="3" format="ascii">
                       0.01356                       0.11283                       0.15304
                     373.15110                      13.40497                     -42.37951
                     436.86632                      -6.98916                     -80.22123
                     344.91163                     -28.22813                     -93.89499
                    2660.39873                     620.54189                     437.04862
                    2521.94305                     509.48494                     317.91317
                    2685.36462                     497.45760                     292.41006
                    2380.85713                     387.07091                     202.15100
                    2135.97461                     287.03031                     117.03881
                    2225.99572                     260.56556                      91.66748
                    2101.44269                     181.10545                      22.34466
                    2209.98933                     163.42598                      15.85096
                    2245.12494                     193.79204                      86.66238
                    2493.81041                     209.97583                     127.17093
                    2701.78892                     210.90455                     156.58326
                    2775.61605                     201.33527                     173.59107
                    2776.40648                     185.42858                     175.98372
                    2148.88115                     142.66737                     150.55660
                     636.86144                     -27.07965                     -47.76163
        </DataArray>
        <DataArray type="Float32" Name="Moment" NumberOfComponents="3" format="ascii">
                       0.00000                       0.00000                       0.00000
                       0.00000                       0.00000                       0.00000
                       0.00000                       0.00000                       0.00000
                       0.00000                       0.00000                       0.00000
                     154.00493                   -1353.41773                     984.18770
                     156.54857                   -1419.12270                    1032.40471
                     143.16862                   -1350.78965                     983.21053
                     135.28164                   -1342.94687                     978.12730
                     118.19618                   -1251.55382                     912.26005
                     102.68754                   -1180.15211                     860.99210
                      77.71354                    -991.04235                     723.78020
                      63.78417                    -928.38532                     678.81949
                      49.87746                    -859.11856                     628.98360
                      38.04674                    -812.73095                     595.83187
                      25.81068                    -726.76270                     533.53437
                      16.75591                    -630.52891                     463.38640
                      10.84823                    -537.88651                     395.60733
                       3.69444                    -249.14962                     183.36367
                       2.17398                    -171.35308                     126.14120
        </DataArray>
      </PointData>
      <Lines>
        <DataArray type="Int32" Name="connectivity" format="ascii">
      0      1
      1      2
      2      3
      3      4
      4      5
      5      6
      6      7
      7      8
      8      9
      9     10
     10     11
     11     12
     12     13
     13     14
     14     15
     15     16
     16     17
     17     18
        </DataArray>
        <DataArray type="Int32" Name="offsets" format="ascii">
      2
      4
      6
      8
     10
     12
     14
     16
     18
     20
     22
     24
     26
     28
     30
     32
     34
     36
        </DataArray>
      </Lines>
    </Piece>
  </PolyData>
</VTKFile>
