<?xml version="1.0"?>
<VTKFile type="PolyData" version="0.1" byte_order="LittleEndian">
  <PolyData>
    <Piece NumberOfPoints="     19" NumberOfVerts="  0" NumberOfLines="     18"
           NumberOfStrips="  0" NumberOfPolys="      0">
      <Points>
        <DataArray type="Float32" NumberOfComponents="3" format="ascii">
                      -4.69218                      -1.09143                      91.06257
                      -4.66446                      -2.07925                      92.00708
                      -4.63681                      -4.12110                      93.82905
                      -4.61909                      -6.19544                      95.61832
                      -4.59636                      -8.80925                      97.83353
                      -4.49143                     -11.85205                     100.58687
                      -4.33740                     -14.80974                     103.42765
                      -4.17447                     -17.76926                     106.26713
                      -4.00998                     -20.72849                     109.10859
                      -3.85874                     -23.68701                     111.95346
                      -3.74002                     -26.64459                     114.80243
                      -3.67392                     -29.59626                     117.65988
                      -3.68506                     -32.53651                     120.52925
                      -3.80088                     -35.45800                     123.41368
                      -4.04878                     -38.35188                     126.31552
                      -4.38191                     -40.73343                     128.74890
                      -4.73868                     -42.60927                     130.71087
                      -5.17244                     -44.42291                     132.72000
                      -5.44110                     -45.34528                     133.69905
        </DataArray>
      </Points>
      <PointData>
        <DataArray type="Float32" Name="TranslationalVelocity" NumberOfComponents="3" format="ascii">
                      -0.30733                      -3.39478                      -3.52278
                      -0.60314                      -6.49580                      -6.75710
                      -1.21276                     -12.47264                     -13.44603
                      -1.83161                     -18.34327                     -20.24649
                      -2.61296                     -25.61786                     -28.82352
                      -3.52402                     -34.69295                     -38.82030
                      -4.40707                     -44.08255                     -48.55073
                      -5.28027                     -53.48347                     -58.30100
                      -6.13137                     -62.90408                     -68.06485
                      -6.94646                     -72.34475                     -77.84138
                      -7.71068                     -81.80258                     -87.62960
                      -8.40772                     -91.28775                     -97.41224
                      -9.02227                    -100.80727                    -107.16911
                      -9.54073                    -110.36830                    -116.87281
                      -9.95246                    -119.97734                    -126.48981
                     -10.20691                    -128.02751                    -134.40375
                     -10.35243                    -134.51486                    -140.63425
                     -10.43389                    -141.16139                    -146.65437
                     -10.46662                    -144.39573                    -149.71191
        </DataArray>
        <DataArray type="Float32" Name="RotationalVelocity" NumberOfComponents="3" format="ascii">
                       3.27365                       0.00342                      -0.30208
                       3.27428                       0.00350                      -0.30200
                       3.27611                       0.00367                      -0.30206
                       3.27850                       0.00385                      -0.30232
                       3.28194                       0.00416                      -0.30272
                       3.28632                       0.00494                      -0.30290
                       3.29073                       0.00669                      -0.30226
                       3.29507                       0.01006                      -0.30034
                       3.29942                       0.01569                      -0.29674
                       3.30394                       0.02417                      -0.29119
                       3.30887                       0.03593                      -0.28358
                       3.31442                       0.05112                      -0.27402
                       3.32075                       0.06958                      -0.26289
                       3.32791                       0.09068                      -0.25085
                       3.33580                       0.11329                      -0.23893
                       3.34270                       0.13209                      -0.23003
                       3.34823                       0.14612                      -0.22435
                       3.35350                       0.15828                      -0.22067
                       3.35595                       0.16335                      -0.21979
        </DataArray>
        <DataArray type="Float32" Name="TranslationalAcceleration" NumberOfComponents="3" format="ascii">
                      -0.91399                      11.69351                     -10.99972
                      -1.19158                      14.17313                     -13.42384
                      -3.35998                      41.31680                     -37.67947
                      -5.31354                      66.74341                     -59.57420
                      -7.52220                      96.83032                     -84.83150
                     -10.02485                     130.23355                    -114.58555
                     -12.44709                     161.98289                    -144.60920
                     -14.82111                     193.74771                    -174.61989
                     -17.26225                     225.87520                    -205.02746
                     -19.87493                     258.46627                    -235.96078
                     -22.74666                     291.43618                    -267.35352
                     -25.94393                     324.54164                    -299.07118
                     -29.50046                     357.50630                    -330.92923
                     -33.40959                     390.08713                    -362.77633
                     -37.61549                     422.15881                    -394.56267
                     -41.26811                     448.51860                    -421.09612
                     -44.21016                     469.42604                    -442.52894
                     -47.10576                     490.00341                    -464.71792
                     -48.49414                     500.68516                    -475.66593
        </DataArray>
        <DataArray type="Float32" Name="OrientationX" NumberOfComponents="3" format="ascii">
                       0.95555                      -0.19000                      -0.22543
                       0.95554                      -0.18971                      -0.22573
                       0.95543                      -0.18895                      -0.22685
                       0.95521                      -0.18794                      -0.22860
                       0.95479                      -0.18647                      -0.23154
                       0.96302                      -0.16365                      -0.21402
                       0.96787                      -0.14801                      -0.20327
                       0.97121                      -0.13686                      -0.19498
                       0.97404                      -0.12892                      -0.18608
                       0.97617                      -0.12597                      -0.17669
                       0.97715                      -0.13050                      -0.16779
                       0.97701                      -0.14277                      -0.15833
                       0.97503                      -0.16452                      -0.14916
                       0.97004                      -0.19738                      -0.14164
                       0.96231                      -0.23763                      -0.13227
                       0.95348                      -0.27540                      -0.12261
                       0.94456                      -0.30797                      -0.11389
                       0.93300                      -0.34374                      -0.10655
                       0.92599                      -0.36295                      -0.10392
        </DataArray>
        <DataArray type="Float32" Name="OrientationY" NumberOfComponents="3" format="ascii">
                       0.29413                       0.66665                       0.68488
                       0.29415                       0.66659                       0.68493
                       0.29443                       0.66638                       0.68502
                       0.29500                       0.66607                       0.68507
                       0.29611                       0.66563                       0.68502
                       0.26771                       0.67053                       0.69189
                       0.24916                       0.67322                       0.69620
                       0.23550                       0.67491                       0.69932
                       0.22361                       0.67619                       0.70197
                       0.21478                       0.67700                       0.70394
                       0.21145                       0.67713                       0.70482
                       0.21310                       0.67666                       0.70478
                       0.22156                       0.67519                       0.70359
                       0.23906                       0.67183                       0.70107
                       0.26062                       0.66680                       0.69818
                       0.28045                       0.66119                       0.69582
                       0.29743                       0.65554                       0.69412
                       0.31771                       0.64772                       0.69247
                       0.32952                       0.64265                       0.69168
        </DataArray>
        <DataArray type="Float32" Name="OrientationZ" NumberOfComponents="3" format="ascii">
                       0.02015                      -0.72075                       0.69291
                       0.02053                      -0.72088                       0.69276
                       0.02173                      -0.72128                       0.69231
                       0.02351                      -0.72182                       0.69168
                       0.02638                      -0.72261                       0.69075
                       0.03028                      -0.72360                       0.68955
                       0.03381                      -0.72448                       0.68847
                       0.03589                      -0.72510                       0.68771
                       0.03533                      -0.72536                       0.68746
                       0.03094                      -0.72512                       0.68793
                       0.02164                      -0.72420                       0.68925
                       0.00651                      -0.72232                       0.69153
                      -0.01504                      -0.71907                       0.69478
                      -0.04322                      -0.71393                       0.69888
                      -0.07771                      -0.70634                       0.70360
                      -0.11056                      -0.69784                       0.70767
                      -0.13911                      -0.68951                       0.71079
                      -0.16901                      -0.67993                       0.71354
                      -0.18426                      -0.67474                       0.71469
        </DataArray>
        <DataArray type="Float32" Name="Force" NumberOfComponents="3" format="ascii">
                       2.79094                      29.16080                      30.25120
                     509.52426                     167.57643                     159.21379
                     709.94107                     433.47161                     428.67352
                     691.14905                     605.08153                     606.12921
                    5071.03684                   -1380.03272                   -1631.05012
                    5786.11766                   -1218.08286                   -1523.92457
                    6492.59025                   -1117.58087                   -1484.85774
                    8581.78428                   -1274.67718                   -1778.52138
                    9260.81375                   -1177.52180                   -1705.53724
                   10028.65995                   -1172.46560                   -1675.16287
                   12436.62598                   -1394.29122                   -1844.56216
                   12172.26649                   -1408.69549                   -1579.86898
                    8753.80486                   -1096.67710                    -945.21312
                    3164.45646                    -303.34940                    -114.53004
                    -871.32458                     389.27062                     301.26926
                   -9057.93934                    2150.47282                     740.45616
                  -16054.45051                    3977.78197                     791.90811
                  -18031.24520                    4886.10532                     493.85767
                  -41413.30519                    9538.08537                   -1539.70292
        </DataArray>
        <DataArray type="Float32" Name="Moment" NumberOfComponents="3" format="ascii">
                       0.00000                       0.00000                       0.00000
                       0.00000                       0.00000                       0.00000
                       0.00000                       0.00000                       0.00000
                       0.00000                       0.00000                       0.00000
                     -62.21188                    1689.88596                   -1623.23441
                    -134.11784                    3167.95726                   -3041.39466
                    -198.17521                    4187.40112                   -4018.18279
                    -311.19216                    6189.25269                   -5937.45079
                    -435.93425                    8800.33076                   -8442.90396
                    -429.30814                    9883.73512                   -9487.86832
                    -327.74682                   10766.06402                  -10347.76362
                    -105.03578                   11326.84915                  -10908.88233
                     178.22312                    8492.62440                   -8202.95040
                     492.88959                    8110.67732                   -7863.80140
                     812.45741                    7389.15355                   -7197.76795
                    1076.79036                    6839.99273                   -6692.78872
                    1196.97661                    6005.52027                   -5899.48308
                     711.96231                    2918.33645                   -2878.82990
                      82.77332                     309.93184                    -306.39693
        </DataArray>
      </PointData>
      <Lines>
        <DataArray type="Int32" Name="connectivity" format="ascii">
      0      1
      1      2
      2      3
      3      4
      4      5
      5      6
      6      7
      7      8
      8      9
      9     10
     10     11
     11     12
     12     13
     13     14
     14     15
     15     16
     16     17
     17     18
        </DataArray>
        <DataArray type="Int32" Name="offsets" format="ascii">
      2
      4
      6
      8
     10
     12
     14
     16
     18
     20
     22
     24
     26
     28
     30
     32
     34
     36
        </DataArray>
      </Lines>
    </Piece>
  </PolyData>
</VTKFile>
