<?xml version="1.0"?>
<VTKFile type="PolyData" version="0.1" byte_order="LittleEndian">
  <PolyData>
    <Piece NumberOfPoints="     19" NumberOfVerts="  0" NumberOfLines="     18"
           NumberOfStrips="  0" NumberOfPolys="      0">
      <Points>
        <DataArray type="Float32" NumberOfComponents="3" format="ascii">
                      -3.87903                       1.18770                      89.22470
                      -4.02715                       2.28776                      88.42659
                      -4.32830                       4.54319                      86.90699
                      -4.62152                       6.82533                      85.42154
                      -4.96529                       9.69516                      83.58203
                      -5.29021                      13.05677                      81.24696
                      -5.53872                      16.34264                      78.79847
                      -5.71234                      19.62770                      76.34204
                      -5.79726                      22.90980                      73.87688
                      -5.78326                      26.18849                      71.40579
                      -5.66186                      29.46400                      68.93328
                      -5.42469                      32.73293                      66.45984
                      -5.06681                      35.99241                      63.98746
                      -4.58590                      39.23929                      61.51834
                      -3.98018                      42.46974                      59.05502
                      -3.38019                      45.14600                      57.00874
                      -2.84438                      47.27068                      55.37062
                      -2.26321                      49.35079                      53.69392
                      -1.95493                      50.41086                      52.89136
        </DataArray>
      </Points>
      <PointData>
        <DataArray type="Float32" Name="TranslationalVelocity" NumberOfComponents="3" format="ascii">
                       0.24952                       2.50331                       3.36034
                       0.59551                       4.78756                       6.44478
                       1.30880                       9.14187                      12.76588
                       2.03819                      13.39657                      19.15730
                       2.96936                      18.65667                      27.18705
                       4.08421                      25.29331                      36.58265
                       5.20006                      32.21630                      45.75723
                       6.33656                      39.13174                      54.92298
                       7.48785                      46.03920                      64.07775
                       8.64788                      52.92996                      73.22478
                       9.81089                      59.79160                      82.36946
                      10.97119                      66.62307                      91.50719
                      12.12525                      73.42017                     100.63461
                      13.27238                      80.17869                     109.74685
                      14.41543                      86.89335                     118.83654
                      15.37022                      92.45114                     126.38701
                      16.14026                      96.88973                     132.39439
                      16.91997                     101.42776                     138.28820
                      17.31718                     103.59382                     141.29506
        </DataArray>
        <DataArray type="Float32" Name="RotationalVelocity" NumberOfComponents="3" format="ascii">
                       2.80512                      -0.00422                      -0.31067
                       2.80468                      -0.00467                      -0.31120
                       2.80331                      -0.00615                      -0.31287
                       2.80148                      -0.00823                      -0.31520
                       2.79898                      -0.01136                      -0.31864
                       2.79613                      -0.01571                      -0.32284
                       2.79384                      -0.02067                      -0.32623
                       2.79230                      -0.02647                      -0.32795
                       2.79153                      -0.03346                      -0.32727
                       2.79141                      -0.04207                      -0.32366
                       2.79170                      -0.05269                      -0.31691
                       2.79214                      -0.06557                      -0.30714
                       2.79244                      -0.08074                      -0.29494
                       2.79233                      -0.09791                      -0.28143
                       2.79161                      -0.11639                      -0.26832
                       2.79050                      -0.13197                      -0.25928
                       2.78928                      -0.14386                      -0.25462
                       2.78782                      -0.15450                      -0.25342
                       2.78703                      -0.15912                      -0.25450
        </DataArray>
        <DataArray type="Float32" Name="TranslationalAcceleration" NumberOfComponents="3" format="ascii">
                       0.46731                      -9.42627                       7.39487
                       0.79523                     -11.39581                       8.86702
                       2.04588                     -33.03100                      24.80003
                       3.09634                     -53.16120                      39.12131
                       4.41878                     -76.82168                      55.57567
                       6.43561                    -103.03824                      74.99316
                       9.09798                    -127.90721                      94.58265
                      12.30239                    -152.66846                     114.04309
                      15.90021                    -177.62907                     133.66828
                      19.64689                    -202.89167                     153.56428
                      23.25580                    -228.40742                     173.70155
                      26.46651                    -254.00617                     193.99918
                      29.09341                    -279.49502                     214.32356
                      31.08802                    -304.71559                     234.53875
                      32.60089                    -329.60736                     254.54291
                      33.80074                    -350.17315                     271.03194
                      35.02048                    -366.58401                     284.18816
                      36.85689                    -382.89327                     297.66963
                      38.05061                    -391.37718                     304.18031
        </DataArray>
        <DataArray type="Float32" Name="OrientationX" NumberOfComponents="3" format="ascii">
                       0.98390                       0.17104                       0.05184
                       0.98403                       0.17008                       0.05252
                       0.98445                       0.16694                       0.05473
                       0.98504                       0.16231                       0.05798
                       0.98593                       0.15473                       0.06325
                       0.99113                       0.12479                       0.04560
                       0.99454                       0.09759                       0.03702
                       0.99700                       0.07007                       0.03283
                       0.99874                       0.04012                       0.03001
                       0.99954                       0.00833                       0.02918
                       0.99921                      -0.02388                       0.03193
                       0.99769                      -0.05666                       0.03737
                       0.99500                      -0.08838                       0.04661
                       0.99128                      -0.11677                       0.06105
                       0.98673                      -0.14341                       0.07619
                       0.98258                      -0.16363                       0.08811
                       0.97935                      -0.17746                       0.09687
                       0.97660                      -0.18664                       0.10685
                       0.97552                      -0.18884                       0.11267
        </DataArray>
        <DataArray type="Float32" Name="OrientationY" NumberOfComponents="3" format="ascii">
                       0.14180                      -0.57056                      -0.80892
                       0.14184                      -0.57094                      -0.80864
                       0.14191                      -0.57197                      -0.80791
                       0.14196                      -0.57328                      -0.80697
                       0.14195                      -0.57520                      -0.80560
                       0.11035                      -0.58208                      -0.80561
                       0.08755                      -0.58686                      -0.80494
                       0.06799                      -0.59054                      -0.80414
                       0.04798                      -0.59345                      -0.80344
                       0.02840                      -0.59547                      -0.80287
                       0.01138                      -0.59663                      -0.80244
                      -0.00385                      -0.59703                      -0.80221
                      -0.01545                      -0.59696                      -0.80212
                      -0.02093                      -0.59699                      -0.80198
                      -0.02484                      -0.59695                      -0.80189
                      -0.02749                      -0.59688                      -0.80186
                      -0.02885                      -0.59690                      -0.80180
                      -0.02654                      -0.59762                      -0.80134
                      -0.02334                      -0.59841                      -0.80085
        </DataArray>
        <DataArray type="Float32" Name="OrientationZ" NumberOfComponents="3" format="ascii">
                      -0.10878                       0.80325                      -0.58563
                      -0.10755                       0.80318                      -0.58595
                      -0.10357                       0.80311                      -0.58676
                      -0.09774                       0.80312                      -0.58774
                      -0.08827                       0.80324                      -0.58907
                      -0.07399                       0.80350                      -0.59069
                      -0.05683                       0.80379                      -0.59220
                      -0.03696                       0.80396                      -0.59353
                      -0.01442                       0.80387                      -0.59463
                       0.01069                       0.80333                      -0.59544
                       0.03821                       0.80216                      -0.59588
                       0.06776                       0.80021                      -0.59587
                       0.09872                       0.79739                      -0.59534
                       0.13009                       0.79371                      -0.59422
                       0.16048                       0.78935                      -0.59259
                       0.18380                       0.78547                      -0.59098
                       0.20011                       0.78245                      -0.58969
                       0.21342                       0.77976                      -0.58859
                       0.21866                       0.77862                      -0.58817
        </DataArray>
        <DataArray type="Float32" Name="Force" NumberOfComponents="3" format="ascii">
                      -0.53861                      -3.61954                      -4.86448
                     386.68388                     -58.18620                    -150.76990
                     506.59982                    -201.05099                    -364.92916
                     463.06076                    -312.72583                    -505.06815
                    4774.56377                    1147.42698                     851.93485
                    5698.23671                    1027.06417                     685.49438
                    6571.66204                     887.13756                     574.18283
                    8594.57439                     824.73234                     580.40351
                    9345.56504                     518.76728                     470.45113
                   10725.10437                     215.24858                     475.79847
                   13435.10655                    -231.54924                     538.93147
                   15085.09388                    -779.54207                     654.90608
                   16484.83557                   -1319.33418                     948.66160
                   17088.50095                   -1905.26729                    1176.40667
                   17289.60352                   -2447.13517                    1401.33304
                   17047.48399                   -2816.88716                    1537.05386
                   15955.30579                   -2917.22737                    1524.51554
                   10905.48792                   -2153.91320                    1088.36958
                    -127.39551                    -100.92393                    -176.51415
        </DataArray>
        <DataArray type="Float32" Name="Moment" NumberOfComponents="3" format="ascii">
                       0.00000                       0.00000                       0.00000
                       0.00000                       0.00000                       0.00000
                       0.00000                       0.00000                       0.00000
                       0.00000                       0.00000                       0.00000
                     158.89300                   -1448.14631                    1059.93715
                     245.67142                   -2671.63494                    1960.69680
                     245.09581                   -3468.35697                    2553.58198
                     229.20007                   -4976.59891                    3677.58809
                     126.35542                   -6960.10170                    5164.85153
                    -101.86730                   -7833.68909                    5840.13631
                    -400.79809                   -8474.91242                    6350.35370
                    -757.57035                   -8977.51111                    6763.82831
                    -910.98848                   -7368.02817                    5583.23830
                   -1191.90296                   -7269.13670                    5540.75948
                   -1412.16869                   -6933.49047                    5315.40195
                   -1524.16973                   -6494.98767                    5001.52388
                   -1461.49578                   -5694.54354                    4398.99341
                    -773.78438                   -2815.78065                    2180.83009
                    -710.39420                   -2518.96988                    1952.96163
        </DataArray>
      </PointData>
      <Lines>
        <DataArray type="Int32" Name="connectivity" format="ascii">
      0      1
      1      2
      2      3
      3      4
      4      5
      5      6
      6      7
      7      8
      8      9
      9     10
     10     11
     11     12
     12     13
     13     14
     14     15
     15     16
     16     17
     17     18
        </DataArray>
        <DataArray type="Int32" Name="offsets" format="ascii">
      2
      4
      6
      8
     10
     12
     14
     16
     18
     20
     22
     24
     26
     28
     30
     32
     34
     36
        </DataArray>
      </Lines>
    </Piece>
  </PolyData>
</VTKFile>
