<?xml version="1.0"?>
<VTKFile type="PolyData" version="0.1" byte_order="LittleEndian">
  <PolyData>
    <Piece NumberOfPoints="     22" NumberOfVerts="  0" NumberOfLines="     21"
           NumberOfStrips="  0" NumberOfPolys="      0">
      <Points>
        <DataArray type="Float32" NumberOfComponents="3" format="ascii">
                       0.00012                      -0.00002                       2.19000
                       0.00123                      -0.00013                       6.57000
                       0.00366                      -0.00034                      10.95000
                       0.00755                      -0.00064                      15.33000
                       0.01290                      -0.00102                      19.70999
                       0.01969                      -0.00148                      24.08999
                       0.02785                      -0.00202                      28.46998
                       0.03734                      -0.00264                      32.84997
                       0.04813                      -0.00334                      37.22996
                       0.06022                      -0.00413                      41.60994
                       0.07363                      -0.00501                      45.98992
                       0.08843                      -0.00597                      50.36989
                       0.10469                      -0.00703                      54.74986
                       0.12246                      -0.00817                      59.12983
                       0.14177                      -0.00939                      63.50978
                       0.16259                      -0.01069                      67.88974
                       0.18475                      -0.01205                      72.26968
                       0.20792                      -0.01348                      76.64962
                       0.23157                      -0.01495                      81.02955
                       0.25486                      -0.01646                      85.40949
                       0.26601                      -0.01722                      87.59946
                       0.00000                       0.00000                       0.00000
        </DataArray>
      </Points>
      <PointData>
        <DataArray type="Float32" Name="TranslationalVelocity" NumberOfComponents="3" format="ascii">
                       0.00016                      -0.00004                      -0.00000
                       0.00150                      -0.00032                      -0.00000
                       0.00419                      -0.00083                      -0.00000
                       0.00814                      -0.00152                      -0.00001
                       0.01316                      -0.00234                      -0.00001
                       0.01898                      -0.00324                      -0.00002
                       0.02526                      -0.00419                      -0.00003
                       0.03164                      -0.00513                      -0.00005
                       0.03772                      -0.00601                      -0.00006
                       0.04312                      -0.00677                      -0.00008
                       0.04744                      -0.00737                      -0.00009
                       0.05035                      -0.00772                      -0.00010
                       0.05152                      -0.00778                      -0.00010
                       0.05071                      -0.00749                      -0.00010
                       0.04776                      -0.00680                      -0.00009
                       0.04255                      -0.00567                      -0.00006
                       0.03511                      -0.00409                      -0.00002
                       0.02555                      -0.00207                       0.00003
                       0.01409                       0.00034                       0.00009
                       0.00110                       0.00307                       0.00016
                      -0.00582                       0.00452                       0.00020
                       0.00000                      -0.00000                       0.00000
        </DataArray>
        <DataArray type="Float32" Name="RotationalVelocity" NumberOfComponents="3" format="ascii">
                       0.00003                       0.00015                       0.00000
                       0.00009                       0.00046                       0.00000
                       0.00014                       0.00076                       0.00000
                       0.00017                       0.00103                       0.00000
                       0.00020                       0.00125                       0.00000
                       0.00021                       0.00139                       0.00000
                       0.00022                       0.00146                       0.00000
                       0.00021                       0.00144                       0.00000
                       0.00019                       0.00133                       0.00000
                       0.00016                       0.00112                       0.00000
                       0.00011                       0.00084                       0.00000
                       0.00005                       0.00048                       0.00000
                      -0.00002                       0.00005                       0.00000
                      -0.00011                      -0.00042                       0.00000
                      -0.00021                      -0.00093                       0.00000
                      -0.00031                      -0.00145                       0.00000
                      -0.00041                      -0.00195                       0.00000
                      -0.00051                      -0.00241                       0.00000
                      -0.00059                      -0.00281                       0.00000
                      -0.00065                      -0.00311                       0.00000
                      -0.00067                      -0.00321                       0.00000
                       0.00000                      -0.00000                       0.00000
        </DataArray>
        <DataArray type="Float32" Name="TranslationalAcceleration" NumberOfComponents="3" format="ascii">
                       0.00222                       0.00055                      -0.00000
                       0.02054                       0.00462                      -0.00001
                       0.05754                       0.01196                      -0.00003
                       0.11205                       0.02188                      -0.00008
                       0.18148                       0.03378                      -0.00017
                       0.26217                       0.04708                      -0.00031
                       0.34968                       0.06122                      -0.00048
                       0.43904                       0.07557                      -0.00067
                       0.52499                       0.08950                      -0.00089
                       0.60225                       0.10227                      -0.00111
                       0.66575                       0.11316                      -0.00130
                       0.71081                       0.12137                      -0.00145
                       0.73334                       0.12613                      -0.00153
                       0.73006                       0.12672                      -0.00152
                       0.69863                       0.12250                      -0.00138
                       0.63781                       0.11301                      -0.00110
                       0.54761                       0.09800                      -0.00066
                       0.42942                       0.07758                      -0.00006
                       0.28611                       0.05225                       0.00067
                       0.12211                       0.02305                       0.00148
                       0.03421                       0.00750                       0.00190
                       0.00000                      -0.00000                       0.00000
        </DataArray>
        <DataArray type="Float32" Name="RotationalAcceleration" NumberOfComponents="3" format="ascii">
                      -0.00049                       0.00205                       0.00000
                      -0.00133                       0.00633                       0.00000
                      -0.00199                       0.01052                       0.00000
                      -0.00251                       0.01427                       0.00000
                      -0.00290                       0.01729                       0.00000
                      -0.00315                       0.01938                       0.00000
                      -0.00328                       0.02039                       0.00000
                      -0.00325                       0.02021                       0.00000
                      -0.00308                       0.01883                       0.00000
                      -0.00273                       0.01626                       0.00000
                      -0.00221                       0.01256                       0.00000
                      -0.00151                       0.00786                       0.00000
                      -0.00064                       0.00231                       0.00000
                       0.00039                      -0.00389                       0.00000
                       0.00155                      -0.01051                       0.00000
                       0.00279                      -0.01727                       0.00000
                       0.00406                      -0.02387                       0.00000
                       0.00525                      -0.02999                       0.00000
                       0.00628                      -0.03528                       0.00000
                       0.00699                      -0.03937                       0.00000
                       0.00718                      -0.04085                       0.00000
                       0.00000                      -0.00000                       0.00000
        </DataArray>
        <DataArray type="Float32" Name="OrientationX" NumberOfComponents="3" format="ascii">
                       1.00000                       0.00000                      -0.00012
                       1.00000                       0.00000                      -0.00040
                       1.00000                       0.00000                      -0.00072
                       1.00000                       0.00000                      -0.00106
                       1.00000                       0.00000                      -0.00139
                       1.00000                       0.00000                      -0.00171
                       1.00000                       0.00000                      -0.00202
                       1.00000                       0.00000                      -0.00232
                       1.00000                       0.00000                      -0.00261
                       1.00000                       0.00000                      -0.00291
                       0.99999                       0.00000                      -0.00322
                       0.99999                       0.00000                      -0.00354
                       0.99999                       0.00000                      -0.00388
                       0.99999                       0.00000                      -0.00423
                       0.99999                       0.00000                      -0.00458
                       0.99999                       0.00000                      -0.00491
                       0.99999                       0.00000                      -0.00519
                       0.99999                       0.00000                      -0.00537
                       0.99999                       0.00000                      -0.00540
                       0.99999                       0.00000                      -0.00519
                       0.99999                       0.00000                      -0.00498
                       1.00000                      -0.00000                       0.00000
        </DataArray>
        <DataArray type="Float32" Name="OrientationY" NumberOfComponents="3" format="ascii">
                       0.00000                       1.00000                       0.00001
                       0.00000                       1.00000                       0.00004
                       0.00000                       1.00000                       0.00006
                       0.00000                       1.00000                       0.00008
                       0.00000                       1.00000                       0.00010
                       0.00000                       1.00000                       0.00011
                       0.00000                       1.00000                       0.00013
                       0.00000                       1.00000                       0.00015
                       0.00000                       1.00000                       0.00017
                       0.00000                       1.00000                       0.00019
                       0.00000                       1.00000                       0.00021
                       0.00000                       1.00000                       0.00023
                       0.00000                       1.00000                       0.00025
                       0.00000                       1.00000                       0.00027
                       0.00000                       1.00000                       0.00029
                       0.00000                       1.00000                       0.00030
                       0.00000                       1.00000                       0.00032
                       0.00000                       1.00000                       0.00033
                       0.00000                       1.00000                       0.00034
                       0.00000                       1.00000                       0.00035
                       0.00000                       1.00000                       0.00035
                      -0.00000                       1.00000                      -0.00000
        </DataArray>
        <DataArray type="Float32" Name="OrientationZ" NumberOfComponents="3" format="ascii">
                       0.00012                      -0.00001                       1.00000
                       0.00040                      -0.00004                       1.00000
                       0.00072                      -0.00006                       1.00000
                       0.00106                      -0.00008                       1.00000
                       0.00139                      -0.00010                       1.00000
                       0.00171                      -0.00011                       1.00000
                       0.00202                      -0.00013                       1.00000
                       0.00232                      -0.00015                       1.00000
                       0.00261                      -0.00017                       1.00000
                       0.00291                      -0.00019                       1.00000
                       0.00322                      -0.00021                       0.99999
                       0.00354                      -0.00023                       0.99999
                       0.00388                      -0.00025                       0.99999
                       0.00423                      -0.00027                       0.99999
                       0.00458                      -0.00029                       0.99999
                       0.00491                      -0.00030                       0.99999
                       0.00519                      -0.00032                       0.99999
                       0.00537                      -0.00033                       0.99999
                       0.00540                      -0.00034                       0.99999
                       0.00519                      -0.00035                       0.99999
                       0.00498                      -0.00035                       0.99999
                       0.00000                      -0.00000                       1.00000
        </DataArray>
      </PointData>
      <Lines>
        <DataArray type="Int32" Name="connectivity" format="ascii">
      0      1
      1      2
      2      3
      3      4
      4      5
      5      6
      6      7
      7      8
      8      9
      9     10
     10     11
     11     12
     12     13
     13     14
     14     15
     15     16
     16     17
     17     18
     18     19
     19     20
     21      0
        </DataArray>
        <DataArray type="Int32" Name="offsets" format="ascii">
      2
      4
      6
      8
     10
     12
     14
     16
     18
     20
     22
     24
     26
     28
     30
     32
     34
     36
     38
     40
     42
        </DataArray>
      </Lines>
    </Piece>
  </PolyData>
</VTKFile>
