<?xml version="1.0"?>
<VTKFile type="PolyData" version="0.1" byte_order="LittleEndian">
  <PolyData>
    <Piece NumberOfPoints="     19" NumberOfVerts="  0" NumberOfLines="     18"
           NumberOfStrips="  0" NumberOfPolys="      0">
      <Points>
        <DataArray type="Float32" NumberOfComponents="3" format="ascii">
                      -4.75214                       1.44088                      90.41474
                      -4.77841                       2.75940                      90.77458
                      -4.84535                       5.37224                      91.58589
                      -4.91708                       7.97464                      92.43913
                      -5.00517                      11.22263                      93.52827
                      -5.06123                      15.16136                      94.68722
                      -5.09670                      19.13644                      95.71204
                      -5.13488                      23.11457                      96.72742
                      -5.18631                      27.09646                      97.73157
                      -5.26861                      31.08132                      98.72630
                      -5.40342                      35.06718                      99.71459
                      -5.61370                      39.05231                     100.69353
                      -5.92615                      43.03307                     101.66055
                      -6.36952                      47.00399                     102.61162
                      -6.97154                      50.95769                     103.54124
                      -7.61996                      54.23173                     104.29347
                      -8.24173                      56.83493                     104.86996
                      -8.95780                      59.43193                     105.37473
                      -9.36500                      60.71017                     105.65814
        </DataArray>
      </Points>
      <PointData>
        <DataArray type="Float32" Name="TranslationalVelocity" NumberOfComponents="3" format="ascii">
                       0.45598                      -1.27327                       4.75448
                       0.85467                      -2.44306                       9.07108
                       1.64472                      -5.07932                      17.62539
                       2.43166                      -7.85209                      26.14609
                       3.41309                     -11.39270                      36.78161
                       4.59883                     -15.17148                      49.68073
                       5.78619                     -18.51710                      62.70122
                       6.96050                     -21.83188                      75.73463
                       8.11828                     -25.10797                      88.78376
                       9.25822                     -28.34711                     101.84699
                      10.38286                     -31.55320                     114.91922
                      11.50033                     -34.70936                     127.99676
                      12.62525                     -37.79735                     141.07051
                      13.78019                     -40.79153                     154.12630
                      14.99716                     -43.65947                     167.14478
                      16.09153                     -45.91825                     177.94552
                      17.03932                     -47.59800                     186.54876
                      18.07304                     -48.99795                     195.14754
                      18.62731                     -49.77712                     199.38794
        </DataArray>
        <DataArray type="Float32" Name="RotationalVelocity" NumberOfComponents="3" format="ascii">
                       3.27361                       0.00315                      -0.30198
                       3.27378                       0.00311                      -0.30175
                       3.27402                       0.00318                      -0.30150
                       3.27421                       0.00334                      -0.30126
                       3.27449                       0.00356                      -0.30061
                       3.27499                       0.00378                      -0.29888
                       3.27569                       0.00405                      -0.29589
                       3.27660                       0.00461                      -0.29176
                       3.27764                       0.00580                      -0.28695
                       3.27876                       0.00802                      -0.28221
                       3.27989                       0.01168                      -0.27865
                       3.28103                       0.01714                      -0.27766
                       3.28225                       0.02470                      -0.28093
                       3.28373                       0.03451                      -0.29045
                       3.28577                       0.04658                      -0.30848
                       3.28819                       0.05815                      -0.33151
                       3.29090                       0.06827                      -0.35662
                       3.29455                       0.07892                      -0.38858
                       3.29681                       0.08436                      -0.40738
        </DataArray>
        <DataArray type="Float32" Name="TranslationalAcceleration" NumberOfComponents="3" format="ascii">
                      -0.20295                     -15.65893                      -3.98637
                      -0.40266                     -18.91438                      -5.02564
                      -1.28514                     -53.88379                     -15.32143
                      -2.23624                     -85.92566                     -25.27727
                      -3.53277                    -123.27503                     -37.21490
                      -5.07134                    -166.14623                     -49.30975
                      -6.57356                    -208.28419                     -59.62986
                      -8.04819                    -250.34049                     -69.76062
                      -9.33387                    -292.84988                     -79.81697
                     -10.23353                    -335.97214                     -89.85114
                     -10.52569                    -379.58757                     -99.85869
                      -9.97719                    -423.40968                    -109.73569
                      -8.36436                    -467.06093                    -119.37355
                      -5.49110                    -510.17083                    -128.67209
                      -1.21010                    -552.47866                    -137.56912
                       3.51786                    -587.05422                    -144.66405
                       8.05195                    -614.37009                    -150.07481
                      13.47284                    -641.65201                    -154.77378
                      16.21443                    -655.19030                    -157.54662
        </DataArray>
        <DataArray type="Float32" Name="OrientationX" NumberOfComponents="3" format="ascii">
                       0.98955                      -0.01846                       0.14303
                       0.98954                      -0.01865                       0.14301
                       0.98951                      -0.01933                       0.14314
                       0.98944                      -0.02042                       0.14348
                       0.98929                      -0.02221                       0.14429
                       0.99314                      -0.01646                       0.11573
                       0.99515                      -0.01262                       0.09752
                       0.99635                      -0.00823                       0.08497
                       0.99716                      -0.00123                       0.07530
                       0.99750                       0.00929                       0.07005
                       0.99713                       0.02383                       0.07183
                       0.99583                       0.04340                       0.08021
                       0.99296                       0.06804                       0.09698
                       0.98749                       0.09720                       0.12415
                       0.97891                       0.13147                       0.15639
                       0.96900                       0.16321                       0.18549
                       0.95910                       0.18999                       0.20984
                       0.94704                       0.21638                       0.23726
                       0.94011                       0.22898                       0.25251
        </DataArray>
        <DataArray type="Float32" Name="OrientationY" NumberOfComponents="3" format="ascii">
                       0.14286                       0.26117                      -0.95466
                       0.14290                       0.26085                      -0.95474
                       0.14322                       0.26004                      -0.95492
                       0.14384                       0.25901                      -0.95510
                       0.14512                       0.25752                      -0.95531
                       0.11607                       0.25618                      -0.95964
                       0.09751                       0.25459                      -0.96212
                       0.08429                       0.25306                      -0.96377
                       0.07319                       0.25169                      -0.96504
                       0.06550                       0.25052                      -0.96589
                       0.06364                       0.24959                      -0.96626
                       0.06697                       0.24895                      -0.96620
                       0.07724                       0.24885                      -0.96546
                       0.09653                       0.24991                      -0.96345
                       0.11952                       0.25228                      -0.96024
                       0.14010                       0.25542                      -0.95663
                       0.15721                       0.25895                      -0.95301
                       0.17716                       0.26416                      -0.94807
                       0.18860                       0.26765                      -0.94488
        </DataArray>
        <DataArray type="Float32" Name="OrientationZ" NumberOfComponents="3" format="ascii">
                      -0.01973                       0.96512                       0.26108
                      -0.01950                       0.96520                       0.26079
                      -0.01876                       0.96540                       0.26008
                      -0.01766                       0.96566                       0.25922
                      -0.01594                       0.96602                       0.25798
                      -0.01385                       0.96649                       0.25633
                      -0.01268                       0.96697                       0.25459
                      -0.01357                       0.96742                       0.25283
                      -0.01777                       0.96781                       0.25107
                      -0.02653                       0.96807                       0.24929
                      -0.04095                       0.96806                       0.24736
                      -0.06190                       0.96754                       0.24500
                      -0.08983                       0.96615                       0.24184
                      -0.12467                       0.96338                       0.23740
                      -0.16570                       0.95868                       0.23125
                      -0.20351                       0.95295                       0.22464
                      -0.23540                       0.94702                       0.21849
                      -0.26782                       0.93989                       0.21184
                      -0.28394                       0.93591                       0.20844
        </DataArray>
        <DataArray type="Float32" Name="Force" NumberOfComponents="3" format="ascii">
                      -0.96517                       2.81012                     -10.46101
                     444.04660                      65.16243                    -207.78046
                     565.30713                     157.10204                    -540.51025
                     513.61304                     215.53948                    -762.93858
                    4868.73323                    -252.21305                    1226.49124
                    5591.33296                    -177.61531                     946.96021
                    6202.04183                    -125.43760                     754.06426
                    8101.52623                     -93.58426                     746.54824
                    8666.66551                       1.65063                     554.09200
                    9240.11999                     118.94534                     458.28729
                   11363.92414                     346.58817                     438.63454
                   10798.78677                     573.09026                     370.01227
                    6807.81123                     568.30633                     191.24010
                    1970.71225                     268.62886                     -61.77867
                   -3327.48356                    -420.35745                    -521.17163
                  -11643.03891                   -2095.79048                   -1277.97290
                  -18422.17431                   -3953.58420                   -2033.89733
                  -19238.24231                   -4751.13924                   -2379.26827
                  -37613.85005                  -10533.94381                   -2787.22231
        </DataArray>
        <DataArray type="Float32" Name="Moment" NumberOfComponents="3" format="ascii">
                       0.00000                       0.00000                       0.00000
                       0.00000                       0.00000                       0.00000
                       0.00000                       0.00000                       0.00000
                       0.00000                       0.00000                       0.00000
                      34.27969                   -2110.11137                    -569.99697
                      54.67878                   -3920.43888                   -1058.18304
                      65.58662                   -5215.02056                   -1406.94983
                     103.12522                   -7744.71305                   -2089.95856
                     193.39966                  -11071.74683                   -2992.02080
                     328.50414                  -12482.86690                   -3383.55190
                     560.87808                  -13675.36064                   -3725.32840
                     900.28062                  -14411.01708                   -3954.26068
                     985.73098                  -10801.20652                   -2992.44986
                    1304.61082                  -10230.58318                   -2868.58580
                    1599.43086                   -9360.38302                   -2662.02728
                    1843.75023                   -8712.04571                   -2510.40786
                    1863.11336                   -7549.64209                   -2199.94066
                    1017.82830                   -3591.24310                   -1058.61599
                    -103.19502                     341.67663                     101.30496
        </DataArray>
      </PointData>
      <Lines>
        <DataArray type="Int32" Name="connectivity" format="ascii">
      0      1
      1      2
      2      3
      3      4
      4      5
      5      6
      6      7
      7      8
      8      9
      9     10
     10     11
     11     12
     12     13
     13     14
     14     15
     15     16
     16     17
     17     18
        </DataArray>
        <DataArray type="Int32" Name="offsets" format="ascii">
      2
      4
      6
      8
     10
     12
     14
     16
     18
     20
     22
     24
     26
     28
     30
     32
     34
     36
        </DataArray>
      </Lines>
    </Piece>
  </PolyData>
</VTKFile>
