<?xml version="1.0"?>
<VTKFile type="PolyData" version="0.1" byte_order="LittleEndian">
  <PolyData>
    <Piece NumberOfPoints="     19" NumberOfVerts="  0" NumberOfLines="     18"
           NumberOfStrips="  0" NumberOfPolys="      0">
      <Points>
        <DataArray type="Float32" NumberOfComponents="3" format="ascii">
                      -4.68291                      -0.98120                      91.17094
                      -4.64608                      -1.86291                      92.21491
                      -4.59959                      -3.69942                      94.24334
                      -4.56270                      -5.57166                      96.24286
                      -4.51575                      -7.93476                      98.72348
                      -4.38266                     -10.66600                     101.78509
                      -4.20142                     -13.30240                     104.92495
                      -4.01163                     -15.94021                     108.06411
                      -3.82103                     -18.57705                     111.20562
                      -3.64491                     -21.21251                     114.35089
                      -3.50301                     -23.84644                     117.50056
                      -3.41598                     -26.47360                     120.65846
                      -3.40893                     -29.08829                     123.82731
                      -3.50971                     -31.68299                     127.00938
                      -3.74603                     -34.24874                     130.20588
                      -4.07235                     -36.35569                     132.88140
                      -4.42550                     -38.01056                     135.03367
                      -4.85762                     -39.59851                     137.22591
                      -5.12568                     -40.41084                     138.29817
        </DataArray>
      </Points>
      <PointData>
        <DataArray type="Float32" Name="TranslationalVelocity" NumberOfComponents="3" format="ascii">
                      -0.27718                      -3.76744                      -3.14877
                      -0.54211                      -7.19737                      -6.03604
                      -1.09248                     -13.85757                     -12.05349
                      -1.65357                     -20.42494                     -18.19293
                      -2.36370                     -28.58019                     -25.94965
                      -3.18627                     -38.68000                     -34.92605
                      -3.97738                     -49.06563                     -43.60303
                      -4.75698                     -59.46630                     -52.29755
                      -5.51217                     -69.88961                     -61.00249
                      -6.22882                     -80.33567                     -69.71680
                      -6.89230                     -90.80110                     -78.43956
                      -7.48703                    -101.29340                     -87.15197
                      -7.99918                    -111.81623                     -95.83241
                      -8.41745                    -122.37208                    -104.45164
                      -8.73442                    -132.96148                    -112.97393
                      -8.91741                    -141.81169                    -119.96578
                      -9.01275                    -148.92252                    -125.44923
                      -9.05352                    -156.16191                    -130.70077
                      -9.06866                    -159.69614                    -133.38114
        </DataArray>
        <DataArray type="Float32" Name="RotationalVelocity" NumberOfComponents="3" format="ascii">
                       3.27398                       0.00188                      -0.30176
                       3.27471                       0.00190                      -0.30175
                       3.27671                       0.00189                      -0.30192
                       3.27923                       0.00183                      -0.30221
                       3.28280                       0.00182                      -0.30253
                       3.28739                       0.00224                      -0.30241
                       3.29205                       0.00364                      -0.30122
                       3.29665                       0.00661                      -0.29847
                       3.30123                       0.01171                      -0.29375
                       3.30586                       0.01940                      -0.28682
                       3.31066                       0.02997                      -0.27760
                       3.31573                       0.04342                      -0.26628
                       3.32111                       0.05943                      -0.25331
                       3.32674                       0.07724                      -0.23948
                       3.33237                       0.09559                      -0.22597
                       3.33680                       0.11007                      -0.21602
                       3.33989                       0.12010                      -0.20979
                       3.34231                       0.12777                      -0.20588
                       3.34318                       0.13042                      -0.20503
        </DataArray>
        <DataArray type="Float32" Name="TranslationalAcceleration" NumberOfComponents="3" format="ascii">
                      -0.83508                      10.44818                     -12.00674
                      -1.22951                      12.66689                     -14.79521
                      -3.46010                      37.05577                     -41.74532
                      -5.50412                      59.95954                     -66.23511
                      -7.92458                      87.09718                     -94.63441
                     -10.87186                     117.00754                    -127.91240
                     -13.96470                     145.23948                    -161.26840
                     -17.18607                     173.52093                    -194.57426
                     -20.53599                     202.17958                    -228.26480
                     -23.96036                     231.31264                    -262.48545
                     -27.36037                     260.83036                    -297.17939
                     -30.60261                     290.46175                    -332.21361
                     -33.52420                     319.87132                    -367.40701
                     -35.94195                     348.70966                    -402.61706
                     -37.66247                     376.68153                    -437.81829
                     -38.40500                     399.17733                    -467.25679
                     -38.48041                     416.56290                    -491.08042
                     -37.97698                     433.04511                    -515.71096
                     -37.57295                     441.50178                    -527.95393
        </DataArray>
        <DataArray type="Float32" Name="OrientationX" NumberOfComponents="3" format="ascii">
                       0.95751                      -0.20347                      -0.20441
                       0.95749                      -0.20322                      -0.20473
                       0.95737                      -0.20260                      -0.20590
                       0.95715                      -0.20178                      -0.20774
                       0.95672                      -0.20065                      -0.21079
                       0.96472                      -0.17605                      -0.19577
                       0.96941                      -0.15936                      -0.18667
                       0.97265                      -0.14745                      -0.17949
                       0.97541                      -0.13872                      -0.17129
                       0.97752                      -0.13496                      -0.16197
                       0.97856                      -0.13875                      -0.15222
                       0.97854                      -0.15025                      -0.14098
                       0.97676                      -0.17126                      -0.12890
                       0.97203                      -0.20354                      -0.11718
                       0.96457                      -0.24298                      -0.10279
                       0.95596                      -0.27983                      -0.08853
                       0.94720                      -0.31152                      -0.07594
                       0.93583                      -0.34650                      -0.06447
                       0.92893                      -0.36541                      -0.05968
        </DataArray>
        <DataArray type="Float32" Name="OrientationY" NumberOfComponents="3" format="ascii">
                       0.28717                       0.73840                       0.61017
                       0.28719                       0.73836                       0.61021
                       0.28747                       0.73819                       0.61027
                       0.28803                       0.73795                       0.61030
                       0.28914                       0.73758                       0.61022
                       0.26068                       0.74300                       0.61644
                       0.24209                       0.74603                       0.62034
                       0.22839                       0.74798                       0.62319
                       0.21646                       0.74949                       0.62563
                       0.20758                       0.75048                       0.62745
                       0.20418                       0.75072                       0.62828
                       0.20572                       0.75030                       0.62827
                       0.21407                       0.74882                       0.62725
                       0.23144                       0.74540                       0.62514
                       0.25287                       0.74032                       0.62288
                       0.27260                       0.73470                       0.62121
                       0.28950                       0.72907                       0.62020
                       0.30974                       0.72131                       0.61949
                       0.32155                       0.71628                       0.61932
        </DataArray>
        <DataArray type="Float32" Name="OrientationZ" NumberOfComponents="3" format="ascii">
                       0.02678                      -0.64294                       0.76545
                       0.02716                      -0.64306                       0.76533
                       0.02836                      -0.64345                       0.76496
                       0.03015                      -0.64398                       0.76445
                       0.03303                      -0.64476                       0.76367
                       0.03693                      -0.64572                       0.76268
                       0.04041                      -0.64656                       0.76179
                       0.04237                      -0.64714                       0.76120
                       0.04159                      -0.64732                       0.76108
                       0.03687                      -0.64697                       0.76163
                       0.02710                      -0.64589                       0.76295
                       0.01138                      -0.64379                       0.76511
                      -0.01090                      -0.64026                       0.76808
                      -0.03989                      -0.63478                       0.77166
                      -0.07525                      -0.62680                       0.77554
                      -0.10879                      -0.61798                       0.77863
                      -0.13783                      -0.60944                       0.78076
                      -0.16815                      -0.59971                       0.78235
                      -0.18355                      -0.59449                       0.78287
        </DataArray>
        <DataArray type="Float32" Name="Force" NumberOfComponents="3" format="ascii">
                       2.38515                      30.91491                      25.88344
                     507.16127                     185.73829                     138.01861
                     704.62569                     479.09982                     376.35593
                     684.53800                     668.27798                     534.51318
                    5100.42086                   -1504.80052                   -1485.98964
                    5826.41281                   -1326.03913                   -1398.00981
                    6539.55425                   -1215.36338                   -1370.34947
                    8633.64597                   -1382.30352                   -1645.11442
                    9306.13896                   -1270.38052                   -1579.02767
                   10070.06913                   -1254.88618                   -1544.55500
                   12478.66406                   -1473.27081                   -1682.79162
                   12216.64234                   -1465.90316                   -1411.59604
                    8785.15548                   -1120.76561                    -810.81547
                    3199.46078                    -297.94939                     -80.21910
                    -766.42725                     386.74659                     244.87662
                   -8895.21819                    2107.21733                     463.81054
                  -15824.07732                    3864.06527                     295.03865
                  -17768.04750                    4721.46098                     -95.41727
                  -41166.96933                    8938.00293                   -2740.53551
        </DataArray>
        <DataArray type="Float32" Name="Moment" NumberOfComponents="3" format="ascii">
                       0.00000                       0.00000                       0.00000
                       0.00000                       0.00000                       0.00000
                       0.00000                       0.00000                       0.00000
                       0.00000                       0.00000                       0.00000
                     -77.58312                    1504.64761                   -1789.98627
                    -163.03976                    2824.72496                   -3358.79818
                    -236.19045                    3736.41658                   -4440.97239
                    -366.21988                    5522.32732                   -6562.06352
                    -511.41641                    7852.13719                   -9331.38448
                    -509.62161                    8822.39890                  -10490.42041
                    -408.41783                    9615.12414                  -11446.56914
                    -180.39730                   10119.90289                  -12070.48367
                     130.65684                    7599.01029                   -9088.21921
                     457.56220                    7259.12677                   -8712.39009
                     790.09903                    6612.83789                   -7971.11252
                    1063.53197                    6119.95735                   -7407.61787
                    1189.20908                    5367.94345                   -6521.00136
                     709.73265                    2606.66216                   -3178.77195
                      86.95784                     291.35628                    -356.00607
        </DataArray>
      </PointData>
      <Lines>
        <DataArray type="Int32" Name="connectivity" format="ascii">
      0      1
      1      2
      2      3
      3      4
      4      5
      5      6
      6      7
      7      8
      8      9
      9     10
     10     11
     11     12
     12     13
     13     14
     14     15
     15     16
     16     17
     17     18
        </DataArray>
        <DataArray type="Int32" Name="offsets" format="ascii">
      2
      4
      6
      8
     10
     12
     14
     16
     18
     20
     22
     24
     26
     28
     30
     32
     34
     36
        </DataArray>
      </Lines>
    </Piece>
  </PolyData>
</VTKFile>
