<?xml version="1.0"?>
<VTKFile type="PolyData" version="0.1" byte_order="LittleEndian">
  <PolyData>
    <Piece NumberOfPoints="     19" NumberOfVerts="  0" NumberOfLines="     18"
           NumberOfStrips="  0" NumberOfPolys="      0">
      <Points>
        <DataArray type="Float32" NumberOfComponents="3" format="ascii">
                      -4.89778                      -0.87010                      88.81350
                      -5.05929                      -1.65892                      87.70876
                      -5.40868                      -3.15844                      85.44624
                      -5.76747                      -4.62033                      83.15735
                      -6.21541                      -6.42402                      80.27874
                      -6.67822                      -8.70338                      76.89607
                      -7.09455                     -11.08627                      73.58060
                      -7.50240                     -13.46882                      70.26293
                      -7.90841                     -15.85368                      66.94531
                      -8.32632                     -18.24076                      63.62920
                      -8.77398                     -20.62876                      60.31638
                      -9.26983                     -23.02063                      57.01266
                      -9.83653                     -25.41809                      53.72480
                     -10.49919                     -27.82263                      50.46147
                     -11.28267                     -30.23522                      47.23270
                     -12.05116                     -32.25261                      44.57847
                     -12.74829                     -33.87708                      42.48803
                     -13.51560                     -35.54965                      40.45707
                     -13.94642                     -36.35363                      39.43339
        </DataArray>
      </Points>
      <PointData>
        <DataArray type="Float32" Name="TranslationalVelocity" NumberOfComponents="3" format="ascii">
                      -0.26780                       4.01006                      -2.86890
                      -0.50352                       7.68010                      -5.45512
                      -0.95464                      15.19943                     -10.36908
                      -1.40299                      22.80356                     -15.15562
                      -1.97408                      32.35790                     -21.05410
                      -2.72360                      43.55293                     -28.49722
                      -3.53528                      54.49967                     -36.26565
                      -4.37153                      65.43692                     -44.01986
                      -5.22266                      76.36032                     -51.77009
                      -6.07566                      87.27056                     -59.51808
                      -6.91619                      98.16864                     -67.26201
                      -7.73166                     109.04220                     -75.01415
                      -8.51115                     119.87637                     -82.78237
                      -9.24729                     130.64989                     -90.57341
                      -9.93778                     141.33578                     -98.39162
                     -10.48077                     150.14544                    -104.92996
                     -10.90095                     157.10178                    -110.19494
                     -11.32080                     163.87675                    -115.61653
                     -11.52371                     167.29955                    -118.22091
        </DataArray>
        <DataArray type="Float32" Name="RotationalVelocity" NumberOfComponents="3" format="ascii">
                       3.27839                      -0.00403                      -0.30259
                       3.27775                      -0.00347                      -0.30293
                       3.27602                      -0.00129                      -0.30410
                       3.27376                       0.00201                      -0.30586
                       3.27041                       0.00708                      -0.30857
                       3.26591                       0.01368                      -0.31202
                       3.26130                       0.01996                      -0.31481
                       3.25697                       0.02522                      -0.31601
                       3.25325                       0.02902                      -0.31473
                       3.25044                       0.03117                      -0.31027
                       3.24874                       0.03172                      -0.30215
                       3.24826                       0.03102                      -0.29027
                       3.24903                       0.02965                      -0.27496
                       3.25093                       0.02848                      -0.25713
                       3.25369                       0.02867                      -0.23832
                       3.25637                       0.03078                      -0.22346
                       3.25855                       0.03452                      -0.21338
                       3.26052                       0.04070                      -0.20615
                       3.26135                       0.04488                      -0.20399
        </DataArray>
        <DataArray type="Float32" Name="TranslationalAcceleration" NumberOfComponents="3" format="ascii">
                       1.41979                       9.30724                      13.42622
                       1.50079                      11.29889                      16.05541
                       4.31625                      31.47176                      46.50005
                       6.88728                      49.51291                      74.77774
                       9.84304                      70.15343                     107.97634
                      13.06745                      94.65152                     144.84213
                      16.11783                     119.51473                     179.89407
                      19.18430                     144.23108                     214.75178
                      22.36426                     169.16679                     249.83076
                      25.73043                     194.44246                     285.25903
                      29.33113                     220.00243                     320.95094
                      33.19196                     245.72910                     356.65392
                      37.31971                     271.43553                     392.07701
                      41.70425                     296.93125                     426.97031
                      46.32016                     322.07793                     461.21823
                      50.31884                     342.73041                     489.32058
                      53.60665                     359.15881                     511.61155
                      57.09867                     376.02709                     533.62048
                      58.75410                     384.09162                     545.01338
        </DataArray>
        <DataArray type="Float32" Name="OrientationX" NumberOfComponents="3" format="ascii">
                       0.95266                       0.16294                      -0.25669
                       0.95270                       0.16320                      -0.25637
                       0.95277                       0.16416                      -0.25549
                       0.95283                       0.16570                      -0.25429
                       0.95284                       0.16833                      -0.25250
                       0.96122                       0.14689                      -0.23342
                       0.96630                       0.13349                      -0.22009
                       0.96977                       0.12331                      -0.21058
                       0.97241                       0.11307                      -0.20402
                       0.97393                       0.10315                      -0.20202
                       0.97378                       0.09490                      -0.20676
                       0.97190                       0.08732                      -0.21858
                       0.96760                       0.08158                      -0.23895
                       0.95981                       0.07935                      -0.26921
                       0.94885                       0.07664                      -0.30628
                       0.93715                       0.07341                      -0.34113
                       0.92588                       0.07039                      -0.37121
                       0.91209                       0.06946                      -0.40406
                       0.90406                       0.07035                      -0.42158
        </DataArray>
        <DataArray type="Float32" Name="OrientationY" NumberOfComponents="3" format="ascii">
                       0.28010                      -0.79873                       0.53252
                       0.28012                      -0.79876                       0.53247
                       0.28037                      -0.79880                       0.53227
                       0.28089                      -0.79881                       0.53198
                       0.28196                      -0.79875                       0.53151
                       0.25357                      -0.80357                       0.53850
                       0.23499                      -0.80645                       0.54260
                       0.22122                      -0.80848                       0.54537
                       0.20910                      -0.81018                       0.54762
                       0.19986                      -0.81145                       0.54918
                       0.19585                      -0.81210                       0.54967
                       0.19650                      -0.81224                       0.54923
                       0.20361                      -0.81176                       0.54735
                       0.21932                      -0.81057                       0.54303
                       0.23867                      -0.80915                       0.53695
                       0.25639                      -0.80799                       0.53048
                       0.27153                      -0.80715                       0.52420
                       0.28983                      -0.80630                       0.51563
                       0.30058                      -0.80588                       0.51011
        </DataArray>
        <DataArray type="Float32" Name="OrientationZ" NumberOfComponents="3" format="ascii">
                      -0.11825                      -0.57921                      -0.80656
                      -0.11788                      -0.57910                      -0.80669
                      -0.11671                      -0.57876                      -0.80710
                      -0.11498                      -0.57831                      -0.80768
                      -0.11222                      -0.57764                      -0.80854
                      -0.10847                      -0.57680                      -0.80965
                      -0.10506                      -0.57604                      -0.81064
                      -0.10300                      -0.57546                      -0.81132
                      -0.10337                      -0.57517                      -0.81148
                      -0.10729                      -0.57524                      -0.81092
                      -0.11575                      -0.57575                      -0.80939
                      -0.12958                      -0.57675                      -0.80658
                      -0.14932                      -0.57826                      -0.80207
                      -0.17512                      -0.58025                      -0.79539
                      -0.20668                      -0.58258                      -0.78605
                      -0.23668                      -0.58460                      -0.77603
                      -0.26272                      -0.58614                      -0.76643
                      -0.28997                      -0.58741                      -0.75556
                      -0.30386                      -0.58789                      -0.74971
        </DataArray>
        <DataArray type="Float32" Name="Force" NumberOfComponents="3" format="ascii">
                       2.21633                     -33.88771                      24.01046
                     420.56234                    -225.75615                     100.65417
                     648.92177                    -569.11253                     314.76809
                     650.23700                    -769.40573                     459.72064
                    4700.07607                    1185.99932                   -1503.70456
                    5237.50730                     990.03000                   -1412.26768
                    5717.56108                     855.27142                   -1354.82579
                    7518.10704                     950.15931                   -1636.33039
                    8133.90234                     826.55067                   -1629.60392
                    8767.86521                     734.05899                   -1687.58275
                   11075.83843                     728.19882                   -2108.22795
                   10859.29005                     531.29229                   -2127.86859
                    7698.28397                     218.29922                   -1590.36113
                    2777.66871                    -143.50384                    -506.72613
                    -488.18929                    -264.26123                     319.52096
                   -7486.77075                    -235.84273                    2436.74681
                  -13439.00916                      14.39220                    4543.13355
                  -15405.64157                     352.46203                    5562.30978
                  -38552.29257                    3946.81603                   12449.73273
        </DataArray>
        <DataArray type="Float32" Name="Moment" NumberOfComponents="3" format="ascii">
                       0.00000                       0.00000                       0.00000
                       0.00000                       0.00000                       0.00000
                       0.00000                       0.00000                       0.00000
                       0.00000                       0.00000                       0.00000
                     266.94461                    1379.60951                    1922.50261
                     469.87552                    2514.16923                    3505.05750
                     594.95775                    3288.99212                    4587.07555
                     860.61731                    4855.54434                    6773.54265
                    1230.27761                    6917.21632                    9649.20835
                    1429.72212                    7742.87983                   10796.11731
                    1682.98514                    8440.35650                   11757.13904
                    1980.22046                    8856.55863                   12317.11854
                    1708.24663                    6613.72187                    9176.74463
                    1917.51358                    6307.22358                    8724.84447
                    2075.04192                    5753.63190                    7928.97921
                    2205.79257                    5310.25077                    7291.13391
                    2160.55655                    4659.15197                    6376.36632
                    1179.46870                    2288.93830                    3121.67226
                     410.24282                     756.91176                    1030.41646
        </DataArray>
      </PointData>
      <Lines>
        <DataArray type="Int32" Name="connectivity" format="ascii">
      0      1
      1      2
      2      3
      3      4
      4      5
      5      6
      6      7
      7      8
      8      9
      9     10
     10     11
     11     12
     12     13
     13     14
     14     15
     15     16
     16     17
     17     18
        </DataArray>
        <DataArray type="Int32" Name="offsets" format="ascii">
      2
      4
      6
      8
     10
     12
     14
     16
     18
     20
     22
     24
     26
     28
     30
     32
     34
     36
        </DataArray>
      </Lines>
    </Piece>
  </PolyData>
</VTKFile>
