<?xml version="1.0"?>
<VTKFile type="PolyData" version="0.1" byte_order="LittleEndian">
  <PolyData>
    <Piece NumberOfPoints="     22" NumberOfVerts="  0" NumberOfLines="     21"
           NumberOfStrips="  0" NumberOfPolys="      0">
      <Points>
        <DataArray type="Float32" NumberOfComponents="3" format="ascii">
                       0.00012                      -0.00001                       2.19000
                       0.00119                      -0.00008                       6.57000
                       0.00357                      -0.00021                      10.95000
                       0.00737                      -0.00039                      15.33000
                       0.01262                      -0.00063                      19.70999
                       0.01929                      -0.00091                      24.08999
                       0.02733                      -0.00125                      28.46998
                       0.03672                      -0.00165                      32.84997
                       0.04742                      -0.00211                      37.22996
                       0.05945                      -0.00264                      41.60994
                       0.07286                      -0.00323                      45.98992
                       0.08771                      -0.00389                      50.36990
                       0.10408                      -0.00463                      54.74987
                       0.12205                      -0.00544                      59.12983
                       0.14163                      -0.00633                      63.50978
                       0.16281                      -0.00728                      67.88973
                       0.18540                      -0.00830                      72.26967
                       0.20909                      -0.00938                      76.64961
                       0.23331                      -0.01050                      81.02954
                       0.25722                      -0.01167                      85.40948
                       0.26869                      -0.01226                      87.59945
                       0.00000                       0.00000                       0.00000
        </DataArray>
      </Points>
      <PointData>
        <DataArray type="Float32" Name="TranslationalVelocity" NumberOfComponents="3" format="ascii">
                       0.00004                      -0.00007                      -0.00000
                       0.00038                      -0.00062                      -0.00000
                       0.00105                      -0.00163                      -0.00000
                       0.00203                      -0.00300                      -0.00000
                       0.00325                      -0.00467                      -0.00000
                       0.00465                      -0.00658                      -0.00001
                       0.00613                      -0.00867                      -0.00001
                       0.00759                      -0.01088                      -0.00001
                       0.00891                      -0.01316                      -0.00001
                       0.01000                      -0.01543                      -0.00002
                       0.01073                      -0.01762                      -0.00002
                       0.01101                      -0.01965                      -0.00002
                       0.01075                      -0.02145                      -0.00002
                       0.00988                      -0.02294                      -0.00002
                       0.00834                      -0.02404                      -0.00001
                       0.00611                      -0.02471                      -0.00000
                       0.00320                      -0.02491                       0.00001
                      -0.00034                      -0.02464                       0.00003
                      -0.00444                      -0.02393                       0.00006
                      -0.00896                      -0.02289                       0.00008
                      -0.01132                      -0.02229                       0.00009
                       0.00000                      -0.00000                       0.00000
        </DataArray>
        <DataArray type="Float32" Name="RotationalVelocity" NumberOfComponents="3" format="ascii">
                       0.00007                       0.00004                       0.00000
                       0.00018                       0.00012                       0.00000
                       0.00027                       0.00019                       0.00000
                       0.00035                       0.00025                       0.00000
                       0.00041                       0.00030                       0.00000
                       0.00046                       0.00033                       0.00000
                       0.00049                       0.00034                       0.00000
                       0.00052                       0.00032                       0.00000
                       0.00052                       0.00028                       0.00000
                       0.00051                       0.00021                       0.00000
                       0.00048                       0.00012                       0.00000
                       0.00044                       0.00001                       0.00000
                       0.00038                      -0.00013                       0.00000
                       0.00030                      -0.00027                       0.00000
                       0.00020                      -0.00043                       0.00000
                       0.00010                      -0.00059                       0.00000
                      -0.00001                      -0.00074                       0.00000
                      -0.00011                      -0.00088                       0.00000
                      -0.00020                      -0.00099                       0.00000
                      -0.00027                      -0.00107                       0.00000
                      -0.00028                      -0.00109                       0.00000
                       0.00000                      -0.00000                       0.00000
        </DataArray>
        <DataArray type="Float32" Name="TranslationalAcceleration" NumberOfComponents="3" format="ascii">
                       0.00384                      -0.00008                      -0.00000
                       0.03542                      -0.00069                      -0.00001
                       0.09917                      -0.00178                      -0.00005
                       0.19296                      -0.00326                      -0.00013
                       0.31227                      -0.00505                      -0.00028
                       0.45074                      -0.00706                      -0.00049
                       0.60061                      -0.00922                      -0.00077
                       0.75321                      -0.01144                      -0.00109
                       0.89939                      -0.01363                      -0.00145
                       1.02994                      -0.01570                      -0.00181
                       1.13595                      -0.01754                      -0.00213
                       1.20924                      -0.01905                      -0.00237
                       1.24265                      -0.02012                      -0.00249
                       1.23042                      -0.02065                      -0.00244
                       1.16846                      -0.02055                      -0.00216
                       1.05461                      -0.01975                      -0.00160
                       0.88897                      -0.01822                      -0.00075
                       0.67406                      -0.01596                       0.00041
                       0.41509                      -0.01305                       0.00183
                       0.12012                      -0.00962                       0.00342
                      -0.03749                      -0.00778                       0.00425
                       0.00000                      -0.00000                       0.00000
        </DataArray>
        <DataArray type="Float32" Name="RotationalAcceleration" NumberOfComponents="3" format="ascii">
                       0.00007                       0.00353                       0.00000
                       0.00020                       0.01091                       0.00000
                       0.00030                       0.01811                       0.00000
                       0.00038                       0.02454                       0.00000
                       0.00044                       0.02970                       0.00000
                       0.00048                       0.03323                       0.00000
                       0.00050                       0.03487                       0.00000
                       0.00051                       0.03446                       0.00000
                       0.00049                       0.03194                       0.00000
                       0.00045                       0.02733                       0.00000
                       0.00039                       0.02076                       0.00000
                       0.00030                       0.01243                       0.00000
                       0.00019                       0.00261                       0.00000
                       0.00005                      -0.00835                       0.00000
                      -0.00010                      -0.02003                       0.00000
                      -0.00027                      -0.03195                       0.00000
                      -0.00043                      -0.04359                       0.00000
                      -0.00059                      -0.05435                       0.00000
                      -0.00073                      -0.06360                       0.00000
                      -0.00083                      -0.07067                       0.00000
                      -0.00085                      -0.07317                       0.00000
                       0.00000                      -0.00000                       0.00000
        </DataArray>
        <DataArray type="Float32" Name="OrientationX" NumberOfComponents="3" format="ascii">
                       1.00000                       0.00000                      -0.00011
                       1.00000                       0.00000                      -0.00039
                       1.00000                       0.00000                      -0.00070
                       1.00000                       0.00000                      -0.00103
                       1.00000                       0.00000                      -0.00136
                       1.00000                       0.00000                      -0.00168
                       1.00000                       0.00000                      -0.00199
                       1.00000                       0.00000                      -0.00229
                       1.00000                       0.00000                      -0.00259
                       1.00000                       0.00000                      -0.00290
                       0.99999                       0.00000                      -0.00322
                       0.99999                       0.00000                      -0.00356
                       0.99999                       0.00000                      -0.00392
                       0.99999                       0.00000                      -0.00429
                       0.99999                       0.00000                      -0.00466
                       0.99999                       0.00000                      -0.00500
                       0.99999                       0.00000                      -0.00530
                       0.99998                       0.00000                      -0.00550
                       0.99998                       0.00000                      -0.00553
                       0.99999                       0.00000                      -0.00534
                       0.99999                       0.00000                      -0.00512
                       1.00000                      -0.00000                       0.00000
        </DataArray>
        <DataArray type="Float32" Name="OrientationY" NumberOfComponents="3" format="ascii">
                       0.00000                       1.00000                       0.00001
                       0.00000                       1.00000                       0.00002
                       0.00000                       1.00000                       0.00004
                       0.00000                       1.00000                       0.00005
                       0.00000                       1.00000                       0.00006
                       0.00000                       1.00000                       0.00007
                       0.00000                       1.00000                       0.00008
                       0.00000                       1.00000                       0.00010
                       0.00000                       1.00000                       0.00011
                       0.00000                       1.00000                       0.00013
                       0.00000                       1.00000                       0.00014
                       0.00000                       1.00000                       0.00016
                       0.00000                       1.00000                       0.00018
                       0.00000                       1.00000                       0.00019
                       0.00000                       1.00000                       0.00021
                       0.00000                       1.00000                       0.00023
                       0.00000                       1.00000                       0.00024
                       0.00000                       1.00000                       0.00025
                       0.00000                       1.00000                       0.00026
                       0.00000                       1.00000                       0.00027
                       0.00000                       1.00000                       0.00027
                      -0.00000                       1.00000                      -0.00000
        </DataArray>
        <DataArray type="Float32" Name="OrientationZ" NumberOfComponents="3" format="ascii">
                       0.00011                      -0.00001                       1.00000
                       0.00039                      -0.00002                       1.00000
                       0.00070                      -0.00004                       1.00000
                       0.00103                      -0.00005                       1.00000
                       0.00136                      -0.00006                       1.00000
                       0.00168                      -0.00007                       1.00000
                       0.00199                      -0.00008                       1.00000
                       0.00229                      -0.00010                       1.00000
                       0.00259                      -0.00011                       1.00000
                       0.00290                      -0.00013                       1.00000
                       0.00322                      -0.00014                       0.99999
                       0.00356                      -0.00016                       0.99999
                       0.00392                      -0.00018                       0.99999
                       0.00429                      -0.00019                       0.99999
                       0.00466                      -0.00021                       0.99999
                       0.00500                      -0.00023                       0.99999
                       0.00530                      -0.00024                       0.99999
                       0.00550                      -0.00025                       0.99998
                       0.00553                      -0.00026                       0.99998
                       0.00534                      -0.00027                       0.99999
                       0.00512                      -0.00027                       0.99999
                       0.00000                      -0.00000                       1.00000
        </DataArray>
      </PointData>
      <Lines>
        <DataArray type="Int32" Name="connectivity" format="ascii">
      0      1
      1      2
      2      3
      3      4
      4      5
      5      6
      6      7
      7      8
      8      9
      9     10
     10     11
     11     12
     12     13
     13     14
     14     15
     15     16
     16     17
     17     18
     18     19
     19     20
     21      0
        </DataArray>
        <DataArray type="Int32" Name="offsets" format="ascii">
      2
      4
      6
      8
     10
     12
     14
     16
     18
     20
     22
     24
     26
     28
     30
     32
     34
     36
     38
     40
     42
        </DataArray>
      </Lines>
    </Piece>
  </PolyData>
</VTKFile>
