<?xml version="1.0"?>
<VTKFile type="PolyData" version="0.1" byte_order="LittleEndian">
  <PolyData>
    <Piece NumberOfPoints="     19" NumberOfVerts="  0" NumberOfLines="     18"
           NumberOfStrips="  0" NumberOfPolys="      0">
      <Points>
        <DataArray type="Float32" NumberOfComponents="3" format="ascii">
                      -4.90644                       0.74070                      88.73799
                      -5.07413                       1.42787                      87.56818
                      -5.42767                       2.88345                      85.27776
                      -5.78818                       4.37721                      83.00974
                      -6.23940                       6.26662                      80.18685
                      -6.72697                       8.40952                      76.71876
                      -7.18938                      10.43813                      73.18027
                      -7.65325                      12.46170                      69.63831
                      -8.12621                      14.47785                      66.09218
                      -8.62241                      16.48678                      62.54386
                      -9.15971                      18.48929                      58.99688
                      -9.75685                      20.48070                      55.45278
                     -10.43638                      22.45616                      51.91500
                     -11.22315                      24.40912                      48.38818
                     -12.14148                      26.33169                      44.87803
                     -13.03027                      27.90240                      41.97133
                     -13.82888                      29.12777                      39.65718
                     -14.70623                      30.28099                      37.33122
                     -15.18986                      30.88075                      36.19738
        </DataArray>
      </Points>
      <PointData>
        <DataArray type="Float32" Name="TranslationalVelocity" NumberOfComponents="3" format="ascii">
                       0.21363                       4.24263                       2.45179
                       0.42214                       8.12441                       4.70201
                       0.86069                      15.72805                       9.46660
                       1.30367                      23.25388                      14.35285
                       1.84875                      32.61034                      20.52737
                       2.43780                      44.06726                      27.52122
                       2.95857                      55.72491                      34.13334
                       3.44234                      67.37245                      40.72151
                       3.89062                      79.01598                      47.27962
                       4.30824                      90.65566                      53.81015
                       4.70258                     102.28840                      60.31764
                       5.08140                     113.91833                      66.78859
                       5.45399                     125.54473                      73.20859
                       5.83038                     137.16353                      79.55712
                       6.22099                     148.76684                      85.80830
                       6.56511                     158.41485                      90.91558
                       6.85436                     166.12494                      94.89931
                       7.14905                     173.89945                      98.64697
                       7.31212                     177.70588                     100.59490
        </DataArray>
        <DataArray type="Float32" Name="RotationalVelocity" NumberOfComponents="3" format="ascii">
                       3.27578                      -0.00150                      -0.30231
                       3.27499                      -0.00109                      -0.30195
                       3.27282                       0.00047                      -0.30065
                       3.27002                       0.00295                      -0.29866
                       3.26593                       0.00709                      -0.29544
                       3.26056                       0.01316                      -0.29074
                       3.25517                       0.01979                      -0.28546
                       3.25015                       0.02627                      -0.27985
                       3.24581                       0.03191                      -0.27416
                       3.24240                       0.03605                      -0.26859
                       3.24006                       0.03812                      -0.26332
                       3.23889                       0.03772                      -0.25854
                       3.23888                       0.03460                      -0.25446
                       3.23997                       0.02875                      -0.25131
                       3.24200                       0.02042                      -0.24934
                       3.24426                       0.01203                      -0.24879
                       3.24635                       0.00467                      -0.24927
                       3.24857                      -0.00286                      -0.25069
                       3.24969                      -0.00655                      -0.25180
        </DataArray>
        <DataArray type="Float32" Name="TranslationalAcceleration" NumberOfComponents="3" format="ascii">
                       1.37042                      -8.16363                      14.23962
                       1.53955                      -9.88041                      16.95596
                       4.37786                     -29.14318                      47.93381
                       7.08317                     -47.30353                      76.03007
                      10.51928                     -68.77054                     108.47515
                      15.00684                     -91.80984                     145.87493
                      19.97964                    -112.88925                     182.81061
                      25.32293                    -133.70355                     219.51524
                      30.85458                    -154.51784                     256.51305
                      36.31253                    -175.44937                     293.98998
                      41.39709                    -196.49718                     331.89334
                      45.82048                    -217.52742                     370.05938
                      49.34672                    -238.38141                     408.26488
                      51.83718                    -258.90984                     446.32509
                      53.29502                    -279.02444                     484.18373
                      53.84250                    -295.46808                     515.68452
                      54.03140                    -308.39780                     541.04350
                      54.21141                    -320.79126                     567.01832
                      54.32108                    -327.38791                     580.00620
        </DataArray>
        <DataArray type="Float32" Name="OrientationX" NumberOfComponents="3" format="ascii">
                       0.97533                       0.22049                      -0.01109
                       0.97534                       0.22042                      -0.01092
                       0.97536                       0.22038                      -0.01028
                       0.97535                       0.22045                      -0.00925
                       0.97530                       0.22077                      -0.00748
                       0.98056                       0.19510                      -0.02116
                       0.98349                       0.17845                      -0.02998
                       0.98526                       0.16693                      -0.03745
                       0.98631                       0.15831                      -0.04617
                       0.98642                       0.15423                      -0.05642
                       0.98523                       0.15724                      -0.06785
                       0.98255                       0.16721                      -0.08147
                       0.97778                       0.18591                      -0.09684
                       0.97001                       0.21522                      -0.11294
                       0.95908                       0.25048                      -0.13204
                       0.94732                       0.28286                      -0.15026
                       0.93602                       0.31036                      -0.16597
                       0.92251                       0.34103                      -0.18076
                       0.91480                       0.35784                      -0.18731
        </DataArray>
        <DataArray type="Float32" Name="OrientationY" NumberOfComponents="3" format="ascii">
                       0.18339                      -0.83713                      -0.51534
                       0.18344                      -0.83722                      -0.51519
                       0.18377                      -0.83737                      -0.51483
                       0.18441                      -0.83750                      -0.51437
                       0.18567                      -0.83763                      -0.51371
                       0.15692                      -0.84429                      -0.51240
                       0.13835                      -0.84834                      -0.51107
                       0.12483                      -0.85116                      -0.50985
                       0.11317                      -0.85345                      -0.50874
                       0.10465                      -0.85508                      -0.50783
                       0.10164                      -0.85576                      -0.50728
                       0.10356                      -0.85562                      -0.50714
                       0.11214                      -0.85424                      -0.50764
                       0.12948                      -0.85081                      -0.50927
                       0.15042                      -0.84580                      -0.51185
                       0.16930                      -0.84046                      -0.51475
                       0.18514                      -0.83525                      -0.51777
                       0.20387                      -0.82819                      -0.52205
                       0.21471                      -0.82366                      -0.52486
        </DataArray>
        <DataArray type="Float32" Name="OrientationZ" NumberOfComponents="3" format="ascii">
                      -0.12292                       0.50059                      -0.85691
                      -0.12270                       0.50049                      -0.85701
                      -0.12207                       0.50025                      -0.85723
                      -0.12114                       0.49999                      -0.85752
                      -0.11968                       0.49963                      -0.85793
                      -0.11784                       0.49912                      -0.85848
                      -0.11663                       0.49848                      -0.85902
                      -0.11698                       0.49765                      -0.85945
                      -0.11994                       0.49655                      -0.85968
                      -0.12656                       0.49503                      -0.85961
                      -0.13783                       0.49289                      -0.85910
                      -0.15451                       0.48985                      -0.85801
                      -0.17710                       0.48550                      -0.85611
                      -0.20569                       0.47938                      -0.85316
                      -0.23989                       0.47104                      -0.84886
                      -0.27189                       0.46219                      -0.84407
                      -0.29933                       0.45391                      -0.83927
                      -0.32774                       0.44475                      -0.83354
                      -0.34210                       0.43993                      -0.83032
        </DataArray>
        <DataArray type="Float32" Name="Force" NumberOfComponents="3" format="ascii">
                      -0.71111                     -13.36609                      -7.70616
                     357.51205                    -127.41495                    -125.61874
                     515.89020                    -397.85477                    -305.86254
                     506.47361                    -610.84985                    -428.33316
                    4091.71724                    1212.82856                     137.37240
                    4749.99828                    1092.85963                     -14.10468
                    5354.57567                    1014.14668                    -135.23505
                    7218.59780                    1202.89149                    -280.80896
                    7953.31844                    1155.17340                    -435.88355
                    8610.54888                    1151.56389                    -596.32771
                   10826.24657                    1374.39667                    -936.00812
                   10452.06063                    1326.16093                   -1110.56520
                    6965.68647                     886.45186                    -926.92800
                    1846.50112                      61.06854                    -412.39842
                   -2002.78934                    -632.63013                     197.61481
                   -9426.72553                   -2183.41792                    1782.53894
                  -15551.97258                   -3666.19552                    3458.47164
                  -17005.63397                   -4287.08821                    4263.16814
                  -37690.40490                   -7443.30907                   11424.26742
        </DataArray>
        <DataArray type="Float32" Name="Moment" NumberOfComponents="3" format="ascii">
                       0.00000                       0.00000                       0.00000
                       0.00000                       0.00000                       0.00000
                       0.00000                       0.00000                       0.00000
                       0.00000                       0.00000                       0.00000
                     267.88002                   -1121.21676                    1919.99559
                     479.79142                   -2040.26176                    3494.49534
                     628.50470                   -2701.36838                    4627.44090
                     935.37663                   -4009.80071                    6868.55789
                    1369.92908                   -5729.69137                    9811.55425
                    1621.42531                   -6427.89851                   10999.36492
                    1927.61561                   -7016.75304                   11992.45994
                    2270.66096                   -7368.64350                   12571.14740
                    1945.10274                   -5498.94336                    9358.25354
                    2154.34360                   -5229.50553                    8871.61392
                    2309.76435                   -4785.88715                    8087.83008
                    2449.29606                   -4453.25919                    7498.02179
                    2378.82315                   -3906.39735                    6556.01035
                    1270.77444                   -1892.77026                    3165.68603
                     205.28972                    -291.79584                     487.16700
        </DataArray>
      </PointData>
      <Lines>
        <DataArray type="Int32" Name="connectivity" format="ascii">
      0      1
      1      2
      2      3
      3      4
      4      5
      5      6
      6      7
      7      8
      8      9
      9     10
     10     11
     11     12
     12     13
     13     14
     14     15
     15     16
     16     17
     17     18
        </DataArray>
        <DataArray type="Int32" Name="offsets" format="ascii">
      2
      4
      6
      8
     10
     12
     14
     16
     18
     20
     22
     24
     26
     28
     30
     32
     34
     36
        </DataArray>
      </Lines>
    </Piece>
  </PolyData>
</VTKFile>
