<?xml version="1.0"?>
<VTKFile type="PolyData" version="0.1" byte_order="LittleEndian">
  <PolyData>
    <Piece NumberOfPoints="     19" NumberOfVerts="  0" NumberOfLines="     18"
           NumberOfStrips="  0" NumberOfPolys="      0">
      <Points>
        <DataArray type="Float32" NumberOfComponents="3" format="ascii">
                      -3.86397                       0.51111                      91.48560
                      -3.78713                       0.99783                      92.76090
                      -3.64281                       1.88276                      95.34615
                      -3.49166                       2.72563                      97.94773
                      -3.27874                       3.75330                     101.20922
                      -2.92398                       5.11774                     105.06555
                      -2.48187                       6.59866                     108.86889
                      -1.96203                       8.07496                     112.66455
                      -1.35322                       9.54663                     116.44899
                      -0.64905                      11.01029                     120.22020
                       0.15400                      12.46123                     123.97691
                       1.05869                      13.89976                     127.71591
                       2.06339                      15.32515                     131.43514
                       3.16302                      16.73712                     135.13321
                       4.35114                      18.13541                     138.80888
                       5.40142                      19.29034                     141.85461
                       6.27250                      20.21561                     144.27795
                       7.16845                      21.18697                     146.67253
                       7.61903                      21.63235                     147.88225
        </DataArray>
      </Points>
      <PointData>
        <DataArray type="Float32" Name="TranslationalVelocity" NumberOfComponents="3" format="ascii">
                       0.10184                      -4.31553                       1.65292
                       0.26200                      -8.26055                       3.14900
                       0.55311                     -16.25760                       5.87019
                       0.82989                     -24.31179                       8.46340
                       1.16615                     -34.42366                      11.62713
                       1.61116                     -46.42404                      15.83093
                       2.09348                     -58.30168                      20.39831
                       2.57307                     -70.19393                      24.95675
                       3.04974                     -82.09461                      29.50659
                       3.52153                     -94.00055                      34.03807
                       3.98496                    -105.90994                      38.53750
                       4.43714                    -117.81453                      43.00716
                       4.87325                    -129.70798                      47.44674
                       5.28677                    -141.58446                      51.85781
                       5.66898                    -153.43806                      56.24304
                       5.95481                    -163.29512                      59.88157
                       6.16122                    -171.15772                      62.80854
                       6.36549                    -178.94684                      65.89027
                       6.43619                    -182.88220                      67.31230
        </DataArray>
        <DataArray type="Float32" Name="RotationalVelocity" NumberOfComponents="3" format="ascii">
                       3.07315                       0.00024                      -0.32829
                       3.07376                       0.00021                      -0.32838
                       3.07518                      -0.00000                      -0.32877
                       3.07684                      -0.00041                      -0.32949
                       3.07911                      -0.00115                      -0.33097
                       3.08195                      -0.00241                      -0.33386
                       3.08468                      -0.00417                      -0.33825
                       3.08709                      -0.00660                      -0.34440
                       3.08899                      -0.00996                      -0.35250
                       3.09021                      -0.01450                      -0.36266
                       3.09063                      -0.02052                      -0.37482
                       3.09015                      -0.02829                      -0.38878
                       3.08873                      -0.03806                      -0.40411
                       3.08638                      -0.05004                      -0.42014
                       3.08315                      -0.06435                      -0.43597
                       3.07987                      -0.07804                      -0.44816
                       3.07692                      -0.09019                      -0.45660
                       3.07375                      -0.10334                      -0.46329
                       3.07210                      -0.11026                      -0.46579
        </DataArray>
        <DataArray type="Float32" Name="TranslationalAcceleration" NumberOfComponents="3" format="ascii">
                      -1.41544                      -5.46793                     -13.36838
                      -1.75987                      -6.56125                     -16.00001
                      -5.10545                     -17.96396                     -46.10583
                      -8.24101                     -28.00304                     -73.98828
                     -11.96160                     -39.40915                    -106.70792
                     -16.18414                     -53.52660                    -143.47479
                     -20.28984                     -68.36589                    -178.88556
                     -24.42777                     -83.09190                    -214.27450
                     -28.66528                     -97.84726                    -250.08782
                     -33.05228                    -112.61465                    -286.47083
                     -37.63113                    -127.27296                    -323.34511
                     -42.44697                    -141.69745                    -360.47033
                     -47.56135                    -155.74112                    -397.55731
                     -53.06388                    -169.28681                    -434.34958
                     -59.08383                    -182.28301                    -470.70674
                     -64.63974                    -192.72534                    -500.70405
                     -69.51347                    -200.97784                    -524.60060
                     -74.84148                    -209.68103                    -548.44750
                     -77.73879                    -213.67373                    -560.62553
        </DataArray>
        <DataArray type="Float32" Name="OrientationX" NumberOfComponents="3" format="ascii">
                       0.97971                      -0.19959                       0.01820
                       0.97964                      -0.20007                       0.01697
                       0.97937                      -0.20164                       0.01303
                       0.97895                      -0.20398                       0.00724
                       0.97816                      -0.20785                      -0.00213
                       0.98239                      -0.18477                      -0.02779
                       0.98381                      -0.17136                      -0.05257
                       0.98363                      -0.16238                      -0.07807
                       0.98239                      -0.15439                      -0.10525
                       0.97994                      -0.14809                      -0.13338
                       0.97616                      -0.14527                      -0.16126
                       0.97130                      -0.14496                      -0.18860
                       0.96547                      -0.14849                      -0.21404
                       0.95894                      -0.15766                      -0.23575
                       0.95253                      -0.16754                      -0.25421
                       0.94781                      -0.17515                      -0.26642
                       0.94486                      -0.18069                      -0.27312
                       0.94276                      -0.18815                      -0.27531
                       0.94207                      -0.19310                      -0.27425
        </DataArray>
        <DataArray type="Float32" Name="OrientationY" NumberOfComponents="3" format="ascii">
                       0.19253                       0.91201                      -0.36216
                       0.19251                       0.91189                      -0.36248
                       0.19250                       0.91155                      -0.36334
                       0.19254                       0.91111                      -0.36442
                       0.19266                       0.91045                      -0.36601
                       0.16186                       0.91583                      -0.36750
                       0.14039                       0.91903                      -0.36834
                       0.12285                       0.92140                      -0.36868
                       0.10570                       0.92366                      -0.36836
                       0.08988                       0.92569                      -0.36746
                       0.07747                       0.92723                      -0.36639
                       0.06765                       0.92847                      -0.36520
                       0.06211                       0.92915                      -0.36445
                       0.06300                       0.92889                      -0.36495
                       0.06564                       0.92835                      -0.36586
                       0.06836                       0.92780                      -0.36677
                       0.07105                       0.92725                      -0.36765
                       0.07692                       0.92606                      -0.36946
                       0.08164                       0.92508                      -0.37089
        </DataArray>
        <DataArray type="Float32" Name="OrientationZ" NumberOfComponents="3" format="ascii">
                       0.05568                       0.35832                       0.93194
                       0.05704                       0.35837                       0.93184
                       0.06139                       0.35835                       0.93157
                       0.06774                       0.35814                       0.93121
                       0.07802                       0.35761                       0.93061
                       0.09335                       0.35653                       0.92961
                       0.11144                       0.35500                       0.92820
                       0.13180                       0.35306                       0.92627
                       0.15408                       0.35074                       0.92371
                       0.17789                       0.34810                       0.92042
                       0.20275                       0.34516                       0.91638
                       0.22805                       0.34196                       0.91162
                       0.25299                       0.33857                       0.90629
                       0.27652                       0.33511                       0.90069
                       0.29730                       0.33181                       0.89528
                       0.31142                       0.32941                       0.89135
                       0.31968                       0.32797                       0.88895
                       0.32447                       0.32714                       0.88753
                       0.32532                       0.32702                       0.88726
        </DataArray>
        <DataArray type="Float32" Name="Force" NumberOfComponents="3" format="ascii">
                      -0.61539                      15.05578                      -5.75203
                     466.02875                     184.71906                     -99.56206
                     604.24771                     484.34594                    -226.16562
                     557.48213                     677.68131                    -301.47014
                    5332.48212                   -1836.29167                     260.84604
                    6320.18781                   -1698.07811                      21.05325
                    7219.14171                   -1616.86202                    -241.18141
                    9506.35996                   -1868.27637                    -628.76637
                   10338.84741                   -1775.78856                   -1035.91850
                   11814.63574                   -1888.17457                   -1551.03947
                   14911.57357                   -2226.88134                   -2436.32294
                   16618.43714                   -2445.00769                   -3211.51623
                   17286.08604                   -2669.47865                   -3794.40778
                   17128.43792                   -2696.45924                   -4219.76293
                   16253.96867                   -2665.07801                   -4372.84559
                   14997.29438                   -2472.02235                   -4291.70297
                   13183.28874                   -2156.17216                   -3915.57617
                    8170.06298                   -1308.67342                   -2486.88397
                  -10273.16540                    1146.84254                    3336.20679
        </DataArray>
        <DataArray type="Float32" Name="Moment" NumberOfComponents="3" format="ascii">
                       0.00000                       0.00000                       0.00000
                       0.00000                       0.00000                       0.00000
                       0.00000                       0.00000                       0.00000
                       0.00000                       0.00000                       0.00000
                    -147.83727                    -679.83571                   -1763.63447
                    -360.28157                   -1385.43807                   -3587.80035
                    -571.67873                   -1842.30823                   -4761.02865
                    -991.57911                   -2701.44075                   -6964.86046
                   -1638.10507                   -3814.71226                   -9809.64812
                   -2137.57609                   -4305.56337                  -11041.00056
                   -2652.75096                   -4677.90100                  -11960.46719
                   -3167.87048                   -4951.91173                  -12622.57179
                   -2819.25420                   -3958.21095                  -10058.88488
                   -3015.85049                   -3858.24413                   -9776.19135
                   -3084.73196                   -3655.49739                   -9238.13799
                   -3031.79079                   -3419.13389                   -8625.12709
                   -2737.17360                   -3001.31706                   -7563.02323
                   -1391.60281                   -1501.62473                   -3781.57823
                   -1227.27178                   -1320.54430                   -3325.18644
        </DataArray>
      </PointData>
      <Lines>
        <DataArray type="Int32" Name="connectivity" format="ascii">
      0      1
      1      2
      2      3
      3      4
      4      5
      5      6
      6      7
      7      8
      8      9
      9     10
     10     11
     11     12
     12     13
     13     14
     14     15
     15     16
     16     17
     17     18
        </DataArray>
        <DataArray type="Int32" Name="offsets" format="ascii">
      2
      4
      6
      8
     10
     12
     14
     16
     18
     20
     22
     24
     26
     28
     30
     32
     34
     36
        </DataArray>
      </Lines>
    </Piece>
  </PolyData>
</VTKFile>
