<?xml version="1.0"?>
<VTKFile type="PolyData" version="0.1" byte_order="LittleEndian">
  <PolyData>
    <Piece NumberOfPoints="     19" NumberOfVerts="  0" NumberOfLines="     18"
           NumberOfStrips="  0" NumberOfPolys="      0">
      <Points>
        <DataArray type="Float32" NumberOfComponents="3" format="ascii">
                      -4.31640                      -0.67416                      88.73962
                      -4.50231                      -1.26753                      87.52225
                      -4.89147                      -2.36811                      85.04823
                      -5.27846                      -3.42698                      82.55335
                      -5.74233                      -4.72374                      79.41811
                      -6.18995                      -6.40368                      75.70127
                      -6.53867                      -8.19269                      72.02595
                      -6.80280                      -9.97350                      68.33956
                      -6.96343                     -11.74565                      64.64331
                      -7.00498                     -13.50537                      60.93830
                      -6.91329                     -15.24734                      57.22613
                      -6.67338                     -16.97092                      53.51184
                      -6.27375                     -18.67421                      49.80123
                      -5.70555                     -20.35540                      46.10146
                      -4.96072                     -22.01244                      42.42147
                      -4.19978                     -23.37312                      39.37801
                      -3.50441                     -24.45564                      36.96581
                      -2.73158                     -25.57606                      34.59732
                      -2.31884                     -26.09345                      33.40542
        </DataArray>
      </Points>
      <PointData>
        <DataArray type="Float32" Name="TranslationalVelocity" NumberOfComponents="3" format="ascii">
                       0.31116                       2.40267                      -1.12067
                       0.19227                       4.59101                      -2.16924
                      -0.02932                       9.03882                      -4.11319
                      -0.24233                      13.52073                      -5.98270
                      -0.50199                      19.14496                      -8.27133
                      -0.83311                      25.78780                     -11.23545
                      -1.18115                      32.33261                     -14.38998
                      -1.52555                      38.87482                     -17.52739
                      -1.86706                      45.40903                     -20.64697
                      -2.20611                      51.93080                     -23.74223
                      -2.54307                      58.43523                     -26.80427
                      -2.87939                      64.91126                     -29.83254
                      -3.21653                      71.34717                     -32.82456
                      -3.55616                      77.72934                     -35.77818
                      -3.90013                      84.04103                     -38.69108
                      -4.19177                      89.23197                     -41.08561
                      -4.43047                      93.32786                     -42.99294
                      -4.68251                      97.33164                     -44.96931
                      -4.80375                      99.34158                     -45.88368
        </DataArray>
        <DataArray type="Float32" Name="RotationalVelocity" NumberOfComponents="3" format="ascii">
                       1.76996                       0.00852                      -0.18324
                       1.76969                       0.00840                      -0.18317
                       1.76894                       0.00811                      -0.18302
                       1.76797                       0.00772                      -0.18291
                       1.76657                       0.00710                      -0.18290
                       1.76475                       0.00622                      -0.18317
                       1.76294                       0.00529                      -0.18373
                       1.76123                       0.00443                      -0.18450
                       1.75966                       0.00376                      -0.18537
                       1.75826                       0.00345                      -0.18619
                       1.75702                       0.00362                      -0.18682
                       1.75591                       0.00439                      -0.18714
                       1.75489                       0.00585                      -0.18709
                       1.75394                       0.00804                      -0.18668
                       1.75302                       0.01095                      -0.18605
                       1.75228                       0.01385                      -0.18551
                       1.75171                       0.01646                      -0.18523
                       1.75118                       0.01924                      -0.18526
                       1.75094                       0.02066                      -0.18545
        </DataArray>
        <DataArray type="Float32" Name="TranslationalAcceleration" NumberOfComponents="3" format="ascii">
                       0.85341                       2.39629                       4.06577
                       0.61570                       2.94147                       4.91954
                       1.71397                       8.16896                      14.21439
                       2.65976                      12.82775                      22.85756
                       3.68769                      18.15770                      33.01475
                       4.73883                      24.53354                      44.33787
                       5.67861                      31.04508                      55.13908
                       6.58901                      37.49795                      65.89098
                       7.50245                      43.97540                      76.72178
                       8.43343                      50.49178                      87.66767
                       9.38411                      57.01346                      98.69782
                      10.34966                      63.49273                     109.73179
                      11.32557                      69.86547                     120.67968
                      12.31399                      76.07055                     131.46785
                      13.33015                      82.06359                     142.06505
                      14.22466                      86.88363                     150.77495
                      14.98911                      90.66443                     157.70055
                      15.80311                      94.53416                     164.58745
                      16.26578                      96.34409                     168.13607
        </DataArray>
        <DataArray type="Float32" Name="OrientationX" NumberOfComponents="3" format="ascii">
                       0.95276                       0.18856                      -0.23812
                       0.95292                       0.18907                      -0.23704
                       0.95349                       0.19075                      -0.23341
                       0.95432                       0.19320                      -0.22794
                       0.95563                       0.19720                      -0.21884
                       0.96563                       0.17515                      -0.19206
                       0.97283                       0.16218                      -0.16525
                       0.97880                       0.15310                      -0.13605
                       0.98418                       0.14440                      -0.10268
                       0.98847                       0.13663                      -0.06524
                       0.99103                       0.13140                      -0.02453
                       0.99161                       0.12775                       0.01957
                       0.98972                       0.12701                       0.06567
                       0.98507                       0.13111                       0.11160
                       0.97816                       0.13557                       0.15753
                       0.97105                       0.13876                       0.19443
                       0.96487                       0.14113                       0.22160
                       0.95865                       0.14604                       0.24428
                       0.95569                       0.15004                       0.25328
        </DataArray>
        <DataArray type="Float32" Name="OrientationY" NumberOfComponents="3" format="ascii">
                       0.27163                      -0.87975                       0.39021
                       0.27164                      -0.87967                       0.39037
                       0.27162                      -0.87947                       0.39085
                       0.27151                      -0.87922                       0.39148
                       0.27124                      -0.87886                       0.39248
                       0.24004                      -0.88438                       0.40031
                       0.21692                      -0.88796                       0.40555
                       0.19629                      -0.89090                       0.40960
                       0.17425                      -0.89389                       0.41304
                       0.15139                      -0.89686                       0.41560
                       0.12960                      -0.89960                       0.41704
                       0.10801                      -0.90231                       0.41734
                       0.08848                      -0.90481                       0.41652
                       0.07367                      -0.90680                       0.41507
                       0.05945                      -0.90880                       0.41297
                       0.04787                      -0.91050                       0.41073
                       0.03944                      -0.91172                       0.40890
                       0.03501                      -0.91230                       0.40802
                       0.03502                      -0.91220                       0.40824
        </DataArray>
        <DataArray type="Float32" Name="OrientationZ" NumberOfComponents="3" format="ascii">
                      -0.13591                      -0.43645                      -0.88940
                      -0.13471                      -0.43639                      -0.88962
                      -0.13072                      -0.43606                      -0.89037
                      -0.12477                      -0.43549                      -0.89151
                      -0.11493                      -0.43442                      -0.89335
                      -0.09975                      -0.43265                      -0.89603
                      -0.08096                      -0.43038                      -0.89901
                      -0.05850                      -0.42762                      -0.90206
                      -0.03214                      -0.42440                      -0.90491
                      -0.00173                      -0.42069                      -0.90720
                       0.03273                      -0.41647                      -0.90856
                       0.07097                      -0.41172                      -0.90854
                       0.11232                      -0.40643                      -0.90675
                       0.15562                      -0.40065                      -0.90292
                       0.19915                      -0.39458                      -0.89702
                       0.23402                      -0.38953                      -0.89079
                       0.25975                      -0.38580                      -0.88526
                       0.28244                      -0.38259                      -0.87969
                       0.29230                      -0.38128                      -0.87703
        </DataArray>
        <DataArray type="Float32" Name="Force" NumberOfComponents="3" format="ascii">
                       0.68450                     -13.67418                       6.60570
                     346.16271                    -129.58322                      11.16547
                     463.36432                    -281.15182                      69.85252
                     421.33869                    -342.29538                     108.77850
                    3749.25585                    1195.50102                   -1067.65877
                    4409.47188                    1494.25564                   -1221.09638
                    6467.70713                    2301.21846                   -1704.17135
                    7614.72515                    2392.16044                   -1655.71462
                    8545.88244                    2440.41871                   -1483.12755
                    9941.70052                    2591.56064                   -1263.41513
                   11590.41221                    2808.05861                    -919.42166
                   12866.31713                    3005.75518                    -411.54153
                   13516.77407                    3154.60589                     204.19566
                   14269.31003                    3356.20398                     913.96300
                   14758.15386                    3526.20420                    1672.10718
                   14842.20238                    3579.88491                    2285.79658
                   14111.59092                    3400.38455                    2618.74610
                   10067.98268                    2448.54426                    2142.35201
                    4906.26968                     797.01993                    1289.72604
        </DataArray>
        <DataArray type="Float32" Name="Moment" NumberOfComponents="3" format="ascii">
                       0.00000                       0.00000                       0.00000
                       0.00000                       0.00000                       0.00000
                       0.00000                       0.00000                       0.00000
                       0.00000                       0.00000                       0.00000
                     157.46494                     599.04267                    1223.73601
                     115.74132                     507.99335                    1039.58217
                     144.90555                     784.98503                    1609.94886
                     150.14997                    1129.28818                    2322.13283
                     110.90438                    1532.09056                    3160.02373
                       4.31180                    1826.24541                    3779.98662
                    -149.41648                    1929.73998                    4010.15606
                    -340.30510                    2039.60587                    4257.36514
                    -492.47251                    1857.88565                    3896.96175
                    -684.52227                    1848.80627                    3898.06757
                    -851.82015                    1777.97332                    3768.77509
                    -951.86670                    1672.63979                    3561.09566
                    -937.74391                    1471.27208                    3142.78945
                    -513.75700                     734.88266                    1574.48628
                    -456.51665                     628.46594                    1348.26614
        </DataArray>
      </PointData>
      <Lines>
        <DataArray type="Int32" Name="connectivity" format="ascii">
      0      1
      1      2
      2      3
      3      4
      4      5
      5      6
      6      7
      7      8
      8      9
      9     10
     10     11
     11     12
     12     13
     13     14
     14     15
     15     16
     16     17
     17     18
        </DataArray>
        <DataArray type="Int32" Name="offsets" format="ascii">
      2
      4
      6
      8
     10
     12
     14
     16
     18
     20
     22
     24
     26
     28
     30
     32
     34
     36
        </DataArray>
      </Lines>
    </Piece>
  </PolyData>
</VTKFile>
