<?xml version="1.0"?>
<VTKFile type="PolyData" version="0.1" byte_order="LittleEndian">
  <PolyData>
    <Piece NumberOfPoints="     22" NumberOfVerts="  0" NumberOfLines="     21"
           NumberOfStrips="  0" NumberOfPolys="      0">
      <Points>
        <DataArray type="Float32" NumberOfComponents="3" format="ascii">
                       0.00012                      -0.00000                       2.19000
                       0.00117                      -0.00002                       6.57000
                       0.00349                      -0.00006                      10.95000
                       0.00717                      -0.00011                      15.33000
                       0.01221                      -0.00019                      19.70999
                       0.01858                      -0.00028                      24.08999
                       0.02621                      -0.00040                      28.46998
                       0.03503                      -0.00054                      32.84997
                       0.04500                      -0.00071                      37.22996
                       0.05611                      -0.00092                      41.60995
                       0.06835                      -0.00117                      45.98993
                       0.08176                      -0.00145                      50.36991
                       0.09640                      -0.00179                      54.74989
                       0.11230                      -0.00217                      59.12986
                       0.12948                      -0.00260                      63.50982
                       0.14790                      -0.00308                      67.88979
                       0.16741                      -0.00361                      72.26974
                       0.18773                      -0.00418                      76.64969
                       0.20838                      -0.00479                      81.02965
                       0.22864                      -0.00543                      85.40960
                       0.23831                      -0.00576                      87.59958
                       0.00000                       0.00000                       0.00000
        </DataArray>
      </Points>
      <PointData>
        <DataArray type="Float32" Name="TranslationalVelocity" NumberOfComponents="3" format="ascii">
                      -0.00019                       0.00003                       0.00000
                      -0.00192                       0.00021                       0.00000
                      -0.00573                       0.00054                       0.00000
                      -0.01178                       0.00099                       0.00001
                      -0.02009                       0.00153                       0.00002
                      -0.03060                       0.00213                       0.00003
                      -0.04319                       0.00277                       0.00006
                      -0.05778                       0.00342                       0.00008
                      -0.07430                       0.00404                       0.00012
                      -0.09273                       0.00461                       0.00017
                      -0.11308                       0.00508                       0.00023
                      -0.13543                       0.00543                       0.00030
                      -0.15985                       0.00562                       0.00038
                      -0.18644                       0.00562                       0.00047
                      -0.21522                       0.00539                       0.00059
                      -0.24612                       0.00491                       0.00072
                      -0.27889                       0.00418                       0.00086
                      -0.31308                       0.00319                       0.00102
                      -0.34786                       0.00198                       0.00118
                      -0.38202                       0.00058                       0.00134
                      -0.39833                      -0.00016                       0.00141
                       0.00000                      -0.00000                       0.00000
        </DataArray>
        <DataArray type="Float32" Name="RotationalVelocity" NumberOfComponents="3" format="ascii">
                      -0.00002                      -0.00018                       0.00000
                      -0.00006                      -0.00062                       0.00000
                      -0.00009                      -0.00112                       0.00000
                      -0.00011                      -0.00164                       0.00000
                      -0.00013                      -0.00215                       0.00000
                      -0.00014                      -0.00264                       0.00000
                      -0.00015                      -0.00311                       0.00000
                      -0.00015                      -0.00355                       0.00000
                      -0.00014                      -0.00399                       0.00000
                      -0.00012                      -0.00442                       0.00000
                      -0.00010                      -0.00487                       0.00000
                      -0.00006                      -0.00534                       0.00000
                      -0.00002                      -0.00582                       0.00000
                       0.00003                      -0.00632                       0.00000
                       0.00008                      -0.00682                       0.00000
                       0.00014                      -0.00728                       0.00000
                       0.00020                      -0.00767                       0.00000
                       0.00025                      -0.00791                       0.00000
                       0.00030                      -0.00793                       0.00000
                       0.00033                      -0.00760                       0.00000
                       0.00034                      -0.00728                       0.00000
                       0.00000                      -0.00000                       0.00000
        </DataArray>
        <DataArray type="Float32" Name="TranslationalAcceleration" NumberOfComponents="3" format="ascii">
                      -0.00084                      -0.00002                       0.00000
                      -0.00764                      -0.00016                       0.00000
                      -0.02124                      -0.00041                       0.00001
                      -0.04105                      -0.00074                       0.00001
                      -0.06595                      -0.00112                       0.00003
                      -0.09447                      -0.00152                       0.00004
                      -0.12477                      -0.00190                       0.00006
                      -0.15481                      -0.00224                       0.00007
                      -0.18242                      -0.00250                       0.00007
                      -0.20539                      -0.00262                       0.00005
                      -0.22157                      -0.00258                      -0.00000
                      -0.22895                      -0.00233                      -0.00009
                      -0.22578                      -0.00183                      -0.00024
                      -0.21063                      -0.00103                      -0.00046
                      -0.18250                       0.00010                      -0.00076
                      -0.14091                       0.00157                      -0.00116
                      -0.08599                       0.00339                      -0.00164
                      -0.01855                       0.00555                      -0.00222
                       0.05976                       0.00802                      -0.00286
                       0.14645                       0.01073                      -0.00353
                       0.19189                       0.01215                      -0.00386
                       0.00000                      -0.00000                       0.00000
        </DataArray>
        <DataArray type="Float32" Name="RotationalAcceleration" NumberOfComponents="3" format="ascii">
                       0.00002                      -0.00077                       0.00000
                       0.00005                      -0.00234                       0.00000
                       0.00007                      -0.00385                       0.00000
                       0.00008                      -0.00515                       0.00000
                       0.00009                      -0.00616                       0.00000
                       0.00009                      -0.00679                       0.00000
                       0.00008                      -0.00697                       0.00000
                       0.00007                      -0.00667                       0.00000
                       0.00005                      -0.00586                       0.00000
                       0.00001                      -0.00455                       0.00000
                      -0.00003                      -0.00276                       0.00000
                      -0.00009                      -0.00054                       0.00000
                      -0.00015                       0.00204                       0.00000
                      -0.00022                       0.00491                       0.00000
                      -0.00030                       0.00795                       0.00000
                      -0.00038                       0.01104                       0.00000
                      -0.00046                       0.01401                       0.00000
                      -0.00053                       0.01672                       0.00000
                      -0.00059                       0.01895                       0.00000
                      -0.00064                       0.02050                       0.00000
                      -0.00065                       0.02095                       0.00000
                       0.00000                      -0.00000                       0.00000
        </DataArray>
        <DataArray type="Float32" Name="OrientationX" NumberOfComponents="3" format="ascii">
                       1.00000                       0.00000                      -0.00011
                       1.00000                       0.00000                      -0.00038
                       1.00000                       0.00000                      -0.00068
                       1.00000                       0.00000                      -0.00100
                       1.00000                       0.00000                      -0.00131
                       1.00000                       0.00000                      -0.00160
                       1.00000                       0.00000                      -0.00188
                       1.00000                       0.00000                      -0.00215
                       1.00000                       0.00000                      -0.00241
                       1.00000                       0.00000                      -0.00266
                       1.00000                       0.00000                      -0.00293
                       0.99999                       0.00000                      -0.00320
                       0.99999                       0.00000                      -0.00348
                       0.99999                       0.00000                      -0.00378
                       0.99999                       0.00000                      -0.00407
                       0.99999                       0.00000                      -0.00434
                       0.99999                       0.00000                      -0.00456
                       0.99999                       0.00000                      -0.00470
                       0.99999                       0.00000                      -0.00470
                       0.99999                       0.00000                      -0.00451
                       0.99999                       0.00000                      -0.00431
                       1.00000                      -0.00000                       0.00000
        </DataArray>
        <DataArray type="Float32" Name="OrientationY" NumberOfComponents="3" format="ascii">
                       0.00000                       1.00000                       0.00000
                       0.00000                       1.00000                       0.00001
                       0.00000                       1.00000                       0.00001
                       0.00000                       1.00000                       0.00001
                       0.00000                       1.00000                       0.00002
                       0.00000                       1.00000                       0.00002
                       0.00000                       1.00000                       0.00003
                       0.00000                       1.00000                       0.00004
                       0.00000                       1.00000                       0.00004
                       0.00000                       1.00000                       0.00005
                       0.00000                       1.00000                       0.00006
                       0.00000                       1.00000                       0.00007
                       0.00000                       1.00000                       0.00008
                       0.00000                       1.00000                       0.00009
                       0.00000                       1.00000                       0.00010
                       0.00000                       1.00000                       0.00012
                       0.00000                       1.00000                       0.00013
                       0.00000                       1.00000                       0.00014
                       0.00000                       1.00000                       0.00014
                       0.00000                       1.00000                       0.00015
                       0.00000                       1.00000                       0.00015
                      -0.00000                       1.00000                      -0.00000
        </DataArray>
        <DataArray type="Float32" Name="OrientationZ" NumberOfComponents="3" format="ascii">
                       0.00011                      -0.00000                       1.00000
                       0.00038                      -0.00001                       1.00000
                       0.00068                      -0.00001                       1.00000
                       0.00100                      -0.00001                       1.00000
                       0.00131                      -0.00002                       1.00000
                       0.00160                      -0.00002                       1.00000
                       0.00188                      -0.00003                       1.00000
                       0.00215                      -0.00004                       1.00000
                       0.00241                      -0.00004                       1.00000
                       0.00266                      -0.00005                       1.00000
                       0.00293                      -0.00006                       1.00000
                       0.00320                      -0.00007                       0.99999
                       0.00348                      -0.00008                       0.99999
                       0.00378                      -0.00009                       0.99999
                       0.00407                      -0.00010                       0.99999
                       0.00434                      -0.00012                       0.99999
                       0.00456                      -0.00013                       0.99999
                       0.00470                      -0.00014                       0.99999
                       0.00470                      -0.00014                       0.99999
                       0.00451                      -0.00015                       0.99999
                       0.00431                      -0.00015                       0.99999
                       0.00000                      -0.00000                       1.00000
        </DataArray>
      </PointData>
      <Lines>
        <DataArray type="Int32" Name="connectivity" format="ascii">
      0      1
      1      2
      2      3
      3      4
      4      5
      5      6
      6      7
      7      8
      8      9
      9     10
     10     11
     11     12
     12     13
     13     14
     14     15
     15     16
     16     17
     17     18
     18     19
     19     20
     21      0
        </DataArray>
        <DataArray type="Int32" Name="offsets" format="ascii">
      2
      4
      6
      8
     10
     12
     14
     16
     18
     20
     22
     24
     26
     28
     30
     32
     34
     36
     38
     40
     42
        </DataArray>
      </Lines>
    </Piece>
  </PolyData>
</VTKFile>
