<?xml version="1.0"?>
<VTKFile type="PolyData" version="0.1" byte_order="LittleEndian">
  <PolyData>
    <Piece NumberOfPoints="     19" NumberOfVerts="  0" NumberOfLines="     18"
           NumberOfStrips="  0" NumberOfPolys="      0">
      <Points>
        <DataArray type="Float32" NumberOfComponents="3" format="ascii">
                      -4.68670                      -1.02437                      91.12880
                      -4.65342                      -1.95005                      92.13411
                      -4.61429                      -3.87183                      94.08210
                      -4.58491                      -5.82809                      95.99963
                      -4.54745                      -8.29548                      98.37669
                      -4.42540                     -11.15605                     101.31829
                      -4.25481                     -13.92557                     104.34197
                      -4.07556                     -16.69667                     107.36472
                      -3.89520                     -19.46708                     110.38970
                      -3.72885                     -22.23638                     113.41832
                      -3.59605                     -25.00440                     116.45124
                      -3.51724                     -27.76598                     119.49251
                      -3.51734                     -30.51548                     122.54515
                      -3.62404                     -33.24544                     125.61178
                      -3.86495                     -35.94691                     128.69409
                      -4.19399                     -38.16735                     131.27585
                      -4.54864                     -39.91345                     133.35452
                      -4.98149                     -41.59440                     135.47614
                      -5.24985                     -42.45209                     136.51239
        </DataArray>
      </Points>
      <PointData>
        <DataArray type="Float32" Name="TranslationalVelocity" NumberOfComponents="3" format="ascii">
                      -0.28819                      -3.62362                      -3.30316
                      -0.56575                      -6.92563                      -6.33420
                      -1.14033                     -13.31951                     -12.63053
                      -1.72515                     -19.61516                     -19.04497
                      -2.46498                     -27.42689                     -27.14328
                      -3.32520                     -37.12798                     -36.54371
                      -4.15634                     -47.12692                     -45.65750
                      -4.97741                     -57.13936                     -54.78965
                      -5.77531                     -67.17312                     -63.93335
                      -6.53536                     -77.22838                     -73.08766
                      -7.24206                     -87.30199                     -82.25171
                      -7.87869                     -97.40273                     -91.40737
                      -8.42997                    -107.53595                    -100.53368
                      -8.88287                    -117.70653                    -109.60222
                      -9.22801                    -127.91814                    -118.57818
                      -9.42774                    -136.46231                    -125.95225
                      -9.53121                    -143.33678                    -131.74540
                      -9.57393                    -150.35441                    -137.31529
                      -9.58838                    -153.77707                    -140.15216
        </DataArray>
        <DataArray type="Float32" Name="RotationalVelocity" NumberOfComponents="3" format="ascii">
                       3.27377                       0.00261                      -0.30185
                       3.27446                       0.00265                      -0.30181
                       3.27643                       0.00267                      -0.30193
                       3.27896                       0.00261                      -0.30223
                       3.28255                       0.00253                      -0.30259
                       3.28709                       0.00283                      -0.30262
                       3.29161                       0.00417                      -0.30172
                       3.29603                       0.00723                      -0.29943
                       3.30042                       0.01272                      -0.29541
                       3.30495                       0.02122                      -0.28939
                       3.30981                       0.03308                      -0.28131
                       3.31520                       0.04838                      -0.27127
                       3.32123                       0.06674                      -0.25960
                       3.32788                       0.08731                      -0.24691
                       3.33492                       0.10861                      -0.23408
                       3.34078                       0.12546                      -0.22412
                       3.34516                       0.13712                      -0.21728
                       3.34895                       0.14601                      -0.21205
                       3.35050                       0.14905                      -0.21022
        </DataArray>
        <DataArray type="Float32" Name="TranslationalAcceleration" NumberOfComponents="3" format="ascii">
                      -0.85893                      10.95187                     -11.60915
                      -1.20738                      13.29017                     -14.25699
                      -3.39351                      38.83264                     -40.14091
                      -5.38162                      62.80175                     -63.60136
                      -7.70065                      91.18528                     -90.76174
                     -10.46418                     122.55356                    -122.67317
                     -13.29576                     152.22928                    -154.76051
                     -16.19409                     181.92553                    -186.82233
                     -19.19631                     211.99037                    -219.27040
                     -22.30208                     242.53670                    -252.23067
                     -25.47937                     273.48818                    -285.63410
                     -28.67141                     304.58924                    -319.34730
                     -31.79773                     335.52132                    -353.20052
                     -34.75936                     365.95562                    -387.07706
                     -37.44395                     395.62388                    -420.99188
                     -39.37177                     419.63481                    -449.43870
                     -40.66304                     438.31778                    -472.55148
                     -41.64367                     456.20520                    -496.58752
                     -42.06169                     465.38621                    -508.56729
        </DataArray>
        <DataArray type="Float32" Name="OrientationX" NumberOfComponents="3" format="ascii">
                       0.95671                      -0.19833                      -0.21303
                       0.95669                      -0.19806                      -0.21334
                       0.95657                      -0.19738                      -0.21449
                       0.95635                      -0.19649                      -0.21629
                       0.95593                      -0.19522                      -0.21930
                       0.96402                      -0.17131                      -0.20325
                       0.96878                      -0.15502                      -0.19347
                       0.97206                      -0.14340                      -0.18583
                       0.97485                      -0.13499                      -0.17733
                       0.97698                      -0.13155                      -0.16797
                       0.97799                      -0.13565                      -0.15854
                       0.97793                      -0.14749                      -0.14800
                       0.97607                      -0.16884                      -0.13707
                       0.97124                      -0.20141                      -0.12701
                       0.96367                      -0.24125                      -0.11461
                       0.95498                      -0.27854                      -0.10217
                       0.94615                      -0.31063                      -0.09111
                       0.93471                      -0.34599                      -0.08127
                       0.92777                      -0.36506                      -0.07734
        </DataArray>
        <DataArray type="Float32" Name="OrientationY" NumberOfComponents="3" format="ascii">
                       0.29005                       0.71050                       0.64114
                       0.29007                       0.71045                       0.64119
                       0.29035                       0.71026                       0.64127
                       0.29091                       0.71000                       0.64130
                       0.29203                       0.70960                       0.64124
                       0.26359                       0.71482                       0.64773
                       0.24501                       0.71772                       0.65180
                       0.23132                       0.71957                       0.65476
                       0.21940                       0.72100                       0.65729
                       0.21054                       0.72192                       0.65917
                       0.20716                       0.72212                       0.66003
                       0.20873                       0.72168                       0.66000
                       0.21711                       0.72021                       0.65891
                       0.23452                       0.71681                       0.65664
                       0.25598                       0.71175                       0.65413
                       0.27573                       0.70614                       0.65218
                       0.29266                       0.70049                       0.65090
                       0.31291                       0.69270                       0.64981
                       0.32471                       0.68765                       0.64939
        </DataArray>
        <DataArray type="Float32" Name="OrientationZ" NumberOfComponents="3" format="ascii">
                       0.02420                      -0.67518                       0.73726
                       0.02457                      -0.67530                       0.73713
                       0.02577                      -0.67570                       0.73673
                       0.02756                      -0.67623                       0.73617
                       0.03043                      -0.67702                       0.73534
                       0.03433                      -0.67800                       0.73426
                       0.03782                      -0.67885                       0.73330
                       0.03982                      -0.67945                       0.73264
                       0.03913                      -0.67966                       0.73248
                       0.03454                      -0.67936                       0.73299
                       0.02495                      -0.67834                       0.73432
                       0.00946                      -0.67633                       0.73654
                      -0.01253                      -0.67290                       0.73962
                      -0.04121                      -0.66754                       0.74343
                      -0.07623                      -0.65970                       0.74765
                      -0.10951                      -0.65099                       0.75114
                      -0.13837                      -0.64251                       0.75368
                      -0.16853                      -0.63282                       0.75574
                      -0.18388                      -0.62760                       0.75651
        </DataArray>
        <DataArray type="Float32" Name="Force" NumberOfComponents="3" format="ascii">
                       2.55011                      30.29592                      27.66098
                     508.08414                     178.76371                     146.77548
                     706.75567                     461.50696                     397.98121
                     687.21726                     643.87576                     564.13595
                    5089.00879                   -1456.62911                   -1546.17703
                    5811.14035                   -1284.48865                   -1450.34706
                    6522.59819                   -1177.93279                   -1418.11793
                    8616.59192                   -1341.48861                   -1700.88440
                    9294.24465                   -1235.80875                   -1632.19705
                   10062.99315                   -1225.06858                   -1599.66599
                   12475.74563                   -1446.01891                   -1750.86957
                   12217.11575                   -1448.28131                   -1482.35444
                    8794.55564                   -1116.82587                    -867.73916
                    3207.56235                    -304.50113                     -96.09615
                    -781.42642                     383.48133                     265.34869
                   -8935.57063                    2124.02745                     572.55719
                  -15899.22276                    3914.15365                     491.32409
                  -17879.48993                    4798.03278                     136.38839
                  -41287.42890                    9203.86429                   -2272.77561
        </DataArray>
        <DataArray type="Float32" Name="Moment" NumberOfComponents="3" format="ascii">
                       0.00000                       0.00000                       0.00000
                       0.00000                       0.00000                       0.00000
                       0.00000                       0.00000                       0.00000
                       0.00000                       0.00000                       0.00000
                     -71.57928                    1581.15210                   -1725.17099
                    -151.73172                    2967.02213                   -3235.66729
                    -221.32122                    3923.87903                   -4277.25722
                    -344.70519                    5800.00946                   -6320.72973
                    -481.89340                    8247.15808                   -8988.34202
                    -478.17789                    9264.92571                  -10103.40303
                    -376.76224                   10095.09349                  -11022.00087
                    -150.72223                   10622.95505                  -11620.98464
                     149.49712                    7971.76919                   -8744.92896
                     471.67927                    7614.11081                   -8382.90313
                     799.10432                    6935.36043                   -7669.68197
                    1068.71770                    6417.14602                   -7126.95942
                    1192.10854                    5630.16759                   -6276.39034
                     710.65470                    2735.21841                   -3061.28715
                      87.28618                     306.63556                    -343.89220
        </DataArray>
      </PointData>
      <Lines>
        <DataArray type="Int32" Name="connectivity" format="ascii">
      0      1
      1      2
      2      3
      3      4
      4      5
      5      6
      6      7
      7      8
      8      9
      9     10
     10     11
     11     12
     12     13
     13     14
     14     15
     15     16
     16     17
     17     18
        </DataArray>
        <DataArray type="Int32" Name="offsets" format="ascii">
      2
      4
      6
      8
     10
     12
     14
     16
     18
     20
     22
     24
     26
     28
     30
     32
     34
     36
        </DataArray>
      </Lines>
    </Piece>
  </PolyData>
</VTKFile>
