<?xml version="1.0"?>
<VTKFile type="PolyData" version="0.1" byte_order="LittleEndian">
  <PolyData>
    <Piece NumberOfPoints="     19" NumberOfVerts="  0" NumberOfLines="     18"
           NumberOfStrips="  0" NumberOfPolys="      0">
      <Points>
        <DataArray type="Float32" NumberOfComponents="3" format="ascii">
                      -4.67569                       0.87996                      91.23090
                      -4.63340                       1.68766                      92.33294
                      -4.56615                       3.22751                      94.59433
                      -4.50491                       4.73262                      96.88259
                      -4.42729                       6.59470                      99.75817
                      -4.27886                       8.94875                     103.11884
                      -4.10428                      11.41155                     106.39823
                      -3.93054                      13.88086                     109.67362
                      -3.76725                      16.35905                     112.94414
                      -3.63106                      18.84562                     116.21098
                      -3.54267                      21.33865                     119.47561
                      -3.52391                      23.84027                     122.73518
                      -3.60050                      26.35121                     125.98613
                      -3.80039                      28.87186                     129.22283
                      -4.15078                      31.40203                     132.43755
                      -4.58296                      33.51764                     135.09144
                      -5.02746                      35.22012                     137.18887
                      -5.56065                      36.96886                     139.23063
                      -5.87680                      37.81135                     140.26504
        </DataArray>
      </Points>
      <PointData>
        <DataArray type="Float32" Name="TranslationalVelocity" NumberOfComponents="3" format="ascii">
                       0.25346                      -3.98029                       2.89862
                       0.49620                      -7.60313                       5.54429
                       0.96219                     -15.03429                      10.59053
                       1.42577                     -22.55647                      15.52596
                       2.01653                     -32.01779                      21.63607
                       2.79175                     -43.10611                      29.36664
                       3.63504                     -53.95048                      37.46254
                       4.51375                     -64.79655                      45.58960
                       5.42260                     -75.63795                      53.75674
                       6.35228                     -86.47241                      61.96315
                       7.29046                     -97.29705                      70.20294
                       8.22410                    -108.09411                      78.48273
                       9.13848                    -118.84227                      86.80355
                      10.01822                    -129.51273                      95.16411
                      10.84788                    -140.07023                     103.55973
                      11.48925                    -148.74615                     110.57807
                      11.96730                    -155.57365                     116.22193
                      12.42111                    -162.19111                     122.01304
                      12.62347                    -165.53041                     124.79954
        </DataArray>
        <DataArray type="Float32" Name="RotationalVelocity" NumberOfComponents="3" format="ascii">
                       3.27512                      -0.00270                      -0.30253
                       3.27576                      -0.00216                      -0.30295
                       3.27740                      -0.00028                      -0.30438
                       3.27947                       0.00256                      -0.30652
                       3.28250                       0.00712                      -0.30992
                       3.28659                       0.01356                      -0.31464
                       3.29093                       0.02030                      -0.31942
                       3.29532                       0.02659                      -0.32364
                       3.29959                       0.03172                      -0.32667
                       3.30358                       0.03504                      -0.32801
                       3.30716                       0.03601                      -0.32723
                       3.31020                       0.03424                      -0.32412
                       3.31257                       0.02952                      -0.31864
                       3.31415                       0.02185                      -0.31102
                       3.31480                       0.01150                      -0.30179
                       3.31453                       0.00125                      -0.29347
                       3.31369                      -0.00775                      -0.28688
                       3.31224                      -0.01708                      -0.28083
                       3.31126                      -0.02174                      -0.27818
        </DataArray>
        <DataArray type="Float32" Name="TranslationalAcceleration" NumberOfComponents="3" format="ascii">
                      -1.11755                      -9.67442                     -12.85646
                      -1.41156                     -11.64005                     -15.69432
                      -4.16690                     -32.48937                     -45.53684
                      -6.79162                     -51.22335                     -73.35486
                      -9.88943                     -72.81525                    -106.14650
                     -13.24950                     -98.61118                    -142.69718
                     -16.25520                    -125.00255                    -177.56614
                     -18.98811                    -151.51656                    -212.36194
                     -21.48663                    -178.50906                    -247.46901
                     -23.83026                    -206.07607                    -282.99438
                     -26.15430                    -234.13233                    -318.84274
                     -28.66576                    -262.53394                    -354.76413
                     -31.66123                    -291.08530                    -390.48378
                     -35.54275                    -319.61551                    -425.78378
                     -40.83402                    -348.03625                    -460.60139
                     -46.83637                    -371.68439                    -489.36045
                     -52.96682                    -390.72965                    -512.32974
                     -60.65859                    -410.43515                    -535.22609
                     -65.09373                    -420.07145                    -547.10886
        </DataArray>
        <DataArray type="Float32" Name="OrientationX" NumberOfComponents="3" format="ascii">
                       0.98381                      -0.16009                       0.08059
                       0.98380                      -0.16024                       0.08042
                       0.98372                      -0.16091                       0.08003
                       0.98358                      -0.16203                       0.07952
                       0.98330                      -0.16403                       0.07889
                       0.98805                      -0.14207                       0.05978
                       0.99064                      -0.12797                       0.04753
                       0.99233                      -0.11698                       0.03994
                       0.99372                      -0.10587                       0.03611
                       0.99476                      -0.09497                       0.03781
                       0.99520                      -0.08559                       0.04738
                       0.99492                      -0.07671                       0.06517
                       0.99328                      -0.06941                       0.09265
                       0.98922                      -0.06528                       0.13109
                       0.98239                      -0.06041                       0.17682
                       0.97420                      -0.05521                       0.21881
                       0.96582                      -0.05050                       0.25426
                       0.95521                      -0.04775                       0.29205
                       0.94894                      -0.04768                       0.31184
        </DataArray>
        <DataArray type="Float32" Name="OrientationY" NumberOfComponents="3" format="ascii">
                       0.17661                       0.78930                      -0.58806
                       0.17663                       0.78916                      -0.58824
                       0.17691                       0.78877                      -0.58869
                       0.17749                       0.78823                      -0.58923
                       0.17868                       0.78738                      -0.59000
                       0.14964                       0.79104                      -0.59318
                       0.13097                       0.79276                      -0.59530
                       0.11759                       0.79367                      -0.59688
                       0.10636                       0.79430                      -0.59815
                       0.09863                       0.79457                      -0.59910
                       0.09687                       0.79433                      -0.59971
                       0.10050                       0.79368                      -0.59997
                       0.11130                       0.79256                      -0.59955
                       0.13139                       0.79092                      -0.59765
                       0.15546                       0.78924                      -0.59408
                       0.17709                       0.78801                      -0.58964
                       0.19515                       0.78729                      -0.58489
                       0.21609                       0.78680                      -0.57814
                       0.22805                       0.78669                      -0.57369
        </DataArray>
        <DataArray type="Float32" Name="OrientationZ" NumberOfComponents="3" format="ascii">
                       0.03053                       0.59277                       0.80480
                       0.03079                       0.59291                       0.80468
                       0.03160                       0.59326                       0.80439
                       0.03279                       0.59367                       0.80404
                       0.03466                       0.59424                       0.80354
                       0.03698                       0.59504                       0.80285
                       0.03850                       0.59595                       0.80210
                       0.03813                       0.59700                       0.80133
                       0.03465                       0.59823                       0.80057
                       0.02686                       0.59969                       0.79978
                       0.01369                       0.60143                       0.79881
                      -0.00570                       0.60347                       0.79736
                      -0.03182                       0.60583                       0.79496
                      -0.06467                       0.60843                       0.79097
                      -0.10366                       0.61111                       0.78473
                      -0.13987                       0.61318                       0.77746
                      -0.17064                       0.61452                       0.77023
                      -0.20218                       0.61535                       0.76188
                      -0.21796                       0.61551                       0.75739
        </DataArray>
        <DataArray type="Float32" Name="Force" NumberOfComponents="3" format="ascii">
                      -0.87116                      12.84487                      -9.42774
                     461.81432                     170.20358                    -143.04234
                     602.81669                     453.34395                    -357.64322
                     558.51578                     643.07255                    -496.57492
                    5074.99508                   -1311.39794                     747.16113
                    5844.79841                   -1121.48109                     556.94015
                    6542.99628                   -1001.88668                     423.84910
                    8559.19825                   -1094.64086                     398.48806
                    9103.98923                    -925.17547                     285.83142
                    9674.86626                    -792.25087                     254.99389
                   11755.22244                    -717.90671                     319.16531
                   11094.72249                    -453.69393                     400.23230
                    7204.34521                    -106.24055                     352.29583
                    1227.73763                     227.36045                     -69.39365
                   -3671.99974                     238.79764                    -637.42178
                  -12333.29285                     -52.73067                   -2074.87068
                  -19380.34139                    -583.28436                   -3647.72979
                  -20024.67749                    -923.55685                   -4342.50396
                  -39651.56620                   -3957.67979                   -7882.42406
        </DataArray>
        <DataArray type="Float32" Name="Moment" NumberOfComponents="3" format="ascii">
                       0.00000                       0.00000                       0.00000
                       0.00000                       0.00000                       0.00000
                       0.00000                       0.00000                       0.00000
                       0.00000                       0.00000                       0.00000
                     -76.75228                   -1309.42927                   -1776.94653
                    -154.30945                   -2464.92350                   -3344.08910
                    -213.43023                   -3270.68168                   -4436.43555
                    -312.91490                   -4833.58362                   -6556.62669
                    -406.03757                   -6879.86150                   -9335.98377
                    -356.86387                   -7742.68280                  -10516.08297
                    -203.96939                   -8449.46209                  -11493.16611
                      73.77666                   -8905.69449                  -12140.42709
                     346.57813                   -6650.45591                   -9092.97340
                     679.02666                   -6309.69801                   -8659.42550
                    1009.20936                   -5791.01138                   -7983.24830
                    1286.38964                   -5423.85057                   -7508.62063
                    1379.42907                   -4730.43904                   -6572.47567
                     789.71557                   -2265.62300                   -3159.78250
                    -107.01060                     283.40193                     396.01062
        </DataArray>
      </PointData>
      <Lines>
        <DataArray type="Int32" Name="connectivity" format="ascii">
      0      1
      1      2
      2      3
      3      4
      4      5
      5      6
      6      7
      7      8
      8      9
      9     10
     10     11
     11     12
     12     13
     13     14
     14     15
     15     16
     16     17
     17     18
        </DataArray>
        <DataArray type="Int32" Name="offsets" format="ascii">
      2
      4
      6
      8
     10
     12
     14
     16
     18
     20
     22
     24
     26
     28
     30
     32
     34
     36
        </DataArray>
      </Lines>
    </Piece>
  </PolyData>
</VTKFile>
