<?xml version="1.0"?>
<VTKFile type="PolyData" version="0.1" byte_order="LittleEndian">
  <PolyData>
    <Piece NumberOfPoints="     22" NumberOfVerts="  0" NumberOfLines="     21"
           NumberOfStrips="  0" NumberOfPolys="      0">
      <Points>
        <DataArray type="Float32" NumberOfComponents="3" format="ascii">
                       0.00012                      -0.00000                       2.19000
                       0.00122                      -0.00000                       6.57000
                       0.00364                      -0.00001                      10.95000
                       0.00750                      -0.00002                      15.33000
                       0.01282                      -0.00003                      19.70999
                       0.01956                      -0.00006                      24.08999
                       0.02768                      -0.00011                      28.46998
                       0.03712                      -0.00017                      32.84997
                       0.04785                      -0.00027                      37.22996
                       0.05988                      -0.00040                      41.60994
                       0.07323                      -0.00056                      45.98992
                       0.08797                      -0.00078                      50.36990
                       0.10416                      -0.00104                      54.74987
                       0.12187                      -0.00136                      59.12983
                       0.14113                      -0.00174                      63.50979
                       0.16188                      -0.00219                      67.88974
                       0.18398                      -0.00269                      72.26968
                       0.20709                      -0.00325                      76.64962
                       0.23069                      -0.00387                      81.02956
                       0.25392                      -0.00452                      85.40950
                       0.26505                      -0.00486                      87.59947
                       0.00000                       0.00000                       0.00000
        </DataArray>
      </Points>
      <PointData>
        <DataArray type="Float32" Name="TranslationalVelocity" NumberOfComponents="3" format="ascii">
                      -0.00014                      -0.00003                       0.00000
                      -0.00131                      -0.00022                       0.00000
                      -0.00367                      -0.00057                       0.00000
                      -0.00715                      -0.00106                       0.00000
                      -0.01158                      -0.00166                       0.00001
                      -0.01673                      -0.00235                       0.00002
                      -0.02232                      -0.00312                       0.00003
                      -0.02802                      -0.00395                       0.00004
                      -0.03351                      -0.00482                       0.00005
                      -0.03844                      -0.00571                       0.00007
                      -0.04249                      -0.00661                       0.00008
                      -0.04537                      -0.00749                       0.00009
                      -0.04681                      -0.00833                       0.00009
                      -0.04660                      -0.00910                       0.00009
                      -0.04459                      -0.00979                       0.00008
                      -0.04071                      -0.01037                       0.00007
                      -0.03495                      -0.01084                       0.00004
                      -0.02741                      -0.01120                      -0.00000
                      -0.01826                      -0.01144                      -0.00005
                      -0.00779                      -0.01159                      -0.00011
                      -0.00218                      -0.01164                      -0.00014
                       0.00000                      -0.00000                       0.00000
        </DataArray>
        <DataArray type="Float32" Name="RotationalVelocity" NumberOfComponents="3" format="ascii">
                       0.00002                      -0.00013                       0.00000
                       0.00006                      -0.00040                       0.00000
                       0.00010                      -0.00067                       0.00000
                       0.00012                      -0.00091                       0.00000
                       0.00015                      -0.00110                       0.00000
                       0.00017                      -0.00124                       0.00000
                       0.00018                      -0.00130                       0.00000
                       0.00019                      -0.00129                       0.00000
                       0.00020                      -0.00120                       0.00000
                       0.00021                      -0.00104                       0.00000
                       0.00020                      -0.00080                       0.00000
                       0.00020                      -0.00050                       0.00000
                       0.00018                      -0.00015                       0.00000
                       0.00017                       0.00025                       0.00000
                       0.00015                       0.00067                       0.00000
                       0.00012                       0.00110                       0.00000
                       0.00009                       0.00152                       0.00000
                       0.00007                       0.00191                       0.00000
                       0.00004                       0.00225                       0.00000
                       0.00003                       0.00251                       0.00000
                       0.00002                       0.00261                       0.00000
                       0.00000                      -0.00000                       0.00000
        </DataArray>
        <DataArray type="Float32" Name="TranslationalAcceleration" NumberOfComponents="3" format="ascii">
                       0.00150                      -0.00091                      -0.00000
                       0.01380                      -0.00759                      -0.00000
                       0.03865                      -0.01966                      -0.00002
                       0.07520                      -0.03599                      -0.00006
                       0.12170                      -0.05560                      -0.00012
                       0.17567                      -0.07756                      -0.00021
                       0.23409                      -0.10094                      -0.00032
                       0.29357                      -0.12476                      -0.00046
                       0.35055                      -0.14797                      -0.00060
                       0.40144                      -0.16942                      -0.00075
                       0.44278                      -0.18790                      -0.00088
                       0.47137                      -0.20217                      -0.00098
                       0.48442                      -0.21096                      -0.00102
                       0.47969                      -0.21310                      -0.00100
                       0.45558                      -0.20757                      -0.00089
                       0.41127                      -0.19359                      -0.00069
                       0.34677                      -0.17079                      -0.00036
                       0.26307                      -0.13931                       0.00007
                       0.16221                      -0.09995                       0.00059
                       0.04732                      -0.05439                       0.00118
                      -0.01407                      -0.03008                       0.00148
                       0.00000                      -0.00000                       0.00000
        </DataArray>
        <DataArray type="Float32" Name="RotationalAcceleration" NumberOfComponents="3" format="ascii">
                       0.00081                       0.00138                       0.00000
                       0.00219                       0.00425                       0.00000
                       0.00328                       0.00706                       0.00000
                       0.00414                       0.00956                       0.00000
                       0.00478                       0.01158                       0.00000
                       0.00521                       0.01295                       0.00000
                       0.00543                       0.01359                       0.00000
                       0.00541                       0.01343                       0.00000
                       0.00514                       0.01245                       0.00000
                       0.00461                       0.01066                       0.00000
                       0.00379                       0.00810                       0.00000
                       0.00268                       0.00485                       0.00000
                       0.00129                       0.00102                       0.00000
                      -0.00035                      -0.00324                       0.00000
                      -0.00220                      -0.00780                       0.00000
                      -0.00419                      -0.01244                       0.00000
                      -0.00621                      -0.01697                       0.00000
                      -0.00813                      -0.02117                       0.00000
                      -0.00978                      -0.02477                       0.00000
                      -0.01092                      -0.02753                       0.00000
                      -0.01123                      -0.02850                       0.00000
                       0.00000                      -0.00000                       0.00000
        </DataArray>
        <DataArray type="Float32" Name="OrientationX" NumberOfComponents="3" format="ascii">
                       1.00000                       0.00000                      -0.00011
                       1.00000                       0.00000                      -0.00040
                       1.00000                       0.00000                      -0.00072
                       1.00000                       0.00000                      -0.00105
                       1.00000                       0.00000                      -0.00138
                       1.00000                       0.00000                      -0.00170
                       1.00000                       0.00000                      -0.00201
                       1.00000                       0.00000                      -0.00230
                       1.00000                       0.00000                      -0.00260
                       1.00000                       0.00000                      -0.00290
                       0.99999                       0.00000                      -0.00320
                       0.99999                       0.00000                      -0.00353
                       0.99999                       0.00000                      -0.00387
                       0.99999                       0.00000                      -0.00422
                       0.99999                       0.00000                      -0.00457
                       0.99999                       0.00000                      -0.00490
                       0.99999                       0.00000                      -0.00518
                       0.99999                       0.00000                      -0.00536
                       0.99999                       0.00000                      -0.00538
                       0.99999                       0.00000                      -0.00518
                       0.99999                       0.00000                      -0.00497
                       1.00000                      -0.00000                       0.00000
        </DataArray>
        <DataArray type="Float32" Name="OrientationY" NumberOfComponents="3" format="ascii">
                       0.00000                       1.00000                       0.00000
                       0.00000                       1.00000                       0.00000
                       0.00000                       1.00000                       0.00000
                       0.00000                       1.00000                       0.00000
                       0.00000                       1.00000                       0.00001
                       0.00000                       1.00000                       0.00001
                       0.00000                       1.00000                       0.00001
                       0.00000                       1.00000                       0.00002
                       0.00000                       1.00000                       0.00003
                       0.00000                       1.00000                       0.00003
                       0.00000                       1.00000                       0.00004
                       0.00000                       1.00000                       0.00005
                       0.00000                       1.00000                       0.00007
                       0.00000                       1.00000                       0.00008
                       0.00000                       1.00000                       0.00009
                       0.00000                       1.00000                       0.00011
                       0.00000                       1.00000                       0.00012
                       0.00000                       1.00000                       0.00013
                       0.00000                       1.00000                       0.00015
                       0.00000                       1.00000                       0.00015
                       0.00000                       1.00000                       0.00015
                      -0.00000                       1.00000                      -0.00000
        </DataArray>
        <DataArray type="Float32" Name="OrientationZ" NumberOfComponents="3" format="ascii">
                       0.00011                      -0.00000                       1.00000
                       0.00040                      -0.00000                       1.00000
                       0.00072                      -0.00000                       1.00000
                       0.00105                      -0.00000                       1.00000
                       0.00138                      -0.00001                       1.00000
                       0.00170                      -0.00001                       1.00000
                       0.00201                      -0.00001                       1.00000
                       0.00230                      -0.00002                       1.00000
                       0.00260                      -0.00003                       1.00000
                       0.00290                      -0.00003                       1.00000
                       0.00320                      -0.00004                       0.99999
                       0.00353                      -0.00005                       0.99999
                       0.00387                      -0.00007                       0.99999
                       0.00422                      -0.00008                       0.99999
                       0.00457                      -0.00009                       0.99999
                       0.00490                      -0.00011                       0.99999
                       0.00518                      -0.00012                       0.99999
                       0.00536                      -0.00013                       0.99999
                       0.00538                      -0.00015                       0.99999
                       0.00518                      -0.00015                       0.99999
                       0.00497                      -0.00015                       0.99999
                       0.00000                      -0.00000                       1.00000
        </DataArray>
      </PointData>
      <Lines>
        <DataArray type="Int32" Name="connectivity" format="ascii">
      0      1
      1      2
      2      3
      3      4
      4      5
      5      6
      6      7
      7      8
      8      9
      9     10
     10     11
     11     12
     12     13
     13     14
     14     15
     15     16
     16     17
     17     18
     18     19
     19     20
     21      0
        </DataArray>
        <DataArray type="Int32" Name="offsets" format="ascii">
      2
      4
      6
      8
     10
     12
     14
     16
     18
     20
     22
     24
     26
     28
     30
     32
     34
     36
     38
     40
     42
        </DataArray>
      </Lines>
    </Piece>
  </PolyData>
</VTKFile>
