<?xml version="1.0"?>
<VTKFile type="PolyData" version="0.1" byte_order="LittleEndian">
  <PolyData>
    <Piece NumberOfPoints="     22" NumberOfVerts="  0" NumberOfLines="     21"
           NumberOfStrips="  0" NumberOfPolys="      0">
      <Points>
        <DataArray type="Float32" NumberOfComponents="3" format="ascii">
                       0.00012                      -0.00001                       2.19000
                       0.00116                      -0.00010                       6.57000
                       0.00347                      -0.00025                      10.95000
                       0.00714                      -0.00048                      15.33000
                       0.01220                      -0.00077                      19.70999
                       0.01860                      -0.00112                      24.08999
                       0.02630                      -0.00155                      28.46998
                       0.03524                      -0.00205                      32.84997
                       0.04539                      -0.00262                      37.22996
                       0.05675                      -0.00328                      41.60995
                       0.06933                      -0.00403                      45.98993
                       0.08320                      -0.00488                      50.36991
                       0.09841                      -0.00582                      54.74988
                       0.11502                      -0.00687                      59.12985
                       0.13305                      -0.00801                      63.50981
                       0.15247                      -0.00925                      67.88977
                       0.17311                      -0.01057                      72.26972
                       0.19468                      -0.01198                      76.64967
                       0.21668                      -0.01345                      81.02961
                       0.23832                      -0.01498                      85.40956
                       0.24868                      -0.01576                      87.59953
                       0.00000                       0.00000                       0.00000
        </DataArray>
      </Points>
      <PointData>
        <DataArray type="Float32" Name="TranslationalVelocity" NumberOfComponents="3" format="ascii">
                      -0.00011                      -0.00002                       0.00000
                      -0.00103                      -0.00016                       0.00000
                      -0.00284                      -0.00042                       0.00000
                      -0.00546                      -0.00080                       0.00000
                      -0.00870                      -0.00129                       0.00001
                      -0.01236                      -0.00189                       0.00001
                      -0.01618                      -0.00261                       0.00002
                      -0.01984                      -0.00345                       0.00003
                      -0.02303                      -0.00444                       0.00003
                      -0.02543                      -0.00558                       0.00004
                      -0.02670                      -0.00687                       0.00004
                      -0.02656                      -0.00834                       0.00004
                      -0.02473                      -0.00999                       0.00003
                      -0.02100                      -0.01181                       0.00002
                      -0.01521                      -0.01382                      -0.00000
                      -0.00730                      -0.01600                      -0.00004
                       0.00269                      -0.01835                      -0.00009
                       0.01463                      -0.02085                      -0.00015
                       0.02823                      -0.02348                      -0.00022
                       0.04303                      -0.02621                      -0.00029
                       0.05070                      -0.02760                      -0.00033
                       0.00000                      -0.00000                       0.00000
        </DataArray>
        <DataArray type="Float32" Name="RotationalVelocity" NumberOfComponents="3" format="ascii">
                       0.00002                      -0.00010                       0.00000
                       0.00005                      -0.00031                       0.00000
                       0.00007                      -0.00051                       0.00000
                       0.00010                      -0.00068                       0.00000
                       0.00012                      -0.00080                       0.00000
                       0.00015                      -0.00086                       0.00000
                       0.00018                      -0.00086                       0.00000
                       0.00021                      -0.00079                       0.00000
                       0.00024                      -0.00065                       0.00000
                       0.00028                      -0.00043                       0.00000
                       0.00032                      -0.00014                       0.00000
                       0.00036                       0.00022                       0.00000
                       0.00040                       0.00063                       0.00000
                       0.00044                       0.00108                       0.00000
                       0.00048                       0.00156                       0.00000
                       0.00052                       0.00205                       0.00000
                       0.00055                       0.00251                       0.00000
                       0.00059                       0.00293                       0.00000
                       0.00061                       0.00326                       0.00000
                       0.00063                       0.00348                       0.00000
                       0.00064                       0.00352                       0.00000
                       0.00000                      -0.00000                       0.00000
        </DataArray>
        <DataArray type="Float32" Name="TranslationalAcceleration" NumberOfComponents="3" format="ascii">
                       0.00223                      -0.00073                      -0.00000
                       0.02050                      -0.00609                      -0.00001
                       0.05727                      -0.01576                      -0.00003
                       0.11117                      -0.02882                      -0.00008
                       0.17949                      -0.04444                      -0.00016
                       0.25843                      -0.06186                      -0.00028
                       0.34337                      -0.08028                      -0.00043
                       0.42913                      -0.09887                      -0.00061
                       0.51025                      -0.11674                      -0.00080
                       0.58120                      -0.13291                      -0.00099
                       0.63661                      -0.14637                      -0.00115
                       0.67153                      -0.15604                      -0.00126
                       0.68165                      -0.16087                      -0.00129
                       0.66344                      -0.15988                      -0.00123
                       0.61444                      -0.15220                      -0.00103
                       0.53340                      -0.13722                      -0.00068
                       0.42046                      -0.11461                      -0.00016
                       0.27733                      -0.08453                       0.00052
                       0.10747                      -0.04768                       0.00133
                      -0.08377                      -0.00550                       0.00223
                      -0.18516                       0.01690                       0.00270
                       0.00000                      -0.00000                       0.00000
        </DataArray>
        <DataArray type="Float32" Name="RotationalAcceleration" NumberOfComponents="3" format="ascii">
                       0.00065                       0.00205                       0.00000
                       0.00175                       0.00631                       0.00000
                       0.00263                       0.01043                       0.00000
                       0.00330                       0.01408                       0.00000
                       0.00380                       0.01697                       0.00000
                       0.00412                       0.01890                       0.00000
                       0.00426                       0.01969                       0.00000
                       0.00420                       0.01926                       0.00000
                       0.00392                       0.01757                       0.00000
                       0.00342                       0.01462                       0.00000
                       0.00268                       0.01049                       0.00000
                       0.00170                       0.00529                       0.00000
                       0.00047                      -0.00081                       0.00000
                      -0.00096                      -0.00760                       0.00000
                      -0.00257                      -0.01482                       0.00000
                      -0.00429                      -0.02218                       0.00000
                      -0.00603                      -0.02933                       0.00000
                      -0.00768                      -0.03590                       0.00000
                      -0.00909                      -0.04146                       0.00000
                      -0.01008                      -0.04558                       0.00000
                      -0.01034                      -0.04695                       0.00000
                       0.00000                      -0.00000                       0.00000
        </DataArray>
        <DataArray type="Float32" Name="OrientationX" NumberOfComponents="3" format="ascii">
                       1.00000                       0.00000                      -0.00011
                       1.00000                       0.00000                      -0.00038
                       1.00000                       0.00000                      -0.00068
                       1.00000                       0.00000                      -0.00100
                       1.00000                       0.00000                      -0.00131
                       1.00000                       0.00000                      -0.00161
                       1.00000                       0.00000                      -0.00190
                       1.00000                       0.00000                      -0.00218
                       1.00000                       0.00000                      -0.00245
                       1.00000                       0.00000                      -0.00273
                       1.00000                       0.00000                      -0.00302
                       0.99999                       0.00000                      -0.00332
                       0.99999                       0.00000                      -0.00363
                       0.99999                       0.00000                      -0.00395
                       0.99999                       0.00000                      -0.00428
                       0.99999                       0.00000                      -0.00458
                       0.99999                       0.00000                      -0.00483
                       0.99999                       0.00000                      -0.00500
                       0.99999                       0.00000                      -0.00502
                       0.99999                       0.00000                      -0.00482
                       0.99999                       0.00000                      -0.00462
                       1.00000                      -0.00000                       0.00000
        </DataArray>
        <DataArray type="Float32" Name="OrientationY" NumberOfComponents="3" format="ascii">
                       0.00000                       1.00000                       0.00001
                       0.00000                       1.00000                       0.00003
                       0.00000                       1.00000                       0.00004
                       0.00000                       1.00000                       0.00006
                       0.00000                       1.00000                       0.00007
                       0.00000                       1.00000                       0.00009
                       0.00000                       1.00000                       0.00011
                       0.00000                       1.00000                       0.00012
                       0.00000                       1.00000                       0.00014
                       0.00000                       1.00000                       0.00016
                       0.00000                       1.00000                       0.00018
                       0.00000                       1.00000                       0.00020
                       0.00000                       1.00000                       0.00023
                       0.00000                       1.00000                       0.00025
                       0.00000                       1.00000                       0.00027
                       0.00000                       1.00000                       0.00029
                       0.00000                       1.00000                       0.00031
                       0.00000                       1.00000                       0.00033
                       0.00000                       1.00000                       0.00034
                       0.00000                       1.00000                       0.00035
                       0.00000                       1.00000                       0.00036
                      -0.00000                       1.00000                      -0.00000
        </DataArray>
        <DataArray type="Float32" Name="OrientationZ" NumberOfComponents="3" format="ascii">
                       0.00011                      -0.00001                       1.00000
                       0.00038                      -0.00003                       1.00000
                       0.00068                      -0.00004                       1.00000
                       0.00100                      -0.00006                       1.00000
                       0.00131                      -0.00007                       1.00000
                       0.00161                      -0.00009                       1.00000
                       0.00190                      -0.00011                       1.00000
                       0.00218                      -0.00012                       1.00000
                       0.00245                      -0.00014                       1.00000
                       0.00273                      -0.00016                       1.00000
                       0.00302                      -0.00018                       1.00000
                       0.00332                      -0.00020                       0.99999
                       0.00363                      -0.00023                       0.99999
                       0.00395                      -0.00025                       0.99999
                       0.00428                      -0.00027                       0.99999
                       0.00458                      -0.00029                       0.99999
                       0.00483                      -0.00031                       0.99999
                       0.00500                      -0.00033                       0.99999
                       0.00502                      -0.00034                       0.99999
                       0.00482                      -0.00035                       0.99999
                       0.00462                      -0.00036                       0.99999
                       0.00000                      -0.00000                       1.00000
        </DataArray>
      </PointData>
      <Lines>
        <DataArray type="Int32" Name="connectivity" format="ascii">
      0      1
      1      2
      2      3
      3      4
      4      5
      5      6
      6      7
      7      8
      8      9
      9     10
     10     11
     11     12
     12     13
     13     14
     14     15
     15     16
     16     17
     17     18
     18     19
     19     20
     21      0
        </DataArray>
        <DataArray type="Int32" Name="offsets" format="ascii">
      2
      4
      6
      8
     10
     12
     14
     16
     18
     20
     22
     24
     26
     28
     30
     32
     34
     36
     38
     40
     42
        </DataArray>
      </Lines>
    </Piece>
  </PolyData>
</VTKFile>
