<?xml version="1.0"?>
<VTKFile type="PolyData" version="0.1" byte_order="LittleEndian">
  <PolyData>
    <Piece NumberOfPoints="     22" NumberOfVerts="  0" NumberOfLines="     21"
           NumberOfStrips="  0" NumberOfPolys="      0">
      <Points>
        <DataArray type="Float32" NumberOfComponents="3" format="ascii">
                       0.00015                      -0.00000                       2.19000
                       0.00153                      -0.00002                       6.57000
                       0.00456                      -0.00006                      10.95000
                       0.00940                      -0.00012                      15.33000
                       0.01605                      -0.00020                      19.70999
                       0.02449                      -0.00030                      24.08998
                       0.03463                      -0.00043                      28.46997
                       0.04641                      -0.00058                      32.84995
                       0.05980                      -0.00077                      37.22993
                       0.07480                      -0.00099                      41.60991
                       0.09142                      -0.00125                      45.98988
                       0.10975                      -0.00156                      50.36984
                       0.12987                      -0.00192                      54.74979
                       0.15185                      -0.00233                      59.12974
                       0.17573                      -0.00280                      63.50967
                       0.20145                      -0.00331                      67.88960
                       0.22882                      -0.00388                      72.26951
                       0.25743                      -0.00450                      76.64942
                       0.28661                      -0.00516                      81.02932
                       0.31534                      -0.00586                      85.40923
                       0.32909                      -0.00621                      87.59918
                       0.00000                       0.00000                       0.00000
        </DataArray>
      </Points>
      <PointData>
        <DataArray type="Float32" Name="TranslationalVelocity" NumberOfComponents="3" format="ascii">
                      -0.00007                      -0.00001                       0.00000
                      -0.00060                      -0.00008                       0.00000
                      -0.00163                      -0.00021                       0.00000
                      -0.00309                      -0.00042                       0.00000
                      -0.00487                      -0.00072                       0.00001
                      -0.00683                      -0.00112                       0.00001
                      -0.00881                      -0.00165                       0.00001
                      -0.01060                      -0.00234                       0.00002
                      -0.01201                      -0.00321                       0.00002
                      -0.01281                      -0.00431                       0.00003
                      -0.01280                      -0.00567                       0.00002
                      -0.01177                      -0.00732                       0.00002
                      -0.00955                      -0.00928                       0.00001
                      -0.00599                      -0.01159                      -0.00001
                      -0.00100                      -0.01427                      -0.00004
                       0.00548                      -0.01731                      -0.00007
                       0.01341                      -0.02071                      -0.00012
                       0.02267                      -0.02446                      -0.00019
                       0.03303                      -0.02850                      -0.00025
                       0.04417                      -0.03277                      -0.00033
                       0.04988                      -0.03497                      -0.00036
                       0.00000                      -0.00000                       0.00000
        </DataArray>
        <DataArray type="Float32" Name="RotationalVelocity" NumberOfComponents="3" format="ascii">
                       0.00001                      -0.00006                       0.00000
                       0.00002                      -0.00018                       0.00000
                       0.00004                      -0.00029                       0.00000
                       0.00006                      -0.00038                       0.00000
                       0.00008                      -0.00043                       0.00000
                       0.00011                      -0.00046                       0.00000
                       0.00014                      -0.00044                       0.00000
                       0.00018                      -0.00037                       0.00000
                       0.00022                      -0.00026                       0.00000
                       0.00028                      -0.00010                       0.00000
                       0.00034                       0.00011                       0.00000
                       0.00041                       0.00036                       0.00000
                       0.00049                       0.00065                       0.00000
                       0.00057                       0.00097                       0.00000
                       0.00065                       0.00131                       0.00000
                       0.00074                       0.00165                       0.00000
                       0.00082                       0.00197                       0.00000
                       0.00089                       0.00225                       0.00000
                       0.00095                       0.00247                       0.00000
                       0.00100                       0.00260                       0.00000
                       0.00101                       0.00262                       0.00000
                       0.00000                      -0.00000                       0.00000
        </DataArray>
        <DataArray type="Float32" Name="TranslationalAcceleration" NumberOfComponents="3" format="ascii">
                       0.00070                      -0.00033                      -0.00000
                       0.00647                      -0.00278                      -0.00000
                       0.01809                      -0.00721                      -0.00001
                       0.03517                      -0.01323                      -0.00003
                       0.05686                      -0.02052                      -0.00007
                       0.08200                      -0.02877                      -0.00012
                       0.10913                      -0.03766                      -0.00018
                       0.13668                      -0.04690                      -0.00025
                       0.16293                      -0.05614                      -0.00033
                       0.18619                      -0.06503                      -0.00041
                       0.20480                      -0.07316                      -0.00048
                       0.21723                      -0.08014                      -0.00054
                       0.22217                      -0.08557                      -0.00056
                       0.21854                      -0.08904                      -0.00055
                       0.20557                      -0.09022                      -0.00048
                       0.18288                      -0.08885                      -0.00036
                       0.15048                      -0.08478                      -0.00017
                       0.10888                      -0.07803                       0.00008
                       0.05907                      -0.06885                       0.00038
                       0.00263                      -0.05774                       0.00072
                      -0.02743                      -0.05172                       0.00089
                       0.00000                      -0.00000                       0.00000
        </DataArray>
        <DataArray type="Float32" Name="RotationalAcceleration" NumberOfComponents="3" format="ascii">
                       0.00030                       0.00065                       0.00000
                       0.00080                       0.00199                       0.00000
                       0.00121                       0.00330                       0.00000
                       0.00153                       0.00446                       0.00000
                       0.00178                       0.00540                       0.00000
                       0.00197                       0.00603                       0.00000
                       0.00208                       0.00631                       0.00000
                       0.00212                       0.00621                       0.00000
                       0.00208                       0.00572                       0.00000
                       0.00196                       0.00484                       0.00000
                       0.00174                       0.00360                       0.00000
                       0.00143                       0.00203                       0.00000
                       0.00103                       0.00018                       0.00000
                       0.00054                      -0.00187                       0.00000
                      -0.00001                      -0.00406                       0.00000
                      -0.00062                      -0.00630                       0.00000
                      -0.00124                      -0.00848                       0.00000
                      -0.00183                      -0.01048                       0.00000
                      -0.00234                      -0.01220                       0.00000
                      -0.00270                      -0.01349                       0.00000
                      -0.00279                      -0.01394                       0.00000
                       0.00000                      -0.00000                       0.00000
        </DataArray>
        <DataArray type="Float32" Name="OrientationX" NumberOfComponents="3" format="ascii">
                       1.00000                       0.00000                      -0.00014
                       1.00000                       0.00000                      -0.00050
                       1.00000                       0.00000                      -0.00090
                       1.00000                       0.00000                      -0.00131
                       1.00000                       0.00000                      -0.00172
                       1.00000                       0.00000                      -0.00212
                       1.00000                       0.00000                      -0.00251
                       1.00000                       0.00000                      -0.00287
                       0.99999                       0.00000                      -0.00324
                       0.99999                       0.00000                      -0.00361
                       0.99999                       0.00000                      -0.00399
                       0.99999                       0.00000                      -0.00439
                       0.99999                       0.00000                      -0.00480
                       0.99999                       0.00000                      -0.00524
                       0.99998                       0.00000                      -0.00567
                       0.99998                       0.00000                      -0.00607
                       0.99998                       0.00000                      -0.00641
                       0.99998                       0.00000                      -0.00663
                       0.99998                       0.00000                      -0.00666
                       0.99998                       0.00000                      -0.00640
                       0.99998                       0.00000                      -0.00614
                       1.00000                      -0.00000                       0.00000
        </DataArray>
        <DataArray type="Float32" Name="OrientationY" NumberOfComponents="3" format="ascii">
                       0.00000                       1.00000                       0.00000
                       0.00000                       1.00000                       0.00001
                       0.00000                       1.00000                       0.00001
                       0.00000                       1.00000                       0.00002
                       0.00000                       1.00000                       0.00002
                       0.00000                       1.00000                       0.00003
                       0.00000                       1.00000                       0.00003
                       0.00000                       1.00000                       0.00004
                       0.00000                       1.00000                       0.00005
                       0.00000                       1.00000                       0.00006
                       0.00000                       1.00000                       0.00007
                       0.00000                       1.00000                       0.00008
                       0.00000                       1.00000                       0.00009
                       0.00000                       1.00000                       0.00010
                       0.00000                       1.00000                       0.00011
                       0.00000                       1.00000                       0.00012
                       0.00000                       1.00000                       0.00014
                       0.00000                       1.00000                       0.00015
                       0.00000                       1.00000                       0.00015
                       0.00000                       1.00000                       0.00016
                       0.00000                       1.00000                       0.00016
                      -0.00000                       1.00000                      -0.00000
        </DataArray>
        <DataArray type="Float32" Name="OrientationZ" NumberOfComponents="3" format="ascii">
                       0.00014                      -0.00000                       1.00000
                       0.00050                      -0.00001                       1.00000
                       0.00090                      -0.00001                       1.00000
                       0.00131                      -0.00002                       1.00000
                       0.00172                      -0.00002                       1.00000
                       0.00212                      -0.00003                       1.00000
                       0.00251                      -0.00003                       1.00000
                       0.00287                      -0.00004                       1.00000
                       0.00324                      -0.00005                       0.99999
                       0.00361                      -0.00006                       0.99999
                       0.00399                      -0.00007                       0.99999
                       0.00439                      -0.00008                       0.99999
                       0.00480                      -0.00009                       0.99999
                       0.00524                      -0.00010                       0.99999
                       0.00567                      -0.00011                       0.99998
                       0.00607                      -0.00012                       0.99998
                       0.00641                      -0.00014                       0.99998
                       0.00663                      -0.00015                       0.99998
                       0.00666                      -0.00015                       0.99998
                       0.00640                      -0.00016                       0.99998
                       0.00614                      -0.00016                       0.99998
                       0.00000                      -0.00000                       1.00000
        </DataArray>
      </PointData>
      <Lines>
        <DataArray type="Int32" Name="connectivity" format="ascii">
      0      1
      1      2
      2      3
      3      4
      4      5
      5      6
      6      7
      7      8
      8      9
      9     10
     10     11
     11     12
     12     13
     13     14
     14     15
     15     16
     16     17
     17     18
     18     19
     19     20
     21      0
        </DataArray>
        <DataArray type="Int32" Name="offsets" format="ascii">
      2
      4
      6
      8
     10
     12
     14
     16
     18
     20
     22
     24
     26
     28
     30
     32
     34
     36
     38
     40
     42
        </DataArray>
      </Lines>
    </Piece>
  </PolyData>
</VTKFile>
