<?xml version="1.0"?>
<VTKFile type="PolyData" version="0.1" byte_order="LittleEndian">
  <PolyData>
    <Piece NumberOfPoints="     19" NumberOfVerts="  0" NumberOfLines="     18"
           NumberOfStrips="  0" NumberOfPolys="      0">
      <Points>
        <DataArray type="Float32" NumberOfComponents="3" format="ascii">
                      -4.67419                       0.84872                      91.25234
                      -4.63010                       1.62891                      92.37395
                      -4.55942                       3.11234                      94.67264
                      -4.49476                       4.56036                      96.99736
                      -4.41279                       6.35063                      99.91806
                      -4.25863                       8.62048                     103.33589
                      -4.07783                      11.00087                     106.67523
                      -3.89762                      13.38775                     110.01079
                      -3.72768                      15.78356                     113.34179
                      -3.58470                      18.18778                     116.66940
                      -3.48950                      20.59855                     119.99504
                      -3.46398                      23.01812                     123.31592
                      -3.53400                      25.44739                     126.62847
                      -3.72758                      27.88695                     129.92706
                      -4.07203                      30.33691                     133.20394
                      -4.49962                      32.38661                     135.90977
                      -4.94068                      34.03722                     138.04897
                      -5.47057                      35.73568                     140.13362
                      -5.78524                      36.55280                     141.18864
        </DataArray>
      </Points>
      <PointData>
        <DataArray type="Float32" Name="TranslationalVelocity" NumberOfComponents="3" format="ascii">
                       0.24612                      -4.05202                       2.80164
                       0.48086                      -7.73969                       5.35720
                       0.92984                     -15.29431                      10.21875
                       1.37590                     -22.93724                      14.96717
                       1.94491                     -32.54821                      20.84187
                       2.69591                     -43.82661                      28.29594
                       3.51757                     -54.87093                      36.12087
                       4.37695                     -65.91850                      43.97665
                       5.26840                     -76.96314                      51.87260
                       6.18165                     -88.00249                      59.80811
                       7.10278                     -99.03340                      67.77744
                       8.01651                    -110.03813                      75.78754
                       8.90528                    -120.99524                      83.83958
                       9.75014                    -131.87583                      91.93230
                      10.53149                    -142.64440                     100.06074
                      11.11842                    -151.49686                     106.85663
                      11.54175                    -158.46633                     112.32269
                      11.92830                    -165.22941                     117.93793
                      12.09241                    -168.63890                     120.63438
        </DataArray>
        <DataArray type="Float32" Name="RotationalVelocity" NumberOfComponents="3" format="ascii">
                       3.27523                      -0.00236                      -0.30245
                       3.27588                      -0.00184                      -0.30284
                       3.27752                       0.00003                      -0.30417
                       3.27959                       0.00295                      -0.30618
                       3.28264                       0.00775                      -0.30944
                       3.28678                       0.01467                      -0.31398
                       3.29124                       0.02210                      -0.31857
                       3.29578                       0.02919                      -0.32249
                       3.30021                       0.03511                      -0.32503
                       3.30434                       0.03907                      -0.32557
                       3.30797                       0.04040                      -0.32359
                       3.31092                       0.03856                      -0.31874
                       3.31301                       0.03321                      -0.31093
                       3.31404                       0.02425                      -0.30035
                       3.31383                       0.01189                      -0.28752
                       3.31259                      -0.00060                      -0.27578
                       3.31076                      -0.01174                      -0.26620
                       3.30812                      -0.02349                      -0.25703
                       3.30648                      -0.02946                      -0.25278
        </DataArray>
        <DataArray type="Float32" Name="TranslationalAcceleration" NumberOfComponents="3" format="ascii">
                      -1.09068                      -9.33638                     -13.05661
                      -1.41867                     -11.23226                     -15.97255
                      -4.23678                     -31.29989                     -46.32591
                      -6.96182                     -49.30602                     -74.61076
                     -10.20061                     -70.05356                    -107.93884
                     -13.72227                     -94.93697                    -145.11602
                     -16.86944                    -120.48881                    -180.60723
                     -19.73126                    -146.18553                    -216.01810
                     -22.36965                    -172.35569                    -251.75772
                     -24.88694                    -199.07269                    -287.95307
                     -27.42727                    -226.23502                    -324.52058
                     -30.17966                    -253.69109                    -361.21140
                     -33.38219                    -281.24689                    -397.73607
                     -37.32468                    -308.74374                    -433.84237
                     -42.35136                    -336.11732                    -469.40940
                     -47.68409                    -358.90721                    -498.68427
                     -52.85585                    -377.29794                    -521.95044
                     -59.07067                    -396.40448                    -545.00476
                     -62.53391                    -405.75892                    -556.88680
        </DataArray>
        <DataArray type="Float32" Name="OrientationX" NumberOfComponents="3" format="ascii">
                       0.98344                      -0.16426                       0.07661
                       0.98342                      -0.16442                       0.07644
                       0.98335                      -0.16508                       0.07601
                       0.98320                      -0.16622                       0.07546
                       0.98291                      -0.16822                       0.07473
                       0.98771                      -0.14585                       0.05613
                       0.99033                      -0.13149                       0.04417
                       0.99205                      -0.12035                       0.03681
                       0.99347                      -0.10918                       0.03323
                       0.99453                      -0.09835                       0.03518
                       0.99500                      -0.08921                       0.04500
                       0.99474                      -0.08076                       0.06303
                       0.99311                      -0.07412                       0.09073
                       0.98906                      -0.07090                       0.12934
                       0.98223                      -0.06712                       0.17527
                       0.97404                      -0.06291                       0.21746
                       0.96564                      -0.05903                       0.25309
                       0.95502                      -0.05717                       0.29099
                       0.94873                      -0.05756                       0.31080
        </DataArray>
        <DataArray type="Float32" Name="OrientationY" NumberOfComponents="3" format="ascii">
                       0.17843                       0.80316                      -0.56842
                       0.17845                       0.80302                      -0.56860
                       0.17873                       0.80264                      -0.56905
                       0.17932                       0.80212                      -0.56960
                       0.18050                       0.80130                      -0.57038
                       0.15147                       0.80512                      -0.57344
                       0.13281                       0.80695                      -0.57549
                       0.11943                       0.80794                      -0.57703
                       0.10821                       0.80865                      -0.57826
                       0.10049                       0.80898                      -0.57918
                       0.09873                       0.80877                      -0.57978
                       0.10237                       0.80814                      -0.58003
                       0.11318                       0.80699                      -0.57962
                       0.13328                       0.80526                      -0.57775
                       0.15736                       0.80345                      -0.57421
                       0.17901                       0.80206                      -0.56978
                       0.19707                       0.80118                      -0.56504
                       0.21803                       0.80049                      -0.55829
                       0.22999                       0.80023                      -0.55384
        </DataArray>
        <DataArray type="Float32" Name="OrientationZ" NumberOfComponents="3" format="ascii">
                       0.03184                       0.57267                       0.81916
                       0.03211                       0.57282                       0.81905
                       0.03293                       0.57316                       0.81878
                       0.03415                       0.57356                       0.81845
                       0.03607                       0.57412                       0.81798
                       0.03845                       0.57490                       0.81732
                       0.04003                       0.57580                       0.81661
                       0.03970                       0.57684                       0.81589
                       0.03626                       0.57808                       0.81518
                       0.02850                       0.57955                       0.81444
                       0.01533                       0.58132                       0.81353
                      -0.00409                       0.58343                       0.81215
                      -0.03026                       0.58590                       0.80982
                      -0.06319                       0.58867                       0.80590
                      -0.10228                       0.59158                       0.79973
                      -0.13858                       0.59392                       0.79250
                      -0.16941                       0.59550                       0.78529
                      -0.20102                       0.59662                       0.77694
                      -0.21684                       0.59692                       0.77244
        </DataArray>
        <DataArray type="Float32" Name="Force" NumberOfComponents="3" format="ascii">
                      -0.85877                      13.34460                      -9.29577
                     462.51960                     173.51688                    -139.44184
                     604.49738                     462.15002                    -347.45200
                     560.62620                     655.48378                    -481.77904
                    5080.65117                   -1343.43660                     715.38419
                    5848.77427                   -1150.23735                     529.21226
                    6542.62180                   -1028.08573                     398.12063
                    8551.21540                   -1123.81591                     369.15859
                    9084.23383                    -951.22552                     259.52400
                    9642.58418                    -817.45140                     230.86751
                   11709.90789                    -748.52292                     295.30587
                   11037.86234                    -484.59767                     382.27031
                    7136.66256                    -127.20100                     342.50557
                    1164.43688                     228.60964                     -70.42806
                   -3727.04801                     262.00158                    -637.49666
                  -12363.85286                      23.95926                   -2079.87181
                  -19375.29118                    -450.52901                   -3662.06223
                  -19970.50545                    -765.43098                   -4359.02672
                  -39622.68627                   -3659.59937                   -7988.07974
        </DataArray>
        <DataArray type="Float32" Name="Moment" NumberOfComponents="3" format="ascii">
                       0.00000                       0.00000                       0.00000
                       0.00000                       0.00000                       0.00000
                       0.00000                       0.00000                       0.00000
                       0.00000                       0.00000                       0.00000
                     -79.89028                   -1265.91619                   -1809.91352
                    -160.48975                   -2383.52459                   -3406.85732
                    -221.90371                   -3162.05300                   -4518.80510
                    -325.79138                   -4672.42168                   -6677.42700
                    -424.76722                   -6650.66313                   -9508.16039
                    -378.09570                   -7484.66120                  -10709.72327
                    -226.96629                   -8168.84096                  -11705.86367
                      50.21966                   -8610.24193                  -12365.12695
                     329.85236                   -6429.91502                   -9260.97814
                     664.31611                   -6100.69587                   -8819.26430
                     997.82249                   -5603.77568                   -8136.71774
                    1277.42785                   -5249.64733                   -7654.17735
                    1372.80215                   -4578.78745                   -6699.93117
                     787.08981                   -2193.00720                   -3220.89923
                    -109.79944                     282.24620                     415.32394
        </DataArray>
      </PointData>
      <Lines>
        <DataArray type="Int32" Name="connectivity" format="ascii">
      0      1
      1      2
      2      3
      3      4
      4      5
      5      6
      6      7
      7      8
      8      9
      9     10
     10     11
     11     12
     12     13
     13     14
     14     15
     15     16
     16     17
     17     18
        </DataArray>
        <DataArray type="Int32" Name="offsets" format="ascii">
      2
      4
      6
      8
     10
     12
     14
     16
     18
     20
     22
     24
     26
     28
     30
     32
     34
     36
        </DataArray>
      </Lines>
    </Piece>
  </PolyData>
</VTKFile>
