<?xml version="1.0"?>
<VTKFile type="PolyData" version="0.1" byte_order="LittleEndian">
  <PolyData>
    <Piece NumberOfPoints="     19" NumberOfVerts="  0" NumberOfLines="     18"
           NumberOfStrips="  0" NumberOfPolys="      0">
      <Points>
        <DataArray type="Float32" NumberOfComponents="3" format="ascii">
                      -4.65623                      -0.51966                      91.43474
                      -4.59692                      -0.98341                      92.71928
                      -4.50298                      -2.00046                      95.25822
                      -4.41757                      -3.06066                      97.78282
                      -4.30947                      -4.41265                     100.92939
                      -4.10761                      -5.90346                     104.74898
                      -3.86238                      -7.27466                     108.60951
                      -3.61052                      -8.64510                     112.47067
                      -3.36063                     -10.01181                     116.33452
                      -3.12877                     -11.37448                     120.20231
                      -2.93545                     -12.73346                     124.07458
                      -2.80211                     -14.08315                     127.95304
                      -2.75449                     -15.41797                     131.83814
                      -2.82084                     -16.73078                     135.72916
                      -3.02906                     -18.01325                     139.62384
                      -3.33678                     -19.05044                     142.86944
                      -3.67799                     -19.84847                     145.46601
                      -4.10143                     -20.57065                     148.07612
                      -4.36515                     -20.95799                     149.36510
        </DataArray>
      </Points>
      <PointData>
        <DataArray type="Float32" Name="TranslationalVelocity" NumberOfComponents="3" format="ascii">
                      -0.17059                      -4.61617                      -1.67285
                      -0.31545                      -8.84112                      -3.19143
                      -0.62938                     -17.18932                      -6.52400
                      -0.95115                     -25.49448                     -10.00114
                      -1.35156                     -35.85669                     -14.44066
                      -1.77547                     -48.47265                     -19.34422
                      -2.14257                     -61.25474                     -23.86301
                      -2.48685                     -74.05979                     -28.38743
                      -2.80675                     -86.89161                     -32.90739
                      -3.10183                     -99.74908                     -37.42131
                      -3.37184                    -112.62795                     -41.92931
                      -3.61446                    -125.52809                     -46.41165
                      -3.82668                    -138.44518                     -50.84811
                      -4.00389                    -151.37176                     -55.21286
                      -4.13960                    -164.29693                     -59.47580
                      -4.21344                    -175.05586                     -62.92045
                      -4.24193                    -183.65588                     -65.56745
                      -4.23054                    -192.29715                     -67.95841
                      -4.21894                    -196.55990                     -69.23909
        </DataArray>
        <DataArray type="Float32" Name="RotationalVelocity" NumberOfComponents="3" format="ascii">
                       3.27441                      -0.00375                      -0.30266
                       3.27520                      -0.00340                      -0.30258
                       3.27730                      -0.00213                      -0.30211
                       3.27993                      -0.00019                      -0.30133
                       3.28371                       0.00290                      -0.30002
                       3.28867                       0.00720                      -0.29798
                       3.29379                       0.01174                      -0.29523
                       3.29888                       0.01613                      -0.29144
                       3.30383                       0.02012                      -0.28620
                       3.30860                       0.02357                      -0.27905
                       3.31320                       0.02645                      -0.26963
                       3.31764                       0.02890                      -0.25770
                       3.32192                       0.03120                      -0.24324
                       3.32601                       0.03381                      -0.22652
                       3.32984                       0.03737                      -0.20818
                       3.33271                       0.04160                      -0.19240
                       3.33469                       0.04630                      -0.18006
                       3.33627                       0.05255                      -0.16860
                       3.33687                       0.05638                      -0.16342
        </DataArray>
        <DataArray type="Float32" Name="TranslationalAcceleration" NumberOfComponents="3" format="ascii">
                      -1.31903                       5.40109                     -15.19423
                      -1.66230                       6.66084                     -18.35688
                      -4.75457                      20.02468                     -52.21567
                      -7.63254                      32.85853                     -83.20605
                     -11.06429                      48.26764                    -119.32157
                     -15.13160                      64.53003                    -160.96574
                     -19.22329                      79.15785                    -202.10556
                     -23.31435                      93.81026                    -243.23847
                     -27.38365                     108.64897                    -284.88005
                     -31.39002                     123.73323                    -327.18636
                     -35.29650                     139.03184                    -370.05747
                     -39.09639                     154.38697                    -413.26378
                     -42.83413                     169.61398                    -456.52141
                     -46.62878                     184.51994                    -499.59845
                     -50.69613                     198.94634                    -542.41544
                     -54.54633                     210.51651                    -578.01651
                     -58.11323                     219.40226                    -606.64902
                     -62.38504                     227.52887                    -635.85446
                     -64.74188                     231.91595                    -650.54537
        </DataArray>
        <DataArray type="Float32" Name="OrientationX" NumberOfComponents="3" format="ascii">
                       0.96464                      -0.23100                      -0.12694
                       0.96462                      -0.23089                      -0.12730
                       0.96449                      -0.23076                      -0.12852
                       0.96425                      -0.23070                      -0.13038
                       0.96381                      -0.23083                      -0.13341
                       0.97094                      -0.20248                      -0.12757
                       0.97505                      -0.18380                      -0.12445
                       0.97786                      -0.17046                      -0.12136
                       0.98028                      -0.15993                      -0.11611
                       0.98217                      -0.15391                      -0.10797
                       0.98316                      -0.15509                      -0.09669
                       0.98323                      -0.16326                      -0.08123
                       0.98169                      -0.18028                      -0.06159
                       0.97734                      -0.20818                      -0.03832
                       0.97024                      -0.24192                      -0.01009
                       0.96190                      -0.27290                       0.01685
                       0.95335                      -0.29918                       0.04015
                       0.94229                      -0.32874                       0.06342
                       0.93560                      -0.34510                       0.07460
        </DataArray>
        <DataArray type="Float32" Name="OrientationY" NumberOfComponents="3" format="ascii">
                       0.26003                       0.91280                       0.31493
                       0.26005                       0.91280                       0.31490
                       0.26033                       0.91275                       0.31483
                       0.26090                       0.91263                       0.31470
                       0.26204                       0.91240                       0.31441
                       0.23342                       0.91887                       0.31810
                       0.21481                       0.92261                       0.32038
                       0.20122                       0.92510                       0.32203
                       0.18956                       0.92705                       0.32348
                       0.18116                       0.92836                       0.32454
                       0.17847                       0.92874                       0.32496
                       0.18097                       0.92830                       0.32483
                       0.19050                       0.92662                       0.32416
                       0.20926                       0.92290                       0.32320
                       0.23215                       0.91757                       0.32277
                       0.25305                       0.91189                       0.32316
                       0.27079                       0.90640                       0.32422
                       0.29171                       0.89910                       0.32637
                       0.30378                       0.89449                       0.32803
        </DataArray>
        <DataArray type="Float32" Name="OrientationZ" NumberOfComponents="3" format="ascii">
                       0.04312                      -0.33680                       0.94059
                       0.04349                      -0.33686                       0.94055
                       0.04466                      -0.33711                       0.94041
                       0.04639                      -0.33746                       0.94020
                       0.04915                      -0.33799                       0.93986
                       0.05281                      -0.33863                       0.93944
                       0.05593                      -0.33912                       0.93908
                       0.05738                      -0.33933                       0.93892
                       0.05590                      -0.33911                       0.93908
                       0.05028                      -0.33832                       0.93969
                       0.03940                      -0.33674                       0.94077
                       0.02237                      -0.33408                       0.94228
                      -0.00137                      -0.32995                       0.94400
                      -0.03192                      -0.32390                       0.94555
                      -0.06882                      -0.31550                       0.94642
                      -0.10355                      -0.30658                       0.94620
                      -0.13339                      -0.29823                       0.94513
                      -0.16431                      -0.28903                       0.94311
                      -0.17993                      -0.28424                       0.94172
        </DataArray>
        <DataArray type="Float32" Name="Force" NumberOfComponents="3" format="ascii">
                       1.03007                      31.28370                      11.15458
                     497.18711                     223.02729                      56.87145
                     681.85463                     577.62738                     174.48111
                     655.99310                     807.72163                     256.94307
                    5155.82647                   -1783.80647                    -908.79205
                    5906.64136                   -1565.13686                    -893.12596
                    6627.23939                   -1430.14051                    -907.59865
                    8715.13874                   -1614.69525                   -1111.72864
                    9342.07719                   -1461.68595                   -1080.31143
                   10038.02311                   -1406.13856                   -1041.04866
                   12332.55017                   -1578.89185                   -1081.44540
                   11911.58471                   -1472.16325                    -807.86341
                    8238.42716                   -1003.86528                    -344.00460
                    2439.87864                    -102.10856                      47.40109
                   -2006.44695                     625.56422                      73.39717
                  -10575.43539                    2189.66092                    -404.23114
                  -17759.57541                    3664.89141                   -1264.40650
                  -19034.16540                    4197.98288                   -1913.67936
                  -40512.41824                    6684.68347                   -5571.27286
        </DataArray>
        <DataArray type="Float32" Name="Moment" NumberOfComponents="3" format="ascii">
                       0.00000                       0.00000                       0.00000
                       0.00000                       0.00000                       0.00000
                       0.00000                       0.00000                       0.00000
                       0.00000                       0.00000                       0.00000
                    -113.43391                     776.99139                   -2168.64556
                    -230.00963                    1465.96649                   -4090.15384
                    -322.57467                    1941.05739                   -5414.02786
                    -488.56465                    2865.89802                   -7992.47253
                    -676.27956                    4071.97442                  -11357.65416
                    -683.32903                    4575.32173                  -12768.67196
                    -583.39046                    4987.97075                  -13935.20058
                    -347.87322                    5254.52307                  -14704.51193
                      18.64144                    3944.63748                  -11064.70221
                     363.12752                    3762.62775                  -10586.05615
                     717.08628                    3439.59112                   -9712.76614
                    1011.34662                    3206.90610                   -9087.35999
                    1146.92973                    2806.13973                   -7975.90623
                     684.95441                    1350.38898                   -3850.50178
                     -30.87092                     -55.34701                     158.07490
        </DataArray>
      </PointData>
      <Lines>
        <DataArray type="Int32" Name="connectivity" format="ascii">
      0      1
      1      2
      2      3
      3      4
      4      5
      5      6
      6      7
      7      8
      8      9
      9     10
     10     11
     11     12
     12     13
     13     14
     14     15
     15     16
     16     17
     17     18
        </DataArray>
        <DataArray type="Int32" Name="offsets" format="ascii">
      2
      4
      6
      8
     10
     12
     14
     16
     18
     20
     22
     24
     26
     28
     30
     32
     34
     36
        </DataArray>
      </Lines>
    </Piece>
  </PolyData>
</VTKFile>
