<?xml version="1.0"?>
<VTKFile type="PolyData" version="0.1" byte_order="LittleEndian">
  <PolyData>
    <Piece NumberOfPoints="     19" NumberOfVerts="  0" NumberOfLines="     18"
           NumberOfStrips="  0" NumberOfPolys="      0">
      <Points>
        <DataArray type="Float32" NumberOfComponents="3" format="ascii">
                      -4.92421                      -0.03382                      88.53835
                      -5.10906                      -0.04367                      87.18391
                      -5.50057                       0.03143                      84.47637
                      -5.89962                       0.15165                      81.76870
                      -6.39724                       0.32923                      78.38310
                      -6.92853                       0.40018                      74.31277
                      -7.42214                       0.34207                      70.23848
                      -7.91028                       0.28167                      66.16288
                      -8.40067                       0.21610                      62.08656
                      -8.90799                       0.14560                      58.01120
                      -9.45092                       0.07146                      53.93957
                     -10.04894                      -0.01089                      49.87543
                     -10.72544                      -0.10540                      45.82427
                     -11.50604                      -0.21697                      41.79342
                     -12.41574                      -0.35108                      37.79177
                     -13.29572                      -0.48560                      34.48834
                     -14.08600                      -0.61813                      31.87060
                     -14.95158                      -0.82216                      29.27833
                     -15.43089                      -0.89153                      27.99570
        </DataArray>
      </Points>
      <PointData>
        <DataArray type="Float32" Name="TranslationalVelocity" NumberOfComponents="3" format="ascii">
                       0.00528                       4.93155                      -0.03455
                      -0.00071                       9.42030                      -0.06625
                       0.01241                      18.39512                       0.18075
                       0.03619                      27.36560                       0.57513
                       0.07115                      38.57049                       1.15674
                       0.06409                      52.00416                       1.39018
                       0.00510                      65.41944                       1.20425
                      -0.07879                      78.81642                       1.01420
                      -0.20243                      92.19524                       0.81241
                      -0.38157                     105.55482                       0.60239
                      -0.63213                     118.89213                       0.39222
                      -0.97093                     132.20126                       0.17244
                      -1.41241                     145.47215                      -0.06268
                      -1.96776                     158.68957                      -0.31991
                      -2.64349                     171.83309                      -0.60607
                      -3.30130                     182.70795                      -0.87378
                      -3.88666                     191.34482                      -1.13480
                      -4.53879                     199.91392                      -1.59162
                      -4.86656                     204.16677                      -1.69864
        </DataArray>
        <DataArray type="Float32" Name="RotationalVelocity" NumberOfComponents="3" format="ascii">
                       3.27356                       0.00270                      -0.30294
                       3.27286                       0.00298                      -0.30280
                       3.27081                       0.00363                      -0.30263
                       3.26814                       0.00444                      -0.30245
                       3.26432                       0.00587                      -0.30211
                       3.25944                       0.00866                      -0.30143
                       3.25455                       0.01332                      -0.30059
                       3.24976                       0.02063                      -0.29989
                       3.24500                       0.03130                      -0.29973
                       3.24009                       0.04590                      -0.30057
                       3.23479                       0.06472                      -0.30286
                       3.22888                       0.08766                      -0.30696
                       3.22217                       0.11411                      -0.31312
                       3.21461                       0.14288                      -0.32135
                       3.20631                       0.17204                      -0.33140
                       3.19907                       0.19479                      -0.34075
                       3.19329                       0.21046                      -0.34853
                       3.18780                       0.22245                      -0.35615
                       3.18525                       0.22662                      -0.35977
        </DataArray>
        <DataArray type="Float32" Name="TranslationalAcceleration" NumberOfComponents="3" format="ascii">
                       1.32338                       0.24030                      15.83831
                       1.80585                       0.19184                      19.40258
                       5.16085                      -0.47700                      55.54173
                       8.16365                      -1.66958                      88.78779
                      11.44861                      -3.50114                     127.60152
                      14.77133                      -4.24133                     171.68188
                      17.56039                      -3.67920                     214.53076
                      19.99050                      -3.17938                     257.15692
                      22.26543                      -2.71176                     300.07969
                      24.59887                      -2.28171                     343.44891
                      27.20268                      -1.90786                     387.14141
                      30.27561                      -1.54810                     430.86076
                      33.99006                      -1.16956                     474.23792
                      38.48004                      -0.73176                     516.93128
                      43.82953                      -0.18810                     558.73191
                      48.97494                       0.39048                     592.87489
                      53.49708                       1.03731                     619.86559
                      58.32535                       2.35834                     646.78995
                      60.87306                       2.64452                     660.28352
        </DataArray>
        <DataArray type="Float32" Name="OrientationX" NumberOfComponents="3" format="ascii">
                       0.96396                       0.22980                      -0.13408
                       0.96400                       0.22982                      -0.13375
                       0.96407                       0.23012                      -0.13269
                       0.96415                       0.23072                      -0.13113
                       0.96420                       0.23190                      -0.12863
                       0.97103                       0.20311                      -0.12591
                       0.97506                       0.18444                      -0.12341
                       0.97768                       0.17081                      -0.12233
                       0.97947                       0.15905                      -0.12388
                       0.98014                       0.15042                      -0.12919
                       0.97923                       0.14733                      -0.13929
                       0.97659                       0.14915                      -0.15502
                       0.97153                       0.15764                      -0.17688
                       0.96303                       0.17488                      -0.20493
                       0.95116                       0.19568                      -0.23874
                       0.93855                       0.21439                      -0.27049
                       0.92651                       0.23009                      -0.29771
                       0.91213                       0.24887                      -0.32570
                       0.90391                       0.25990                      -0.33969
        </DataArray>
        <DataArray type="Float32" Name="OrientationY" NumberOfComponents="3" format="ascii">
                       0.22897                      -0.97319                      -0.02175
                       0.22901                      -0.97318                      -0.02168
                       0.22931                      -0.97311                      -0.02154
                       0.22992                      -0.97297                      -0.02140
                       0.23112                      -0.97270                      -0.02120
                       0.20260                      -0.97911                      -0.01699
                       0.18410                      -0.98280                      -0.01424
                       0.17060                      -0.98526                      -0.01228
                       0.15896                      -0.98723                      -0.01068
                       0.15045                      -0.98857                      -0.00958
                       0.14749                      -0.98902                      -0.00926
                       0.14947                      -0.98872                      -0.00965
                       0.15817                      -0.98735                      -0.01119
                       0.17563                      -0.98435                      -0.01468
                       0.19671                      -0.98026                      -0.01975
                       0.21570                      -0.97613                      -0.02527
                       0.23161                      -0.97232                      -0.03069
                       0.25036                      -0.96740                      -0.03807
                       0.26118                      -0.96434                      -0.04282
        </DataArray>
        <DataArray type="Float32" Name="OrientationZ" NumberOfComponents="3" format="ascii">
                      -0.13548                      -0.00973                      -0.99073
                      -0.13514                      -0.00973                      -0.99078
                      -0.13408                      -0.00966                      -0.99092
                      -0.13252                      -0.00952                      -0.99113
                      -0.13003                      -0.00929                      -0.99147
                      -0.12673                      -0.00901                      -0.99190
                      -0.12391                      -0.00883                      -0.99225
                      -0.12262                      -0.00887                      -0.99241
                      -0.12399                      -0.00923                      -0.99224
                      -0.12915                      -0.01005                      -0.99157
                      -0.13912                      -0.01148                      -0.99021
                      -0.15471                      -0.01374                      -0.98786
                      -0.17641                      -0.01711                      -0.98417
                      -0.20429                      -0.02185                      -0.97867
                      -0.23789                      -0.02818                      -0.97088
                      -0.26945                      -0.03463                      -0.96239
                      -0.29653                      -0.04052                      -0.95416
                      -0.32456                      -0.04682                      -0.94471
                      -0.33871                      -0.05002                      -0.93956
        </DataArray>
        <DataArray type="Float32" Name="Force" NumberOfComponents="3" format="ascii">
                       0.02494                     -26.67908                       0.25862
                     360.59948                    -201.12082                     -47.20941
                     513.31104                    -548.40579                     -64.06949
                     501.91106                    -789.35669                     -59.35555
                    3956.43066                    1281.37574                    -531.45478
                    4453.68474                    1100.61980                    -579.79630
                    4865.90250                     956.20841                    -617.00608
                    6468.01373                    1087.12073                    -809.78512
                    6955.44388                     959.22648                    -878.46668
                    7327.04784                     865.43001                    -962.65962
                    9328.89141                     958.68246                   -1319.77466
                    8835.54629                     808.65767                   -1391.27550
                    5504.95245                     395.80118                    -990.29433
                     582.55540                    -253.54257                    -119.04224
                   -2918.25476                    -640.99883                     721.00870
                   -9902.96663                   -1466.97690                    2785.30634
                  -15547.00749                   -2149.13708                    4848.92574
                  -16543.92047                   -2336.06476                    5701.01330
                  -37760.74532                   -2474.48152                   13620.97740
        </DataArray>
        <DataArray type="Float32" Name="Moment" NumberOfComponents="3" format="ascii">
                       0.00000                       0.00000                       0.00000
                       0.00000                       0.00000                       0.00000
                       0.00000                       0.00000                       0.00000
                       0.00000                       0.00000                       0.00000
                     264.82052                      19.82177                    2019.25581
                     486.77041                      37.38914                    3810.08494
                     636.04161                      49.96945                    5093.46303
                     949.71391                      75.40283                    7686.89671
                    1390.31663                     109.16544                   11127.32433
                    1633.92938                     123.15489                   12546.96928
                    1936.39256                     135.44731                   13785.87382
                    2274.90417                     142.98002                   14530.29470
                    1939.46299                     106.73802                   10823.95228
                    2149.96170                     101.89660                   10304.21393
                    2325.66982                      94.23434                    9496.83571
                    2481.33765                      88.29115                    8868.72827
                    2410.91943                      77.52059                    7764.43832
                    1290.41906                      37.65623                    3760.13116
                     154.12308                       4.29348                     428.04759
        </DataArray>
      </PointData>
      <Lines>
        <DataArray type="Int32" Name="connectivity" format="ascii">
      0      1
      1      2
      2      3
      3      4
      4      5
      5      6
      6      7
      7      8
      8      9
      9     10
     10     11
     11     12
     12     13
     13     14
     14     15
     15     16
     16     17
     17     18
        </DataArray>
        <DataArray type="Int32" Name="offsets" format="ascii">
      2
      4
      6
      8
     10
     12
     14
     16
     18
     20
     22
     24
     26
     28
     30
     32
     34
     36
        </DataArray>
      </Lines>
    </Piece>
  </PolyData>
</VTKFile>
