<?xml version="1.0"?>
<VTKFile type="PolyData" version="0.1" byte_order="LittleEndian">
  <PolyData>
    <Piece NumberOfPoints="     19" NumberOfVerts="  0" NumberOfLines="     18"
           NumberOfStrips="  0" NumberOfPolys="      0">
      <Points>
        <DataArray type="Float32" NumberOfComponents="3" format="ascii">
                      -4.85864                       1.38078                      90.56859
                      -4.87224                       2.64964                      91.07696
                      -4.91503                       5.15294                      92.18203
                      -4.96386                       7.64105                      93.32763
                      -5.02513                      10.74348                      94.78159
                      -5.05108                      14.52364                      96.38422
                      -5.05941                      18.35505                      97.85788
                      -5.07481                      22.19062                      99.32249
                      -5.10851                      26.03133                     100.77617
                      -5.17882                      29.87631                     102.22035
                      -5.30812                      33.72327                     103.65741
                      -5.52000                      37.57076                     105.08378
                      -5.84177                      41.41527                     106.49589
                      -6.30268                      45.25147                     107.88830
                      -6.93089                      49.07214                     109.25384
                      -7.60811                      52.23676                     110.36345
                      -8.25723                      54.75424                     111.22141
                      -9.00380                      57.27239                     112.00463
                      -9.42836                      58.50710                     112.42337
        </DataArray>
      </Points>
      <PointData>
        <DataArray type="Float32" Name="TranslationalVelocity" NumberOfComponents="3" format="ascii">
                       0.67561                      -1.84847                       4.56025
                       1.05152                      -3.49614                       8.68259
                       1.79498                      -7.07427                      16.81665
                       2.53603                     -10.78317                      24.90313
                       3.46304                     -15.49234                      34.98942
                       4.59479                     -20.69818                      47.28435
                       5.74303                     -25.49289                      59.75316
                       6.89288                     -30.25930                      72.24402
                       8.04201                     -34.98806                      84.76103
                       9.18721                     -39.67862                      97.30212
                      10.32479                     -44.33250                     109.86063
                      11.45123                     -48.93170                     122.43245
                      12.56277                     -53.45745                     135.00685
                      13.65560                     -57.88486                     147.56717
                      14.72617                     -62.18399                     160.09045
                      15.59849                     -65.63753                     170.47511
                      16.28275                     -68.27820                     178.74356
                      16.95316                     -70.65303                     187.01966
                      17.28389                     -71.91702                     191.08185
        </DataArray>
        <DataArray type="Float32" Name="RotationalVelocity" NumberOfComponents="3" format="ascii">
                       3.24860                       0.00680                      -0.29330
                       3.24888                       0.00688                      -0.29343
                       3.24949                       0.00721                      -0.29379
                       3.25023                       0.00774                      -0.29421
                       3.25136                       0.00866                      -0.29466
                       3.25309                       0.01024                      -0.29484
                       3.25517                       0.01256                      -0.29430
                       3.25746                       0.01593                      -0.29275
                       3.25978                       0.02072                      -0.28994
                       3.26190                       0.02724                      -0.28571
                       3.26359                       0.03568                      -0.28001
                       3.26461                       0.04611                      -0.27290
                       3.26475                       0.05834                      -0.26463
                       3.26387                       0.07190                      -0.25561
                       3.26189                       0.08597                      -0.24645
                       3.25942                       0.09724                      -0.23931
                       3.25693                       0.10526                      -0.23437
                       3.25405                       0.11173                      -0.23054
                       3.25250                       0.11416                      -0.22918
        </DataArray>
        <DataArray type="Float32" Name="TranslationalAcceleration" NumberOfComponents="3" format="ascii">
                      -0.49084                     -14.78254                      -6.06771
                      -0.59253                     -17.90335                      -7.16916
                      -1.67740                     -50.90512                     -21.36345
                      -2.62541                     -81.09778                     -34.83853
                      -3.69838                    -116.26004                     -50.84998
                      -4.79753                    -156.82116                     -67.67118
                      -5.84432                    -196.89208                     -82.72857
                      -7.03581                    -236.93431                     -97.66239
                      -8.37904                    -277.47589                    -112.63059
                      -9.82132                    -318.68975                    -127.66072
                     -11.25091                    -360.48593                    -142.66743
                     -12.49302                    -402.62524                    -157.42242
                     -13.31916                    -444.78064                    -171.65676
                     -13.44868                    -486.63039                    -185.08402
                     -12.55232                    -527.94895                    -197.44509
                     -10.72589                    -561.92400                    -206.76098
                      -8.41962                    -588.90210                    -213.46449
                      -5.21922                    -616.02260                    -219.04269
                      -3.24534                    -629.47762                    -222.00625
        </DataArray>
        <DataArray type="Float32" Name="OrientationX" NumberOfComponents="3" format="ascii">
                       0.98894                      -0.04515                       0.14128
                       0.98894                      -0.04525                       0.14127
                       0.98889                      -0.04570                       0.14143
                       0.98880                      -0.04648                       0.14179
                       0.98862                      -0.04783                       0.14264
                       0.99260                      -0.03812                       0.11531
                       0.99468                      -0.03136                       0.09812
                       0.99593                      -0.02459                       0.08674
                       0.99678                      -0.01545                       0.07868
                       0.99713                      -0.00320                       0.07562
                       0.99670                       0.01234                       0.08024
                       0.99521                       0.03224                       0.09226
                       0.99195                       0.05632                       0.11345
                       0.98578                       0.08376                       0.14569
                       0.97615                       0.11571                       0.18368
                       0.96511                       0.14519                       0.21791
                       0.95414                       0.16993                       0.24647
                       0.94085                       0.19382                       0.27790
                       0.93326                       0.20493                       0.29500
        </DataArray>
        <DataArray type="Float32" Name="OrientationY" NumberOfComponents="3" format="ascii">
                       0.14795                       0.36718                      -0.91831
                       0.14798                       0.36690                      -0.91841
                       0.14830                       0.36618                      -0.91865
                       0.14894                       0.36526                      -0.91891
                       0.15024                       0.36390                      -0.91924
                       0.12126                       0.36345                      -0.92369
                       0.10281                       0.36242                      -0.92633
                       0.08976                       0.36124                      -0.92814
                       0.07896                       0.36014                      -0.92955
                       0.07173                       0.35912                      -0.93053
                       0.07052                       0.35822                      -0.93097
                       0.07472                       0.35754                      -0.93090
                       0.08608                       0.35732                      -0.93001
                       0.10665                       0.35816                      -0.92755
                       0.13108                       0.36027                      -0.92359
                       0.15289                       0.36318                      -0.91909
                       0.17097                       0.36652                      -0.91457
                       0.19179                       0.37146                      -0.90842
                       0.20361                       0.37477                      -0.90448
        </DataArray>
        <DataArray type="Float32" Name="OrientationZ" NumberOfComponents="3" format="ascii">
                      -0.01042                       0.92905                       0.36980
                      -0.01027                       0.92916                       0.36954
                      -0.00980                       0.92942                       0.36889
                      -0.00908                       0.92974                       0.36809
                      -0.00794                       0.93021                       0.36694
                      -0.00670                       0.93083                       0.36539
                      -0.00651                       0.93149                       0.36371
                      -0.00851                       0.93215                       0.36198
                      -0.01398                       0.93277                       0.36020
                      -0.02418                       0.93328                       0.35832
                      -0.04023                       0.93355                       0.35617
                      -0.06300                       0.93334                       0.35342
                      -0.09291                       0.93228                       0.34960
                      -0.12987                       0.92990                       0.34413
                      -0.17305                       0.92564                       0.33651
                      -0.21258                       0.92034                       0.32831
                      -0.24575                       0.91476                       0.32065
                      -0.27930                       0.90799                       0.31232
                      -0.29592                       0.90418                       0.30804
        </DataArray>
        <DataArray type="Float32" Name="Force" NumberOfComponents="3" format="ascii">
                      -0.97905                       4.30306                     -10.83823
                     436.28555                      83.66336                    -198.10475
                     558.16216                     210.75565                    -514.89081
                     508.89215                     293.98003                    -726.54016
                    4775.48108                    -426.36611                    1171.34621
                    5473.46794                    -324.68739                     910.30661
                    6066.42727                    -251.74865                     731.55227
                    7917.65752                    -226.18571                     736.24107
                    8419.26644                    -105.70441                     563.45759
                    8875.27858                      27.84530                     482.47355
                   10776.96988                     253.50234                     493.22930
                    9921.97256                     480.85522                     435.16994
                    5640.31756                     472.33147                     201.77449
                    2735.10901                     311.33580                     163.94245
                   -5569.48629                    -698.22016                    -816.88802
                  -14280.52275                   -2496.09743                   -1911.88617
                  -21208.10617                   -4434.10100                   -3024.02803
                  -20965.96791                   -5038.23446                   -3394.56709
                  -35730.23852                   -9723.67750                   -4790.51497
        </DataArray>
        <DataArray type="Float32" Name="Moment" NumberOfComponents="3" format="ascii">
                       0.00000                       0.00000                       0.00000
                       0.00000                       0.00000                       0.00000
                       0.00000                       0.00000                       0.00000
                       0.00000                       0.00000                       0.00000
                      16.52292                   -1994.28436                    -793.27541
                      25.30122                   -3713.91539                   -1476.80671
                      31.85109                   -4938.86278                   -1963.73440
                      61.75446                   -7332.65284                   -2916.83268
                     147.77411                  -10479.63836                   -4174.03834
                     293.14002                  -11800.02185                   -4711.39634
                     540.65965                  -12913.93751                   -5176.00909
                     898.75518                  -13588.89162                   -5476.33132
                     995.33534                  -10129.34137                   -4111.52413
                    1319.16862                   -9533.19184                   -3904.09009
                    1645.12071                   -8841.73486                   -3659.00791
                    1902.61146                   -8245.87513                   -3445.69600
                    1905.12633                   -7078.20555                   -2982.32794
                    1027.68856                   -3324.68933                   -1412.82255
                    -224.04294                     680.23414                     290.30916
        </DataArray>
      </PointData>
      <Lines>
        <DataArray type="Int32" Name="connectivity" format="ascii">
      0      1
      1      2
      2      3
      3      4
      4      5
      5      6
      6      7
      7      8
      8      9
      9     10
     10     11
     11     12
     12     13
     13     14
     14     15
     15     16
     16     17
     17     18
        </DataArray>
        <DataArray type="Int32" Name="offsets" format="ascii">
      2
      4
      6
      8
     10
     12
     14
     16
     18
     20
     22
     24
     26
     28
     30
     32
     34
     36
        </DataArray>
      </Lines>
    </Piece>
  </PolyData>
</VTKFile>
